<?xml version="1.0" encoding="utf-8"?>
<!-- Generator: Adobe Illustrator 20.0.0, SVG Export Plug-In . SVG Version: 6.00 Build 0)  -->
<svg version="1.1" id="Layer_1" xmlns="http://www.w3.org/2000/svg" xmlns:xlink="http://www.w3.org/1999/xlink" x="0px" y="0px"
	 viewBox="0 0 670 540" style="enable-background:new 0 0 670 540;" xml:space="preserve">
<style type="text/css">
	.st0{fill:#231815;}
	.st1{fill:#D2D2D3;}
	.st2{fill:#2F89C5;}
	.st3{fill:#B8D200;}
	.st4{fill:#FFFFFF;}
	.st5{fill:#87B417;}
	.st6{fill:#78A637;}
</style>
<g>
	<g>
		<g>
			<path class="st0" d="M129.5,526.1c-0.2,1.7-0.8,2.9-1.8,3.8c-1,0.9-2.4,1.3-4.1,1.3c-1.8,0-3.3-0.7-4.4-2
				c-1.1-1.3-1.7-3.1-1.7-5.3v-1.5c0-1.5,0.3-2.7,0.8-3.8c0.5-1.1,1.3-2,2.2-2.5c1-0.6,2.1-0.9,3.3-0.9c1.7,0,3,0.5,4,1.4
				c1,0.9,1.6,2.2,1.8,3.9h-2.1c-0.2-1.2-0.6-2.2-1.2-2.7c-0.6-0.6-1.4-0.8-2.5-0.8c-1.3,0-2.4,0.5-3.1,1.5c-0.7,1-1.1,2.4-1.1,4.2
				v1.5c0,1.7,0.4,3,1.1,4.1c0.7,1,1.7,1.5,3,1.5c1.1,0,2-0.3,2.6-0.8c0.6-0.5,1-1.4,1.2-2.7H129.5z"/>
			<path class="st0" d="M134.5,520.8c0.9-1.1,2-1.6,3.4-1.6c2.5,0,3.7,1.4,3.7,4.2v7.7h-2v-7.7c0-0.8-0.2-1.5-0.6-1.9
				c-0.4-0.4-1-0.6-1.8-0.6c-0.6,0-1.2,0.2-1.7,0.5s-0.9,0.8-1.1,1.4v8.3h-2v-16.5h2V520.8z"/>
			<path class="st0" d="M149.9,531.2c-1.6,0-2.9-0.5-3.8-1.6c-1-1-1.5-2.4-1.5-4.2v-0.4c0-1.2,0.2-2.2,0.7-3.1
				c0.4-0.9,1.1-1.6,1.8-2.1c0.8-0.5,1.6-0.8,2.6-0.8c1.5,0,2.7,0.5,3.5,1.5s1.3,2.4,1.3,4.3v0.8h-7.9c0,1.1,0.4,2.1,1,2.8
				c0.6,0.7,1.5,1.1,2.4,1.1c0.7,0,1.3-0.1,1.8-0.4s0.9-0.7,1.3-1.1l1.2,0.9C153.3,530.5,151.8,531.2,149.9,531.2z M149.6,520.8
				c-0.8,0-1.5,0.3-2,0.9c-0.5,0.6-0.9,1.4-1,2.5h5.8V524c-0.1-1-0.3-1.8-0.8-2.3C151.1,521.1,150.5,520.8,149.6,520.8z"/>
			<path class="st0" d="M159,519.4l0.1,1.3c0.9-1,2-1.5,3.4-1.5c1.6,0,2.7,0.6,3.3,1.9c0.4-0.6,0.9-1,1.5-1.4
				c0.6-0.3,1.4-0.5,2.2-0.5c2.5,0,3.8,1.3,3.9,4v7.8h-2v-7.7c0-0.8-0.2-1.5-0.6-1.9c-0.4-0.4-1-0.6-1.9-0.6c-0.7,0-1.3,0.2-1.8,0.7
				c-0.5,0.4-0.8,1-0.8,1.8v7.7h-2v-7.6c0-1.7-0.8-2.5-2.5-2.5c-1.3,0-2.2,0.6-2.7,1.7v8.5h-2v-11.6H159z"/>
			<path class="st0" d="M176.9,516.3c0-0.3,0.1-0.6,0.3-0.8c0.2-0.2,0.5-0.3,0.9-0.3s0.7,0.1,0.9,0.3s0.3,0.5,0.3,0.8
				s-0.1,0.6-0.3,0.8s-0.5,0.3-0.9,0.3s-0.7-0.1-0.9-0.3C177,516.9,176.9,516.6,176.9,516.3z M179,531h-2v-11.6h2V531z"/>
			<path class="st0" d="M187.3,529.6c0.7,0,1.3-0.2,1.9-0.6s0.8-1,0.9-1.6h1.9c0,0.7-0.3,1.3-0.7,1.9s-1,1.1-1.7,1.4
				c-0.7,0.4-1.5,0.5-2.2,0.5c-1.6,0-2.8-0.5-3.8-1.6c-0.9-1.1-1.4-2.5-1.4-4.3V525c0-1.1,0.2-2.1,0.6-3s1-1.6,1.8-2.1
				c0.8-0.5,1.7-0.7,2.8-0.7c1.3,0,2.4,0.4,3.2,1.2c0.9,0.8,1.3,1.8,1.4,3H190c-0.1-0.8-0.3-1.4-0.9-1.9c-0.5-0.5-1.1-0.7-1.9-0.7
				c-1,0-1.8,0.4-2.3,1.1c-0.6,0.7-0.8,1.8-0.8,3.2v0.4c0,1.3,0.3,2.4,0.8,3.1S186.3,529.6,187.3,529.6z"/>
			<path class="st0" d="M201.8,531c-0.1-0.2-0.2-0.6-0.3-1.2c-0.9,1-2,1.4-3.3,1.4c-1.1,0-2.1-0.3-2.8-1c-0.7-0.6-1.1-1.5-1.1-2.5
				c0-1.2,0.5-2.2,1.4-2.8c0.9-0.7,2.2-1,3.9-1h1.9v-0.9c0-0.7-0.2-1.2-0.6-1.7c-0.4-0.4-1-0.6-1.8-0.6c-0.7,0-1.3,0.2-1.8,0.5
				s-0.7,0.8-0.7,1.3h-2c0-0.6,0.2-1.1,0.6-1.7c0.4-0.5,1-1,1.7-1.3c0.7-0.3,1.5-0.5,2.3-0.5c1.3,0,2.4,0.3,3.1,1
				c0.8,0.7,1.2,1.6,1.2,2.8v5.3c0,1.1,0.1,1.9,0.4,2.5v0.2H201.8z M198.5,529.5c0.6,0,1.2-0.2,1.8-0.5s1-0.7,1.2-1.3v-2.4h-1.6
				c-2.4,0-3.7,0.7-3.7,2.1c0,0.6,0.2,1.1,0.6,1.5S197.8,529.5,198.5,529.5z"/>
			<path class="st0" d="M209.2,531h-2v-16.5h2V531z"/>
			<path class="st0" d="M218.2,526.8c0-0.8,0.2-1.4,0.6-2.1c0.4-0.6,1.2-1.4,2.4-2.2c-0.7-0.8-1.2-1.5-1.4-2s-0.4-1-0.4-1.5
				c0-1.2,0.4-2.1,1.1-2.8s1.7-1,2.9-1c1.1,0,2,0.3,2.7,0.9c0.7,0.6,1.1,1.4,1.1,2.4c0,0.6-0.2,1.2-0.5,1.7
				c-0.3,0.5-0.9,1.1-1.7,1.7l-1.1,0.8l3.5,4.2c0.5-0.9,0.7-2,0.7-3.1h1.8c0,1.8-0.4,3.3-1.3,4.5l2.2,2.7h-2.4l-1-1.2
				c-0.5,0.5-1.2,0.8-1.9,1.1c-0.7,0.2-1.4,0.4-2.2,0.4c-1.5,0-2.8-0.4-3.7-1.2S218.2,528.2,218.2,526.8z M223.3,529.6
				c1.1,0,2-0.4,2.9-1.2l-3.8-4.6l-0.4,0.3c-1.2,0.9-1.8,1.8-1.8,2.7c0,0.8,0.3,1.5,0.8,2C221.6,529.4,222.4,529.6,223.3,529.6z
				 M221.5,518.9c0,0.7,0.4,1.5,1.3,2.6l1.3-0.9c0.5-0.3,0.8-0.7,1-1c0.2-0.3,0.3-0.7,0.3-1.1c0-0.5-0.2-0.9-0.5-1.2
				c-0.4-0.3-0.8-0.5-1.4-0.5c-0.6,0-1.1,0.2-1.4,0.6C221.7,517.8,221.5,518.3,221.5,518.9z"/>
			<path class="st0" d="M250.5,529c-0.5,0.8-1.3,1.3-2.2,1.7c-0.9,0.4-2.1,0.6-3.3,0.6c-1.3,0-2.4-0.3-3.4-0.9
				c-1-0.6-1.8-1.4-2.3-2.6c-0.5-1.1-0.8-2.4-0.8-3.8v-1.4c0-2.4,0.5-4.2,1.6-5.5c1.1-1.3,2.6-1.9,4.6-1.9c1.6,0,2.9,0.4,3.9,1.3
				c1,0.8,1.6,2,1.8,3.5h-2.1c-0.4-2.1-1.6-3.1-3.7-3.1c-1.4,0-2.4,0.5-3.1,1.5c-0.7,1-1.1,2.4-1.1,4.2v1.3c0,1.8,0.4,3.2,1.2,4.2
				c0.8,1,1.9,1.6,3.3,1.6c0.8,0,1.5-0.1,2-0.3c0.6-0.2,1.1-0.5,1.4-0.9v-3.5h-3.6v-1.7h5.7V529z"/>
			<path class="st0" d="M259.7,521.2c-0.3,0-0.6-0.1-1-0.1c-1.3,0-2.2,0.6-2.7,1.7v8.2h-2v-11.6h1.9l0,1.3c0.7-1,1.6-1.6,2.8-1.6
				c0.4,0,0.7,0,0.9,0.2V521.2z"/>
			<path class="st0" d="M266.6,531.2c-1.6,0-2.9-0.5-3.8-1.6c-1-1-1.5-2.4-1.5-4.2v-0.4c0-1.2,0.2-2.2,0.7-3.1
				c0.4-0.9,1.1-1.6,1.8-2.1c0.8-0.5,1.6-0.8,2.6-0.8c1.5,0,2.7,0.5,3.5,1.5s1.3,2.4,1.3,4.3v0.8h-7.9c0,1.1,0.4,2.1,1,2.8
				c0.6,0.7,1.5,1.1,2.4,1.1c0.7,0,1.3-0.1,1.8-0.4s0.9-0.7,1.3-1.1l1.2,0.9C270,530.5,268.5,531.2,266.6,531.2z M266.4,520.8
				c-0.8,0-1.5,0.3-2,0.9c-0.5,0.6-0.9,1.4-1,2.5h5.8V524c-0.1-1-0.3-1.8-0.8-2.3C267.8,521.1,267.2,520.8,266.4,520.8z"/>
			<path class="st0" d="M278.7,531.2c-1.6,0-2.9-0.5-3.8-1.6c-1-1-1.5-2.4-1.5-4.2v-0.4c0-1.2,0.2-2.2,0.7-3.1
				c0.4-0.9,1.1-1.6,1.8-2.1c0.8-0.5,1.6-0.8,2.6-0.8c1.5,0,2.7,0.5,3.5,1.5s1.3,2.4,1.3,4.3v0.8h-7.9c0,1.1,0.4,2.1,1,2.8
				c0.6,0.7,1.5,1.1,2.4,1.1c0.7,0,1.3-0.1,1.8-0.4s0.9-0.7,1.3-1.1l1.2,0.9C282.1,530.5,280.6,531.2,278.7,531.2z M278.4,520.8
				c-0.8,0-1.5,0.3-2,0.9c-0.5,0.6-0.9,1.4-1,2.5h5.8V524c-0.1-1-0.3-1.8-0.8-2.3C279.9,521.1,279.3,520.8,278.4,520.8z"/>
			<path class="st0" d="M287.8,519.4l0.1,1.5c0.9-1.1,2-1.7,3.5-1.7c2.5,0,3.7,1.4,3.7,4.2v7.7h-2v-7.7c0-0.8-0.2-1.5-0.6-1.9
				c-0.4-0.4-1-0.6-1.8-0.6c-0.6,0-1.2,0.2-1.7,0.5s-0.9,0.8-1.1,1.4v8.3h-2v-11.6H287.8z"/>
			<path class="st0" d="M315.1,517.1h-5v14H308v-14h-5v-1.7h12.1V517.1z"/>
			<path class="st0" d="M321.3,531.2c-1.6,0-2.9-0.5-3.8-1.6c-1-1-1.5-2.4-1.5-4.2v-0.4c0-1.2,0.2-2.2,0.7-3.1
				c0.4-0.9,1.1-1.6,1.8-2.1c0.8-0.5,1.6-0.8,2.6-0.8c1.5,0,2.7,0.5,3.5,1.5s1.3,2.4,1.3,4.3v0.8H318c0,1.1,0.4,2.1,1,2.8
				c0.6,0.7,1.5,1.1,2.4,1.1c0.7,0,1.3-0.1,1.8-0.4s0.9-0.7,1.3-1.1l1.2,0.9C324.7,530.5,323.3,531.2,321.3,531.2z M321.1,520.8
				c-0.8,0-1.5,0.3-2,0.9c-0.5,0.6-0.9,1.4-1,2.5h5.8V524c-0.1-1-0.3-1.8-0.8-2.3C322.6,521.1,321.9,520.8,321.1,520.8z"/>
			<path class="st0" d="M333.3,529.6c0.7,0,1.3-0.2,1.9-0.6s0.8-1,0.9-1.6h1.9c0,0.7-0.3,1.3-0.7,1.9s-1,1.1-1.7,1.4
				c-0.7,0.4-1.5,0.5-2.2,0.5c-1.6,0-2.8-0.5-3.8-1.6c-0.9-1.1-1.4-2.5-1.4-4.3V525c0-1.1,0.2-2.1,0.6-3s1-1.6,1.8-2.1
				c0.8-0.5,1.7-0.7,2.8-0.7c1.3,0,2.4,0.4,3.2,1.2c0.9,0.8,1.3,1.8,1.4,3H336c-0.1-0.8-0.3-1.4-0.9-1.9c-0.5-0.5-1.1-0.7-1.9-0.7
				c-1,0-1.8,0.4-2.3,1.1c-0.6,0.7-0.8,1.8-0.8,3.2v0.4c0,1.3,0.3,2.4,0.8,3.1S332.2,529.6,333.3,529.6z"/>
			<path class="st0" d="M342.5,520.8c0.9-1.1,2-1.6,3.4-1.6c2.5,0,3.7,1.4,3.7,4.2v7.7h-2v-7.7c0-0.8-0.2-1.5-0.6-1.9
				c-0.4-0.4-1-0.6-1.8-0.6c-0.6,0-1.2,0.2-1.7,0.5s-0.9,0.8-1.1,1.4v8.3h-2v-16.5h2V520.8z"/>
			<path class="st0" d="M355,519.4l0.1,1.5c0.9-1.1,2-1.7,3.5-1.7c2.5,0,3.7,1.4,3.7,4.2v7.7h-2v-7.7c0-0.8-0.2-1.5-0.6-1.9
				c-0.4-0.4-1-0.6-1.8-0.6c-0.6,0-1.2,0.2-1.7,0.5s-0.9,0.8-1.1,1.4v8.3h-2v-11.6H355z"/>
			<path class="st0" d="M365.2,525.1c0-1.1,0.2-2.2,0.7-3.1c0.4-0.9,1.1-1.6,1.9-2.1c0.8-0.5,1.7-0.7,2.7-0.7c1.6,0,2.9,0.5,3.8,1.6
				c1,1.1,1.5,2.6,1.5,4.4v0.1c0,1.1-0.2,2.1-0.7,3c-0.4,0.9-1.1,1.6-1.9,2.1c-0.8,0.5-1.7,0.8-2.8,0.8c-1.6,0-2.9-0.5-3.8-1.6
				c-1-1.1-1.5-2.5-1.5-4.4V525.1z M367.2,525.3c0,1.3,0.3,2.3,0.9,3.1c0.6,0.8,1.4,1.2,2.4,1.2c1,0,1.8-0.4,2.4-1.2
				c0.6-0.8,0.9-1.9,0.9-3.3c0-1.3-0.3-2.3-0.9-3.1c-0.6-0.8-1.4-1.2-2.4-1.2c-1,0-1.8,0.4-2.4,1.2S367.2,523.9,367.2,525.3z"/>
			<path class="st0" d="M380.8,531h-2v-16.5h2V531z"/>
			<path class="st0" d="M383.9,525.1c0-1.1,0.2-2.2,0.7-3.1c0.4-0.9,1.1-1.6,1.9-2.1c0.8-0.5,1.7-0.7,2.7-0.7c1.6,0,2.9,0.5,3.8,1.6
				c1,1.1,1.5,2.6,1.5,4.4v0.1c0,1.1-0.2,2.1-0.7,3c-0.4,0.9-1.1,1.6-1.9,2.1c-0.8,0.5-1.7,0.8-2.8,0.8c-1.6,0-2.9-0.5-3.8-1.6
				c-1-1.1-1.5-2.5-1.5-4.4V525.1z M385.9,525.3c0,1.3,0.3,2.3,0.9,3.1c0.6,0.8,1.4,1.2,2.4,1.2c1,0,1.8-0.4,2.4-1.2
				c0.6-0.8,0.9-1.9,0.9-3.3c0-1.3-0.3-2.3-0.9-3.1c-0.6-0.8-1.4-1.2-2.4-1.2c-1,0-1.8,0.4-2.4,1.2S385.9,523.9,385.9,525.3z"/>
			<path class="st0" d="M397,525.1c0-1.8,0.4-3.3,1.3-4.3c0.8-1.1,1.9-1.6,3.3-1.6c1.4,0,2.5,0.5,3.3,1.5l0.1-1.3h1.8v11.3
				c0,1.5-0.4,2.7-1.3,3.6c-0.9,0.9-2.1,1.3-3.6,1.3c-0.8,0-1.7-0.2-2.5-0.5s-1.4-0.8-1.8-1.5l1-1.2c0.9,1.1,1.9,1.6,3.1,1.6
				c1,0,1.7-0.3,2.3-0.8c0.5-0.5,0.8-1.3,0.8-2.3v-1c-0.8,0.9-1.9,1.4-3.3,1.4c-1.4,0-2.5-0.5-3.3-1.6
				C397.4,528.5,397,527,397,525.1z M399,525.3c0,1.3,0.3,2.3,0.8,3.1c0.5,0.7,1.3,1.1,2.3,1.1c1.3,0,2.2-0.6,2.8-1.7v-5.3
				c-0.6-1.1-1.5-1.7-2.7-1.7c-1,0-1.7,0.4-2.3,1.1S399,523.9,399,525.3z"/>
			<path class="st0" d="M414,528.1l2.7-8.7h2.1l-4.7,13.4c-0.7,1.9-1.9,2.9-3.4,2.9l-0.4,0l-0.7-0.1v-1.6l0.5,0
				c0.7,0,1.2-0.1,1.6-0.4c0.4-0.3,0.7-0.8,0.9-1.5l0.4-1.2l-4.1-11.5h2.2L414,528.1z"/>
			<path class="st0" d="M429.3,529.3h7.4v1.7h-9.5v-15.6h2.1V529.3z"/>
			<path class="st0" d="M446.4,531c-0.1-0.2-0.2-0.6-0.3-1.2c-0.9,1-2,1.4-3.3,1.4c-1.1,0-2.1-0.3-2.8-1c-0.7-0.6-1.1-1.5-1.1-2.5
				c0-1.2,0.5-2.2,1.4-2.8c0.9-0.7,2.2-1,3.9-1h1.9v-0.9c0-0.7-0.2-1.2-0.6-1.7c-0.4-0.4-1-0.6-1.8-0.6c-0.7,0-1.3,0.2-1.8,0.5
				s-0.7,0.8-0.7,1.3h-2c0-0.6,0.2-1.1,0.6-1.7c0.4-0.5,1-1,1.7-1.3c0.7-0.3,1.5-0.5,2.3-0.5c1.3,0,2.4,0.3,3.1,1
				c0.8,0.7,1.2,1.6,1.2,2.8v5.3c0,1.1,0.1,1.9,0.4,2.5v0.2H446.4z M443.1,529.5c0.6,0,1.2-0.2,1.8-0.5s1-0.7,1.2-1.3v-2.4h-1.6
				c-2.4,0-3.7,0.7-3.7,2.1c0,0.6,0.2,1.1,0.6,1.5S442.5,529.5,443.1,529.5z"/>
			<path class="st0" d="M461.5,525.3c0,1.8-0.4,3.2-1.2,4.3c-0.8,1.1-1.9,1.6-3.3,1.6c-1.5,0-2.6-0.5-3.4-1.6l-0.1,1.3h-1.8v-16.5h2
				v6.2c0.8-1,1.9-1.5,3.3-1.5s2.5,0.5,3.3,1.6c0.8,1.1,1.2,2.5,1.2,4.4V525.3z M459.5,525.1c0-1.4-0.3-2.4-0.8-3.1
				s-1.3-1.1-2.3-1.1c-1.3,0-2.3,0.6-2.8,1.8v5c0.6,1.2,1.6,1.8,2.8,1.8c1,0,1.7-0.4,2.2-1.1S459.5,526.6,459.5,525.1z"/>
			<path class="st0" d="M475.2,524.1c-1.8-0.5-3.1-1.1-3.9-1.9c-0.8-0.7-1.2-1.7-1.2-2.7c0-1.2,0.5-2.3,1.5-3.1
				c1-0.8,2.3-1.2,3.8-1.2c1.1,0,2,0.2,2.9,0.6c0.8,0.4,1.5,1,2,1.7c0.5,0.7,0.7,1.5,0.7,2.4h-2.1c0-0.9-0.3-1.7-0.9-2.2
				c-0.6-0.5-1.5-0.8-2.5-0.8c-1,0-1.8,0.2-2.4,0.7c-0.6,0.4-0.9,1.1-0.9,1.9c0,0.6,0.3,1.2,0.8,1.6c0.5,0.4,1.5,0.8,2.8,1.2
				c1.3,0.4,2.3,0.8,3.1,1.2c0.7,0.4,1.3,1,1.6,1.5c0.4,0.6,0.5,1.3,0.5,2.1c0,1.3-0.5,2.3-1.5,3c-1,0.8-2.3,1.1-4,1.1
				c-1.1,0-2.1-0.2-3-0.6c-0.9-0.4-1.6-1-2.2-1.7c-0.5-0.7-0.8-1.5-0.8-2.4h2.1c0,0.9,0.3,1.7,1,2.2c0.7,0.5,1.6,0.8,2.8,0.8
				c1.1,0,1.9-0.2,2.5-0.7s0.9-1,0.9-1.8s-0.3-1.4-0.8-1.8C477.6,524.9,476.6,524.5,475.2,524.1z"/>
			<path class="st0" d="M488.6,531.2c-1.6,0-2.9-0.5-3.8-1.6c-1-1-1.5-2.4-1.5-4.2v-0.4c0-1.2,0.2-2.2,0.7-3.1
				c0.4-0.9,1.1-1.6,1.8-2.1c0.8-0.5,1.6-0.8,2.6-0.8c1.5,0,2.7,0.5,3.5,1.5s1.3,2.4,1.3,4.3v0.8h-7.9c0,1.1,0.4,2.1,1,2.8
				c0.6,0.7,1.5,1.1,2.4,1.1c0.7,0,1.3-0.1,1.8-0.4s0.9-0.7,1.3-1.1l1.2,0.9C492,530.5,490.6,531.2,488.6,531.2z M488.4,520.8
				c-0.8,0-1.5,0.3-2,0.9c-0.5,0.6-0.9,1.4-1,2.5h5.8V524c-0.1-1-0.3-1.8-0.8-2.3C489.9,521.1,489.2,520.8,488.4,520.8z"/>
			<path class="st0" d="M501.5,521.2c-0.3,0-0.6-0.1-1-0.1c-1.3,0-2.2,0.6-2.7,1.7v8.2h-2v-11.6h1.9l0,1.3c0.7-1,1.6-1.6,2.8-1.6
				c0.4,0,0.7,0,0.9,0.2V521.2z"/>
			<path class="st0" d="M507.8,528.3l2.9-8.9h2l-4.2,11.6H507l-4.2-11.6h2L507.8,528.3z"/>
			<path class="st0" d="M515.1,516.3c0-0.3,0.1-0.6,0.3-0.8c0.2-0.2,0.5-0.3,0.9-0.3s0.7,0.1,0.9,0.3s0.3,0.5,0.3,0.8
				s-0.1,0.6-0.3,0.8s-0.5,0.3-0.9,0.3s-0.7-0.1-0.9-0.3C515.2,516.9,515.1,516.6,515.1,516.3z M517.2,531h-2v-11.6h2V531z"/>
			<path class="st0" d="M525.5,529.6c0.7,0,1.3-0.2,1.9-0.6s0.8-1,0.9-1.6h1.9c0,0.7-0.3,1.3-0.7,1.9s-1,1.1-1.7,1.4
				c-0.7,0.4-1.5,0.5-2.2,0.5c-1.6,0-2.8-0.5-3.8-1.6c-0.9-1.1-1.4-2.5-1.4-4.3V525c0-1.1,0.2-2.1,0.6-3s1-1.6,1.8-2.1
				c0.8-0.5,1.7-0.7,2.8-0.7c1.3,0,2.4,0.4,3.2,1.2c0.9,0.8,1.3,1.8,1.4,3h-1.9c-0.1-0.8-0.3-1.4-0.9-1.9c-0.5-0.5-1.1-0.7-1.9-0.7
				c-1,0-1.8,0.4-2.3,1.1c-0.6,0.7-0.8,1.8-0.8,3.2v0.4c0,1.3,0.3,2.4,0.8,3.1S524.5,529.6,525.5,529.6z"/>
			<path class="st0" d="M537.6,531.2c-1.6,0-2.9-0.5-3.8-1.6c-1-1-1.5-2.4-1.5-4.2v-0.4c0-1.2,0.2-2.2,0.7-3.1
				c0.4-0.9,1.1-1.6,1.8-2.1c0.8-0.5,1.6-0.8,2.6-0.8c1.5,0,2.7,0.5,3.5,1.5s1.3,2.4,1.3,4.3v0.8h-7.9c0,1.1,0.4,2.1,1,2.8
				c0.6,0.7,1.5,1.1,2.4,1.1c0.7,0,1.3-0.1,1.8-0.4s0.9-0.7,1.3-1.1l1.2,0.9C541,530.5,539.6,531.2,537.6,531.2z M537.4,520.8
				c-0.8,0-1.5,0.3-2,0.9c-0.5,0.6-0.9,1.4-1,2.5h5.8V524c-0.1-1-0.3-1.8-0.8-2.3C538.9,521.1,538.2,520.8,537.4,520.8z"/>
		</g>
	</g>
	<g>
		<path class="st1" d="M158,190.6h-9c0,51.7,21,98.6,54.8,132.4c33.9,33.9,80.7,54.8,132.4,54.8c51.7,0,98.6-21,132.4-54.8
			c33.9-33.9,54.8-80.7,54.8-132.4c0-51.7-21-98.6-54.8-132.4C434.7,24.3,387.9,3.4,336.2,3.4c-51.7,0-98.6,21-132.4,54.8
			c-33.9,33.9-54.8,80.7-54.8,132.4H158l-1.6,0c0-49.7,20.1-94.6,52.7-127.1c32.6-32.6,77.5-52.7,127.1-52.7
			c49.7,0,94.6,20.1,127.1,52.7c32.6,32.6,52.7,77.5,52.7,127.1c0,49.7-20.1,94.6-52.7,127.1c-32.6,32.6-77.5,52.7-127.1,52.7
			c-49.7,0-94.6-20.1-127.1-52.7c-31.2-31.2-51.9-82.3-52.7-127.1"/>
		<g>
			<g>
				<path class="st2" d="M319.6,166.3c-1.3,0.3-2.2,0.5-2.8,0.6s-1.2,0.1-1.9,0.1c-2.7,0-4.7-0.7-5.9-2.2s-1.8-3.3-1.8-5.5
					c0-1.4,0.3-2.7,0.8-3.9s1.4-2.1,2.5-2.7s2.6-1,4.5-1c1.6,0,3.2,0.2,4.7,0.6v2.4c-1.3-0.4-2.2-0.7-2.8-0.8s-1.1-0.1-1.6-0.1
					c-1.7,0-2.9,0.5-3.7,1.6s-1.1,2.4-1.1,4c0,1.7,0.4,3,1.3,4.1s2.1,1.5,3.7,1.5c0.3,0,0.7,0,1.2-0.1v-4.8h3V166.3z"/>
				<path class="st2" d="M323,166.6v-10.7h2.9v2c0.3-0.7,0.8-1.2,1.4-1.7s1.3-0.6,2-0.6c0.2,0,0.4,0,0.5,0.1v2.6
					c-0.4-0.1-0.8-0.2-1.1-0.2c-0.6,0-1.1,0.1-1.6,0.4s-0.9,0.7-1.2,1.3v6.8H323z"/>
				<path class="st2" d="M340.8,166.3c-1.4,0.4-2.7,0.6-3.9,0.6c-1.2,0-2.2-0.2-3-0.6c-0.9-0.4-1.5-1.1-2-2s-0.7-1.9-0.7-3
					c0-1,0.2-1.9,0.6-2.8c0.4-0.8,1-1.5,1.7-2c0.8-0.5,1.7-0.7,2.8-0.7c1.4,0,2.5,0.4,3.3,1.3c0.8,0.9,1.2,2.5,1.2,4.9h-6.6
					c0.1,0.7,0.2,1.3,0.5,1.7s0.6,0.7,1.1,1c0.4,0.2,1,0.4,1.8,0.4c1,0,2-0.2,3.3-0.7V166.3z M334.1,160.2h3.8c0-1-0.2-1.7-0.5-2.1
					c-0.3-0.4-0.7-0.6-1.3-0.6c-0.6,0-1,0.2-1.4,0.7S334.2,159.3,334.1,160.2z"/>
				<path class="st2" d="M352.5,166.3c-1.4,0.4-2.7,0.6-3.9,0.6c-1.2,0-2.2-0.2-3-0.6s-1.5-1.1-2-2c-0.5-0.9-0.7-1.9-0.7-3
					c0-1,0.2-1.9,0.6-2.8c0.4-0.8,1-1.5,1.7-2c0.8-0.5,1.7-0.7,2.8-0.7c1.4,0,2.5,0.4,3.3,1.3c0.8,0.9,1.2,2.5,1.2,4.9h-6.6
					c0.1,0.7,0.2,1.3,0.5,1.7c0.3,0.4,0.6,0.7,1.1,1s1,0.4,1.8,0.4c1,0,2-0.2,3.3-0.7V166.3z M345.9,160.2h3.8c0-1-0.2-1.7-0.5-2.1
					c-0.3-0.4-0.7-0.6-1.3-0.6c-0.6,0-1,0.2-1.4,0.7S345.9,159.3,345.9,160.2z"/>
				<path class="st2" d="M355.5,166.6v-10.7h2.9v2c0.5-0.8,1.1-1.4,1.7-1.8s1.3-0.5,1.9-0.5c0.8,0,1.6,0.3,2.2,0.8s0.9,1.4,0.9,2.6
					v7.6h-2.9v-6.9c0-0.6-0.1-1-0.2-1.2s-0.3-0.4-0.4-0.5s-0.4-0.2-0.6-0.2c-0.4,0-0.8,0.1-1.2,0.4s-0.9,0.8-1.4,1.5v6.7H355.5z"/>
				<path class="st2" d="M367.7,161.4v-1.8h4.3v1.8H367.7z"/>
				<path class="st2" d="M276,195v-14.5h9.3v2H279v4h5.2v2H279v4.4h6.7v2.1H276z"/>
				<path class="st2" d="M288,195v-10.7h2.9v2c0.5-0.8,1.1-1.4,1.7-1.8s1.3-0.5,1.9-0.5c0.8,0,1.6,0.3,2.2,0.8s0.9,1.4,0.9,2.6v7.6
					h-2.9v-6.9c0-0.6-0.1-1-0.2-1.2s-0.3-0.4-0.4-0.5s-0.4-0.2-0.6-0.2c-0.4,0-0.8,0.1-1.2,0.4s-0.9,0.8-1.4,1.5v6.7H288z"/>
				<path class="st2" d="M303.8,195l-4.1-10.7h3l3,7.7l3-7.7h2.1l-4.1,10.7H303.8z"/>
				<path class="st2" d="M313,182.5v-2.4h2.9v2.4H313z M313,195v-10.7h2.9V195H313z"/>
				<path class="st2" d="M319.5,195v-10.7h2.9v2c0.3-0.7,0.8-1.2,1.4-1.7s1.3-0.6,2-0.6c0.2,0,0.4,0,0.5,0.1v2.6
					c-0.4-0.1-0.8-0.2-1.1-0.2c-0.6,0-1.1,0.1-1.6,0.4s-0.9,0.7-1.2,1.3v6.8H319.5z"/>
				<path class="st2" d="M333.1,195.3c-1.2,0-2.2-0.2-3-0.7s-1.5-1.1-1.9-2s-0.7-1.9-0.7-2.9c0-1.1,0.2-2,0.6-2.9s1.1-1.5,1.9-2
					s1.8-0.7,3-0.7c1.2,0,2.2,0.2,3,0.7c0.8,0.5,1.5,1.1,1.9,2c0.4,0.9,0.6,1.8,0.6,2.9c0,1.1-0.2,2.1-0.7,2.9
					c-0.4,0.9-1.1,1.5-1.9,2C335.3,195,334.3,195.3,333.1,195.3z M333.1,193.4c0.8,0,1.4-0.4,1.9-1.1s0.6-1.6,0.6-2.7
					c0-1.1-0.2-2-0.6-2.7s-1-1.1-1.9-1.1c-0.8,0-1.4,0.4-1.8,1.1s-0.6,1.6-0.6,2.7c0,1.1,0.2,2,0.6,2.7S332.3,193.4,333.1,193.4z"/>
				<path class="st2" d="M341.3,195v-10.7h2.9v2c0.5-0.8,1.1-1.4,1.7-1.8s1.3-0.5,1.9-0.5c0.8,0,1.6,0.3,2.2,0.8s0.9,1.4,0.9,2.6
					v7.6h-2.9v-6.9c0-0.6-0.1-1-0.2-1.2s-0.3-0.4-0.4-0.5s-0.4-0.2-0.6-0.2c-0.4,0-0.8,0.1-1.2,0.4s-0.9,0.8-1.4,1.5v6.7H341.3z"/>
				<path class="st2" d="M354.5,195v-10.7h2.8v2c0.4-0.7,0.8-1.2,1.4-1.6s1.3-0.6,2.2-0.6c0.5,0,1,0.1,1.4,0.2s0.7,0.4,1,0.8
					s0.5,0.8,0.6,1.3c0.5-0.8,1.1-1.4,1.6-1.7c0.5-0.4,1.2-0.5,2-0.5c0.9,0,1.6,0.3,2.1,0.8s0.8,1.3,0.8,2.5v7.7h-2.8v-6.8
					c0-0.8-0.1-1.3-0.4-1.6c-0.3-0.2-0.5-0.4-0.9-0.4c-0.4,0-0.9,0.2-1.3,0.5c-0.4,0.3-0.8,0.8-1.3,1.4v6.8H361v-6.8
					c0-0.8-0.1-1.3-0.4-1.6s-0.6-0.4-0.9-0.4c-0.4,0-0.8,0.2-1.3,0.5c-0.4,0.3-0.8,0.8-1.2,1.4v6.8H354.5z"/>
				<path class="st2" d="M382.6,194.6c-1.4,0.4-2.7,0.6-3.9,0.6c-1.2,0-2.2-0.2-3-0.6s-1.5-1.1-2-2c-0.5-0.9-0.7-1.9-0.7-3
					c0-1,0.2-1.9,0.6-2.8c0.4-0.8,1-1.5,1.7-2c0.8-0.5,1.7-0.7,2.8-0.7c1.4,0,2.5,0.4,3.3,1.3c0.8,0.9,1.2,2.5,1.2,4.9H376
					c0.1,0.7,0.2,1.3,0.5,1.7c0.3,0.4,0.6,0.7,1.1,1s1,0.4,1.8,0.4c1,0,2-0.2,3.3-0.7V194.6z M375.9,188.6h3.8c0-1-0.2-1.7-0.5-2.1
					c-0.3-0.4-0.7-0.6-1.3-0.6c-0.6,0-1,0.2-1.4,0.7S376,187.7,375.9,188.6z"/>
				<path class="st2" d="M385.6,195v-10.7h2.9v2c0.5-0.8,1.1-1.4,1.7-1.8s1.3-0.5,1.9-0.5c0.8,0,1.6,0.3,2.2,0.8s0.9,1.4,0.9,2.6
					v7.6h-2.9v-6.9c0-0.6-0.1-1-0.2-1.2s-0.3-0.4-0.4-0.5s-0.4-0.2-0.6-0.2c-0.4,0-0.8,0.1-1.2,0.4s-0.9,0.8-1.4,1.5v6.7H385.6z"/>
				<path class="st2" d="M404.3,194.9c-0.7,0.2-1.2,0.3-1.6,0.3c-0.9,0-1.7-0.1-2.2-0.4s-0.9-0.6-1.2-1.1s-0.4-1.1-0.4-2v-5.6h-1.2
					v-1.8h1.2v-1.8l2.9-0.3v2.1h2.3v1.8h-2.3v5.3c0,0.8,0.1,1.3,0.4,1.6c0.3,0.3,0.7,0.4,1.2,0.4c0.2,0,0.5,0,0.9-0.1V194.9z"/>
				<path class="st2" d="M305.5,223.4v-14.5h6.2c1.7,0,3,0.3,3.9,0.8s1.7,1.3,2.2,2.4s0.8,2.3,0.8,3.8c0,1.4-0.3,2.7-0.8,3.9
					s-1.3,2-2.3,2.7s-2.4,1-4.1,1H305.5z M308.5,221.3h2.2c1.2,0,2.1-0.2,2.7-0.5s1.1-1,1.5-1.9s0.5-1.8,0.5-2.9
					c0-1-0.2-1.9-0.5-2.7s-0.8-1.4-1.5-1.8s-1.7-0.6-3.1-0.6h-1.8V221.3z"/>
				<path class="st2" d="M330.1,223c-1.4,0.4-2.7,0.6-3.9,0.6c-1.2,0-2.2-0.2-3-0.6c-0.9-0.4-1.5-1.1-2-2s-0.7-1.9-0.7-3
					c0-1,0.2-1.9,0.6-2.8c0.4-0.8,1-1.5,1.7-2c0.8-0.5,1.7-0.7,2.8-0.7c1.4,0,2.5,0.4,3.3,1.3s1.2,2.5,1.2,4.9h-6.6
					c0.1,0.7,0.2,1.3,0.5,1.7s0.6,0.7,1.1,1s1,0.4,1.8,0.4c1,0,2-0.2,3.3-0.7V223z M323.4,217h3.8c0-1-0.2-1.7-0.5-2.1
					s-0.7-0.6-1.3-0.6c-0.6,0-1,0.2-1.4,0.7S323.5,216.1,323.4,217z"/>
				<path class="st2" d="M332.8,223.1v-2.1c1.4,0.6,2.7,0.9,3.7,0.9c0.5,0,1-0.1,1.3-0.3s0.5-0.5,0.5-0.9c0-0.3-0.1-0.6-0.4-0.8
					c-0.2-0.2-0.6-0.4-1.1-0.6l-1-0.4c-1-0.4-1.8-0.8-2.2-1.3c-0.5-0.5-0.7-1.1-0.7-1.9c0-0.9,0.4-1.7,1.1-2.3s1.8-0.9,3.3-0.9
					c0.9,0,1.9,0.1,3.1,0.4v2c-1.2-0.4-2.1-0.6-2.9-0.6c-0.6,0-1,0.1-1.3,0.3c-0.3,0.2-0.4,0.5-0.4,0.8c0,0.3,0.1,0.5,0.3,0.7
					c0.2,0.2,0.5,0.4,1,0.6l0.8,0.3c1.4,0.5,2.3,1,2.7,1.5c0.4,0.5,0.6,1.1,0.6,1.8c0,0.9-0.4,1.7-1.2,2.4s-1.9,1-3.4,1
					C335.4,223.6,334.1,223.4,332.8,223.1z"/>
				<path class="st2" d="M344.4,210.9v-2.4h2.9v2.4H344.4z M344.4,223.4v-10.7h2.9v10.7H344.4z"/>
				<path class="st2" d="M351,226.7l0.2-2.1c1.2,0.5,2.3,0.8,3.4,0.8c1,0,1.8-0.2,2.3-0.6s0.8-1.2,0.8-2.3v-1.5
					c-0.3,0.7-0.8,1.2-1.4,1.7s-1.3,0.6-2.1,0.6c-0.8,0-1.6-0.2-2.2-0.6c-0.6-0.4-1.1-1-1.4-1.9c-0.3-0.8-0.5-1.8-0.5-2.8
					c0-1.6,0.4-3,1.2-4s1.9-1.6,3.4-1.6c0.4,0,0.7,0,1,0.1s0.6,0.2,0.9,0.4s0.6,0.4,1.1,0.8l0.3-1.1h2.6v8.2c0,2.2-0.2,3.6-0.6,4.4
					s-1.1,1.3-1.9,1.7s-1.8,0.6-3,0.6C353.8,227.5,352.4,227.2,351,226.7z M357.6,219.4v-4c-0.4-0.5-0.8-0.8-1.1-0.9
					c-0.4-0.2-0.7-0.2-1-0.2c-0.7,0-1.3,0.3-1.7,1c-0.4,0.7-0.6,1.6-0.6,2.7c0,1,0.2,1.7,0.5,2.3s0.8,0.8,1.5,0.8
					c0.5,0,0.9-0.1,1.3-0.4S357.2,220,357.6,219.4z"/>
				<path class="st2" d="M364.1,223.4v-10.7h2.9v2c0.5-0.8,1.1-1.4,1.7-1.8s1.3-0.5,1.9-0.5c0.8,0,1.6,0.3,2.2,0.8s0.9,1.4,0.9,2.6
					v7.6h-2.9v-6.9c0-0.6-0.1-1-0.2-1.2s-0.3-0.4-0.4-0.5s-0.4-0.2-0.6-0.2c-0.4,0-0.8,0.1-1.2,0.4s-0.9,0.8-1.4,1.5v6.7H364.1z"/>
			</g>
		</g>
		<g>
			<path class="st3" d="M2.2,93c0-49.7,52.6-90,117.5-90c64.9,0,117.5,40.3,117.5,90c0,49.7-52.6,90-117.5,90
				C54.8,183,2.2,142.7,2.2,93"/>
			<g>
				<g>
					<path class="st4" d="M34.9,55.8V44.2h4.3c0.9,0,1.6,0.1,2,0.3s0.8,0.6,1.1,1s0.4,1,0.4,1.5c0,0.7-0.2,1.3-0.6,1.9
						s-0.9,1.1-1.7,1.4l3.8,5.4h-2.9L38.5,51h-1.3v4.7H34.9z M37.2,49.5h0.6c1,0,1.7-0.2,2.1-0.6s0.6-0.9,0.6-1.5
						c0-0.5-0.2-0.9-0.5-1.1c-0.3-0.3-0.9-0.4-1.9-0.4h-0.8V49.5z"/>
					<path class="st4" d="M52.9,55.5c-1.1,0.3-2.1,0.5-3.1,0.5c-0.9,0-1.7-0.2-2.4-0.5c-0.7-0.3-1.2-0.9-1.6-1.6
						c-0.4-0.7-0.6-1.5-0.6-2.4c0-0.8,0.2-1.5,0.5-2.2s0.8-1.2,1.4-1.6s1.4-0.6,2.2-0.6c1.1,0,2,0.3,2.6,1s1,2,1,3.9h-5.3
						c0.1,0.6,0.2,1,0.4,1.4s0.5,0.6,0.8,0.8s0.8,0.3,1.4,0.3c0.8,0,1.6-0.2,2.6-0.5V55.5z M47.6,50.6h3c0-0.8-0.1-1.3-0.4-1.7
						s-0.6-0.5-1-0.5c-0.4,0-0.8,0.2-1.1,0.6S47.7,49.9,47.6,50.6z"/>
					<path class="st4" d="M55.1,55.5v-1.7c1.1,0.5,2.1,0.7,2.9,0.7c0.4,0,0.8-0.1,1-0.3s0.4-0.4,0.4-0.7c0-0.2-0.1-0.5-0.3-0.6
						c-0.2-0.2-0.5-0.3-0.9-0.5l-0.8-0.3c-0.8-0.3-1.4-0.7-1.8-1.1c-0.4-0.4-0.6-0.9-0.6-1.5c0-0.7,0.3-1.4,0.9-1.8s1.5-0.7,2.7-0.7
						c0.7,0,1.5,0.1,2.5,0.3v1.6c-0.9-0.3-1.7-0.5-2.3-0.5c-0.5,0-0.8,0.1-1.1,0.2s-0.4,0.4-0.4,0.6c0,0.2,0.1,0.4,0.2,0.5
						c0.2,0.2,0.4,0.3,0.8,0.5l0.7,0.3c1.1,0.4,1.8,0.8,2.2,1.2c0.3,0.4,0.5,0.9,0.5,1.4c0,0.7-0.3,1.4-0.9,1.9S59.4,56,58.2,56
						C57.2,56,56.2,55.8,55.1,55.5z"/>
					<path class="st4" d="M68.1,56c-0.9,0-1.7-0.2-2.4-0.5s-1.2-0.9-1.5-1.6s-0.5-1.5-0.5-2.3c0-0.9,0.2-1.6,0.5-2.3
						s0.8-1.2,1.5-1.6s1.5-0.6,2.4-0.6c0.9,0,1.7,0.2,2.4,0.6s1.2,0.9,1.5,1.6s0.5,1.5,0.5,2.3c0,0.9-0.2,1.6-0.5,2.3
						s-0.9,1.2-1.5,1.6S69,56,68.1,56z M68.1,54.5c0.7,0,1.1-0.3,1.5-0.9s0.5-1.3,0.5-2.2c0-0.9-0.2-1.6-0.5-2.2s-0.8-0.9-1.5-0.9
						c-0.7,0-1.1,0.3-1.5,0.9s-0.5,1.3-0.5,2.2c0,0.9,0.2,1.6,0.5,2.2S67.4,54.5,68.1,54.5z"/>
					<path class="st4" d="M79.9,55.8v-1.6c-0.4,0.7-0.9,1.1-1.4,1.4S77.5,56,77,56c-0.7,0-1.3-0.2-1.7-0.7s-0.7-1.1-0.7-2.1v-6.1
						h2.3v5.5c0,0.5,0,0.8,0.1,1s0.2,0.3,0.4,0.4s0.3,0.1,0.5,0.1c0.3,0,0.6-0.1,1-0.3s0.7-0.6,1.1-1.2v-5.4h2.3v8.6H79.9z"/>
					<path class="st4" d="M85.1,55.8v-8.6h2.3v1.6c0.3-0.6,0.7-1,1.1-1.3s1-0.5,1.6-0.5c0.1,0,0.3,0,0.4,0v2.1
						c-0.3-0.1-0.6-0.2-0.9-0.2c-0.5,0-0.9,0.1-1.2,0.3s-0.7,0.6-1,1.1v5.4H85.1z"/>
					<path class="st4" d="M98.7,55.6C97.7,55.8,96.8,56,96,56c-1.5,0-2.5-0.4-3.3-1.3c-0.7-0.9-1.1-1.9-1.1-3.2
						c0-1.3,0.4-2.4,1.2-3.2s1.9-1.2,3.4-1.2c0.7,0,1.5,0.1,2.4,0.3V49c-0.9-0.3-1.7-0.5-2.2-0.5c-0.8,0-1.4,0.3-1.7,0.9
						c-0.4,0.6-0.5,1.3-0.5,2c0,0.6,0.1,1.1,0.3,1.6c0.2,0.5,0.5,0.8,0.9,1.1s0.8,0.3,1.3,0.3c0.7,0,1.4-0.2,2.1-0.5V55.6z"/>
					<path class="st4" d="M107.9,55.5c-1.1,0.3-2.1,0.5-3.1,0.5c-0.9,0-1.7-0.2-2.4-0.5c-0.7-0.3-1.2-0.9-1.6-1.6
						c-0.4-0.7-0.6-1.5-0.6-2.4c0-0.8,0.2-1.5,0.5-2.2s0.8-1.2,1.4-1.6s1.4-0.6,2.2-0.6c1.1,0,2,0.3,2.6,1s1,2,1,3.9h-5.3
						c0.1,0.6,0.2,1,0.4,1.4s0.5,0.6,0.8,0.8s0.8,0.3,1.4,0.3c0.8,0,1.6-0.2,2.6-0.5V55.5z M102.6,50.6h3c0-0.8-0.1-1.3-0.4-1.7
						s-0.6-0.5-1-0.5c-0.4,0-0.8,0.2-1.1,0.6S102.6,49.9,102.6,50.6z"/>
					<path class="st4" d="M115.4,55.8V44.2h4.3c0.9,0,1.6,0.1,2,0.3s0.8,0.6,1.1,1s0.4,1,0.4,1.5c0,0.7-0.2,1.3-0.6,1.9
						s-0.9,1.1-1.7,1.4l3.8,5.4h-2.9L119,51h-1.3v4.7H115.4z M117.7,49.5h0.6c1,0,1.7-0.2,2.1-0.6s0.6-0.9,0.6-1.5
						c0-0.5-0.2-0.9-0.5-1.1c-0.3-0.3-0.9-0.4-1.9-0.4h-0.8V49.5z"/>
					<path class="st4" d="M133.4,55.5c-1.1,0.3-2.1,0.5-3.1,0.5c-0.9,0-1.7-0.2-2.4-0.5c-0.7-0.3-1.2-0.9-1.6-1.6
						c-0.4-0.7-0.6-1.5-0.6-2.4c0-0.8,0.2-1.5,0.5-2.2s0.8-1.2,1.4-1.6s1.4-0.6,2.2-0.6c1.1,0,2,0.3,2.6,1s1,2,1,3.9h-5.3
						c0.1,0.6,0.2,1,0.4,1.4s0.5,0.6,0.8,0.8s0.8,0.3,1.4,0.3c0.8,0,1.6-0.2,2.6-0.5V55.5z M128.1,50.6h3c0-0.8-0.1-1.3-0.4-1.7
						s-0.6-0.5-1-0.5c-0.4,0-0.8,0.2-1.1,0.6S128.1,49.9,128.1,50.6z"/>
					<path class="st4" d="M141.1,55.8v-1.6c-0.3,0.6-0.7,1.1-1.1,1.4s-1,0.5-1.6,0.5c-1,0-1.8-0.4-2.4-1.2c-0.6-0.8-0.9-1.8-0.9-3.1
						c0-1.3,0.3-2.5,1-3.4s1.5-1.3,2.7-1.3c0.3,0,0.6,0,0.8,0.1s0.5,0.2,0.7,0.3s0.5,0.4,0.8,0.7v-4.6h2.3v12.3H141.1z M141.1,49.4
						c-0.3-0.4-0.6-0.6-0.9-0.7s-0.6-0.2-0.9-0.2c-0.6,0-1.1,0.3-1.4,0.9c-0.3,0.6-0.5,1.3-0.5,2.1c0,0.8,0.1,1.4,0.4,1.9
						c0.3,0.5,0.7,0.7,1.2,0.7c0.3,0,0.7-0.1,1-0.4c0.3-0.2,0.6-0.6,0.9-1V49.4z"/>
					<path class="st4" d="M151.7,55.8v-1.6c-0.4,0.7-0.9,1.1-1.4,1.4s-1,0.4-1.5,0.4c-0.7,0-1.3-0.2-1.7-0.7s-0.7-1.1-0.7-2.1v-6.1
						h2.3v5.5c0,0.5,0,0.8,0.1,1s0.2,0.3,0.4,0.4s0.3,0.1,0.5,0.1c0.3,0,0.6-0.1,1-0.3s0.7-0.6,1.1-1.2v-5.4h2.3v8.6H151.7z"/>
					<path class="st4" d="M163.2,55.6c-0.9,0.3-1.8,0.4-2.7,0.4c-1.5,0-2.5-0.4-3.3-1.3c-0.7-0.9-1.1-1.9-1.1-3.2
						c0-1.3,0.4-2.4,1.2-3.2s1.9-1.2,3.4-1.2c0.7,0,1.5,0.1,2.4,0.3V49c-0.9-0.3-1.7-0.5-2.2-0.5c-0.8,0-1.4,0.3-1.7,0.9
						c-0.4,0.6-0.5,1.3-0.5,2c0,0.6,0.1,1.1,0.3,1.6c0.2,0.5,0.5,0.8,0.9,1.1s0.8,0.3,1.3,0.3c0.7,0,1.4-0.2,2.1-0.5V55.6z"/>
					<path class="st4" d="M169.9,55.7c-0.6,0.2-1,0.2-1.3,0.2c-0.8,0-1.3-0.1-1.8-0.3s-0.7-0.5-0.9-0.9s-0.3-0.9-0.3-1.6v-4.5h-1
						v-1.4h1v-1.4l2.3-0.3v1.7h1.8v1.4h-1.8v4.2c0,0.6,0.1,1,0.3,1.3c0.2,0.2,0.5,0.3,1,0.3c0.2,0,0.4,0,0.7-0.1V55.7z"/>
					<path class="st4" d="M171.9,45.8v-1.9h2.3v1.9H171.9z M171.9,55.8v-8.6h2.3v8.6H171.9z"/>
					<path class="st4" d="M180.8,56c-0.9,0-1.7-0.2-2.4-0.5s-1.2-0.9-1.5-1.6s-0.5-1.5-0.5-2.3c0-0.9,0.2-1.6,0.5-2.3
						s0.8-1.2,1.5-1.6s1.5-0.6,2.4-0.6c0.9,0,1.7,0.2,2.4,0.6s1.2,0.9,1.5,1.6s0.5,1.5,0.5,2.3c0,0.9-0.2,1.6-0.5,2.3
						s-0.9,1.2-1.5,1.6S181.7,56,180.8,56z M180.8,54.5c0.7,0,1.1-0.3,1.5-0.9s0.5-1.3,0.5-2.2c0-0.9-0.2-1.6-0.5-2.2
						s-0.8-0.9-1.5-0.9c-0.7,0-1.1,0.3-1.5,0.9s-0.5,1.3-0.5,2.2c0,0.9,0.2,1.6,0.5,2.2S180.1,54.5,180.8,54.5z"/>
					<path class="st4" d="M187.3,55.8v-8.6h2.3v1.6c0.4-0.7,0.9-1.1,1.4-1.4s1-0.4,1.5-0.4c0.7,0,1.3,0.2,1.7,0.7s0.7,1.1,0.7,2.1
						v6.1h-2.3v-5.5c0-0.5,0-0.8-0.1-1s-0.2-0.3-0.4-0.4s-0.3-0.1-0.5-0.1c-0.3,0-0.6,0.1-1,0.3s-0.7,0.6-1.1,1.2v5.4H187.3z"/>
				</g>
			</g>
			<g>
				<g>
					<path class="st4" d="M39.9,79.5c-0.3,0-0.6-0.1-0.8-0.3s-0.3-0.5-0.3-0.8s0.1-0.6,0.3-0.8s0.5-0.3,0.8-0.3s0.6,0.1,0.8,0.3
						s0.3,0.5,0.3,0.8s-0.1,0.6-0.3,0.8S40.2,79.5,39.9,79.5z"/>
					<path class="st4" d="M61.7,81.8c-1.1,0.3-2.1,0.5-3,0.5c-1.5,0-2.6-0.4-3.4-1.3C54.4,80.2,54,79,54,77.4c0-1.6,0.4-2.8,1.2-3.6
						c0.8-0.9,1.9-1.3,3.4-1.3c0.9,0,1.9,0.1,3,0.4v1.2c-1.3-0.4-2.3-0.7-3-0.7c-1,0-1.8,0.3-2.4,1c-0.6,0.7-0.8,1.7-0.8,2.9
						c0,1.2,0.3,2.2,0.9,2.9c0.6,0.7,1.4,1,2.5,1c0.4,0,0.9-0.1,1.4-0.2V78h1.3V81.8z"/>
					<path class="st4" d="M64.4,82.1v-6.9h1.3v1.3c0.5-1,1.2-1.4,2.2-1.4c0.1,0,0.3,0,0.4,0v1.2c-0.2-0.1-0.4-0.1-0.6-0.1
						c-0.8,0-1.5,0.5-2,1.4v4.5H64.4z"/>
					<path class="st4" d="M75.2,81.8c-0.8,0.3-1.6,0.4-2.2,0.4c-1,0-1.8-0.3-2.5-1c-0.6-0.7-1-1.5-1-2.6c0-1,0.3-1.9,0.8-2.6
						c0.6-0.7,1.3-1,2.2-1c0.8,0,1.5,0.3,1.9,0.9c0.5,0.6,0.7,1.4,0.7,2.5l0,0.4h-4.3c0.2,1.6,1,2.5,2.4,2.5c0.5,0,1.2-0.1,1.9-0.4
						V81.8z M70.9,77.9h3c0-1.3-0.5-1.9-1.4-1.9C71.6,76,71,76.6,70.9,77.9z"/>
					<path class="st4" d="M82.8,81.8c-0.8,0.3-1.6,0.4-2.2,0.4c-1,0-1.8-0.3-2.5-1c-0.6-0.7-1-1.5-1-2.6c0-1,0.3-1.9,0.8-2.6
						c0.6-0.7,1.3-1,2.2-1c0.8,0,1.5,0.3,1.9,0.9c0.5,0.6,0.7,1.4,0.7,2.5l0,0.4h-4.3c0.2,1.6,1,2.5,2.4,2.5c0.5,0,1.2-0.1,1.9-0.4
						V81.8z M78.6,77.9h3c0-1.3-0.5-1.9-1.4-1.9C79.2,76,78.7,76.6,78.6,77.9z"/>
					<path class="st4" d="M85.4,82.1v-6.9h1.3v1.3c0.7-1,1.5-1.4,2.4-1.4c0.6,0,1.1,0.2,1.4,0.6c0.4,0.4,0.5,0.9,0.5,1.5v5h-1.3
						v-4.5c0-0.5-0.1-0.9-0.2-1.1c-0.1-0.2-0.4-0.3-0.7-0.3c-0.8,0-1.5,0.5-2.2,1.5v4.5H85.4z"/>
					<path class="st4" d="M98.4,84.6v-9.4h1.3v1.3c0.5-1,1.3-1.4,2.3-1.4c0.8,0,1.5,0.3,2,0.9c0.5,0.6,0.7,1.4,0.7,2.5
						c0,1.1-0.3,2.1-0.8,2.8c-0.5,0.7-1.2,1-2.1,1c-0.8,0-1.5-0.3-2-0.9v3.3H98.4z M99.6,80.4c0.6,0.6,1.3,0.9,1.8,0.9
						c0.6,0,1-0.2,1.3-0.7s0.5-1.2,0.5-2c0-1.6-0.5-2.4-1.6-2.4c-0.7,0-1.4,0.4-2,1.1V80.4z"/>
					<path class="st4" d="M106.9,82.1v-6.9h1.3v1.3c0.5-1,1.2-1.4,2.2-1.4c0.1,0,0.3,0,0.4,0v1.2c-0.2-0.1-0.4-0.1-0.6-0.1
						c-0.8,0-1.5,0.5-2,1.4v4.5H106.9z"/>
					<path class="st4" d="M115.4,82.2c-1,0-1.8-0.3-2.4-1c-0.6-0.6-0.9-1.5-0.9-2.6c0-1.1,0.3-2,0.9-2.6c0.6-0.6,1.4-1,2.4-1
						s1.8,0.3,2.4,1c0.6,0.6,0.9,1.5,0.9,2.6c0,1.1-0.3,2-0.9,2.6C117.2,81.9,116.4,82.2,115.4,82.2z M115.4,81.3
						c0.6,0,1.1-0.2,1.4-0.7c0.3-0.5,0.5-1.1,0.5-2c0-0.8-0.2-1.5-0.5-2c-0.3-0.5-0.8-0.7-1.4-0.7c-0.6,0-1.1,0.2-1.4,0.7
						c-0.3,0.5-0.5,1.1-0.5,2c0,0.8,0.2,1.5,0.5,2C114.3,81.1,114.8,81.3,115.4,81.3z"/>
					<path class="st4" d="M125.8,81.9c-0.8,0.2-1.5,0.4-2.1,0.4c-0.9,0-1.7-0.3-2.3-1s-0.9-1.6-0.9-2.6c0-1.1,0.3-2,0.9-2.6
						c0.6-0.6,1.5-0.9,2.5-0.9c0.5,0,1.1,0.1,1.8,0.2v1c-0.7-0.2-1.3-0.3-1.7-0.3c-0.6,0-1.2,0.2-1.5,0.7s-0.6,1.1-0.6,1.9
						c0,0.8,0.2,1.4,0.6,1.9c0.4,0.5,0.9,0.7,1.6,0.7c0.6,0,1.2-0.1,1.8-0.4V81.9z"/>
					<path class="st4" d="M133.1,81.8c-0.8,0.3-1.6,0.4-2.2,0.4c-1,0-1.8-0.3-2.5-1c-0.6-0.7-1-1.5-1-2.6c0-1,0.3-1.9,0.8-2.6
						c0.6-0.7,1.3-1,2.2-1c0.8,0,1.5,0.3,1.9,0.9c0.5,0.6,0.7,1.4,0.7,2.5l0,0.4h-4.3c0.2,1.6,1,2.5,2.4,2.5c0.5,0,1.2-0.1,1.9-0.4
						V81.8z M128.9,77.9h3c0-1.3-0.5-1.9-1.4-1.9C129.5,76,129,76.6,128.9,77.9z"/>
					<path class="st4" d="M135.4,81.8v-1.1c0.8,0.4,1.5,0.6,2.1,0.6c0.4,0,0.7-0.1,0.9-0.3c0.2-0.2,0.4-0.4,0.4-0.7
						c0-0.4-0.3-0.8-1-1.1l-0.7-0.3c-1.1-0.4-1.6-1.1-1.6-1.9c0-0.6,0.2-1.1,0.6-1.4c0.4-0.3,1-0.5,1.7-0.5c0.4,0,0.9,0.1,1.4,0.2
						l0.3,0.1v1c-0.7-0.2-1.3-0.3-1.7-0.3c-0.4,0-0.7,0.1-0.9,0.2c-0.2,0.2-0.3,0.4-0.3,0.6c0,0.4,0.3,0.7,0.9,1l0.6,0.3
						c0.7,0.3,1.2,0.6,1.4,0.9s0.4,0.7,0.4,1.2c0,0.6-0.2,1.1-0.7,1.5c-0.5,0.4-1.1,0.6-1.8,0.6C137,82.2,136.3,82.1,135.4,81.8z"/>
					<path class="st4" d="M142.5,81.8v-1.1c0.8,0.4,1.5,0.6,2.1,0.6c0.4,0,0.7-0.1,0.9-0.3c0.2-0.2,0.4-0.4,0.4-0.7
						c0-0.4-0.3-0.8-1-1.1l-0.7-0.3c-1.1-0.4-1.6-1.1-1.6-1.9c0-0.6,0.2-1.1,0.6-1.4c0.4-0.3,1-0.5,1.7-0.5c0.4,0,0.9,0.1,1.4,0.2
						l0.3,0.1v1c-0.7-0.2-1.3-0.3-1.7-0.3c-0.4,0-0.7,0.1-0.9,0.2c-0.2,0.2-0.3,0.4-0.3,0.6c0,0.4,0.3,0.7,0.9,1l0.6,0.3
						c0.7,0.3,1.2,0.6,1.4,0.9s0.4,0.7,0.4,1.2c0,0.6-0.2,1.1-0.7,1.5c-0.5,0.4-1.1,0.6-1.8,0.6C144,82.2,143.3,82.1,142.5,81.8z"/>
					<path class="st4" d="M39.9,99.5c-0.3,0-0.6-0.1-0.8-0.3s-0.3-0.5-0.3-0.8s0.1-0.6,0.3-0.8s0.5-0.3,0.8-0.3s0.6,0.1,0.8,0.3
						s0.3,0.5,0.3,0.8s-0.1,0.6-0.3,0.8S40.2,99.5,39.9,99.5z"/>
					<path class="st4" d="M54.6,102.1v-9.4h2.8c0.9,0,1.6,0.2,2.1,0.6c0.5,0.4,0.7,1,0.7,1.7c0,0.6-0.2,1.1-0.5,1.6
						c-0.3,0.5-0.8,0.8-1.4,1.1l3.1,4.4h-1.6l-2.7-4h-1.2v4H54.6z M55.9,97.1h0.4c0.8,0,1.4-0.2,1.9-0.5s0.6-0.8,0.6-1.5
						c0-1-0.7-1.5-2.1-1.5h-0.8V97.1z"/>
					<path class="st4" d="M68.3,101.8c-0.8,0.3-1.6,0.4-2.2,0.4c-1,0-1.8-0.3-2.5-1c-0.6-0.7-1-1.5-1-2.6c0-1,0.3-1.9,0.8-2.6
						c0.6-0.7,1.3-1,2.2-1c0.8,0,1.5,0.3,1.9,0.9c0.5,0.6,0.7,1.4,0.7,2.5l0,0.4H64c0.2,1.6,1,2.5,2.4,2.5c0.5,0,1.2-0.1,1.9-0.4
						V101.8z M64,97.9h3c0-1.3-0.5-1.9-1.4-1.9C64.7,96,64.1,96.6,64,97.9z"/>
					<path class="st4" d="M75.3,102.1v-1.3c-0.5,1-1.3,1.5-2.3,1.5c-0.8,0-1.5-0.3-2-0.9c-0.5-0.6-0.7-1.4-0.7-2.5
						c0-1.1,0.3-2.1,0.8-2.8c0.5-0.7,1.3-1,2.1-1c0.8,0,1.5,0.3,2,0.9V92h1.3v10H75.3z M75.3,96.8C74.7,96.2,74,96,73.5,96
						c-0.6,0-1,0.2-1.3,0.7c-0.3,0.5-0.5,1.2-0.5,2c0,1.6,0.5,2.4,1.6,2.4c0.7,0,1.4-0.4,2-1.1V96.8z"/>
					<path class="st4" d="M83.8,102.1v-1.3c-0.7,1-1.5,1.5-2.4,1.5c-0.6,0-1.1-0.2-1.4-0.6s-0.5-0.9-0.5-1.5v-5h1.3v4.5
						c0,0.5,0.1,0.9,0.2,1.1c0.1,0.2,0.4,0.3,0.8,0.3c0.8,0,1.5-0.5,2.2-1.5v-4.5H85v6.9H83.8z"/>
					<path class="st4" d="M92.7,101.9c-0.8,0.2-1.5,0.4-2.1,0.4c-0.9,0-1.7-0.3-2.3-1s-0.9-1.6-0.9-2.6c0-1.1,0.3-2,0.9-2.6
						c0.6-0.6,1.5-0.9,2.5-0.9c0.5,0,1.1,0.1,1.8,0.2v1c-0.7-0.2-1.3-0.3-1.7-0.3c-0.6,0-1.2,0.2-1.5,0.7s-0.6,1.1-0.6,1.9
						c0,0.8,0.2,1.4,0.6,1.9c0.4,0.5,0.9,0.7,1.6,0.7c0.6,0,1.2-0.1,1.8-0.4V101.9z"/>
					<path class="st4" d="M100,101.8c-0.8,0.3-1.6,0.4-2.2,0.4c-1,0-1.8-0.3-2.5-1c-0.6-0.7-1-1.5-1-2.6c0-1,0.3-1.9,0.8-2.6
						c0.6-0.7,1.3-1,2.2-1c0.8,0,1.5,0.3,1.9,0.9c0.5,0.6,0.7,1.4,0.7,2.5l0,0.4h-4.3c0.2,1.6,1,2.5,2.4,2.5c0.5,0,1.2-0.1,1.9-0.4
						V101.8z M95.7,97.9h3c0-1.3-0.5-1.9-1.4-1.9C96.4,96,95.9,96.6,95.7,97.9z"/>
					<path class="st4" d="M39.9,119.5c-0.3,0-0.6-0.1-0.8-0.3s-0.3-0.5-0.3-0.8s0.1-0.6,0.3-0.8s0.5-0.3,0.8-0.3s0.6,0.1,0.8,0.3
						s0.3,0.5,0.3,0.8s-0.1,0.6-0.3,0.8S40.2,119.5,39.9,119.5z"/>
					<path class="st4" d="M54.5,112.7h1.3v5.9c0,0.9,0.2,1.6,0.5,2.1s0.9,0.6,1.7,0.6c0.7,0,1.3-0.2,1.6-0.6s0.5-1.1,0.5-2.1v-6h1.2
						v6c0,0.8-0.1,1.5-0.2,1.9s-0.5,0.8-0.9,1.2c-0.5,0.4-1.2,0.6-2.2,0.6c-1.2,0-2.1-0.3-2.6-0.9c-0.6-0.6-0.8-1.5-0.8-2.8V112.7z"
						/>
					<path class="st4" d="M67.1,122.1c-0.4,0.1-0.7,0.2-1,0.2c-0.6,0-1.1-0.2-1.5-0.5c-0.4-0.4-0.5-0.9-0.5-1.5v-4h-0.9v-0.9h0.9
						v-1.3l1.3-0.1v1.4h1.8v0.9h-1.8v3.8c0,0.9,0.4,1.4,1.2,1.4c0.2,0,0.4,0,0.6-0.1V122.1z"/>
					<path class="st4" d="M69.3,113.9v-1.2h1.3v1.2H69.3z M69.3,122.1v-6.9h1.3v6.9H69.3z"/>
					<path class="st4" d="M73.4,122.1v-10h1.3v10H73.4z"/>
					<path class="st4" d="M77.6,113.9v-1.2h1.3v1.2H77.6z M77.6,122.1v-6.9h1.3v6.9H77.6z"/>
					<path class="st4" d="M81.3,122.1v-0.9l4.3-5h-4.1v-0.9h5.6v0.9l-4.3,5h4.3v0.9H81.3z"/>
					<path class="st4" d="M93.1,121.2c-0.7,0.7-1.5,1-2.2,1c-0.6,0-1-0.2-1.4-0.5s-0.6-0.8-0.6-1.4c0-0.8,0.3-1.3,0.9-1.7
						c0.6-0.4,1.5-0.6,2.7-0.6h0.3v-0.8c0-0.8-0.4-1.2-1.3-1.2c-0.6,0-1.4,0.2-2.1,0.6v-1c0.8-0.3,1.6-0.5,2.4-0.5
						c0.8,0,1.3,0.2,1.7,0.5c0.4,0.3,0.5,0.9,0.5,1.6v3.1c0,0.7,0.2,1.1,0.7,1.1c0.1,0,0.1,0,0.2,0l0.1,0.7
						c-0.3,0.1-0.6,0.2-0.9,0.2C93.7,122.2,93.3,121.9,93.1,121.2z M92.9,120.5v-1.8l-0.4,0c-0.7,0-1.3,0.1-1.7,0.4
						c-0.4,0.3-0.6,0.6-0.6,1c0,0.3,0.1,0.6,0.3,0.8c0.2,0.2,0.5,0.3,0.8,0.3C91.8,121.2,92.4,121,92.9,120.5z"/>
					<path class="st4" d="M100.2,122.1c-0.4,0.1-0.7,0.2-1,0.2c-0.6,0-1.1-0.2-1.5-0.5c-0.4-0.4-0.5-0.9-0.5-1.5v-4h-0.9v-0.9h0.9
						v-1.3l1.3-0.1v1.4h1.8v0.9h-1.8v3.8c0,0.9,0.4,1.4,1.2,1.4c0.2,0,0.4,0,0.6-0.1V122.1z"/>
					<path class="st4" d="M102.4,113.9v-1.2h1.3v1.2H102.4z M102.4,122.1v-6.9h1.3v6.9H102.4z"/>
					<path class="st4" d="M109.3,122.2c-1,0-1.8-0.3-2.4-1c-0.6-0.6-0.9-1.5-0.9-2.6c0-1.1,0.3-2,0.9-2.6c0.6-0.6,1.4-1,2.4-1
						s1.8,0.3,2.4,1c0.6,0.6,0.9,1.5,0.9,2.6c0,1.1-0.3,2-0.9,2.6C111.1,121.9,110.3,122.2,109.3,122.2z M109.3,121.3
						c0.6,0,1.1-0.2,1.4-0.7c0.3-0.5,0.5-1.1,0.5-2c0-0.8-0.2-1.5-0.5-2c-0.3-0.5-0.8-0.7-1.4-0.7c-0.6,0-1.1,0.2-1.4,0.7
						c-0.3,0.5-0.5,1.1-0.5,2c0,0.8,0.2,1.5,0.5,2C108.2,121.1,108.7,121.3,109.3,121.3z"/>
					<path class="st4" d="M114.9,122.1v-6.9h1.3v1.3c0.7-1,1.5-1.4,2.4-1.4c0.6,0,1.1,0.2,1.4,0.6c0.4,0.4,0.5,0.9,0.5,1.5v5h-1.3
						v-4.5c0-0.5-0.1-0.9-0.2-1.1c-0.1-0.2-0.4-0.3-0.7-0.3c-0.8,0-1.5,0.5-2.2,1.5v4.5H114.9z"/>
					<path class="st4" d="M39.9,139.5c-0.3,0-0.6-0.1-0.8-0.3s-0.3-0.5-0.3-0.8s0.1-0.6,0.3-0.8s0.5-0.3,0.8-0.3s0.6,0.1,0.8,0.3
						s0.3,0.5,0.3,0.8s-0.1,0.6-0.3,0.8S40.2,139.5,39.9,139.5z"/>
					<path class="st4" d="M54.6,142.1v-9.4h5.2v1h-3.9v3h3.3v1h-3.3v3.4h4.2v1H54.6z"/>
					<path class="st4" d="M62.1,142.1v-6.9h1.3v1.3c0.7-1,1.5-1.4,2.4-1.4c0.6,0,1.1,0.2,1.4,0.6c0.4,0.4,0.5,0.9,0.5,1.5v5h-1.3
						v-4.5c0-0.5-0.1-0.9-0.2-1.1c-0.1-0.2-0.4-0.3-0.7-0.3c-0.8,0-1.5,0.5-2.2,1.5v4.5H62.1z"/>
					<path class="st4" d="M72,142.1l-2.6-6.9h1.3l2,5.4l2.1-5.4h1.2l-2.7,6.9H72z"/>
					<path class="st4" d="M77.7,133.9v-1.2h1.3v1.2H77.7z M77.7,142.1v-6.9h1.3v6.9H77.7z"/>
					<path class="st4" d="M81.8,142.1v-6.9H83v1.3c0.5-1,1.2-1.4,2.2-1.4c0.1,0,0.3,0,0.4,0v1.2c-0.2-0.1-0.4-0.1-0.6-0.1
						c-0.8,0-1.5,0.5-2,1.4v4.5H81.8z"/>
					<path class="st4" d="M90.2,142.2c-1,0-1.8-0.3-2.4-1c-0.6-0.6-0.9-1.5-0.9-2.6c0-1.1,0.3-2,0.9-2.6c0.6-0.6,1.4-1,2.4-1
						s1.8,0.3,2.4,1c0.6,0.6,0.9,1.5,0.9,2.6c0,1.1-0.3,2-0.9,2.6C92.1,141.9,91.3,142.2,90.2,142.2z M90.2,141.3
						c0.6,0,1.1-0.2,1.4-0.7c0.3-0.5,0.5-1.1,0.5-2c0-0.8-0.2-1.5-0.5-2c-0.3-0.5-0.8-0.7-1.4-0.7c-0.6,0-1.1,0.2-1.4,0.7
						c-0.3,0.5-0.5,1.1-0.5,2c0,0.8,0.2,1.5,0.5,2C89.1,141.1,89.6,141.3,90.2,141.3z"/>
					<path class="st4" d="M95.9,142.1v-6.9h1.3v1.3c0.7-1,1.5-1.4,2.4-1.4c0.6,0,1.1,0.2,1.4,0.6c0.4,0.4,0.5,0.9,0.5,1.5v5h-1.3
						v-4.5c0-0.5-0.1-0.9-0.2-1.1c-0.1-0.2-0.4-0.3-0.7-0.3c-0.8,0-1.5,0.5-2.2,1.5v4.5H95.9z"/>
					<path class="st4" d="M104.3,142.1v-6.9h1.3v1.3c0.6-1,1.4-1.4,2.3-1.4c0.9,0,1.5,0.5,1.9,1.4c0.6-1,1.4-1.4,2.3-1.4
						c0.6,0,1.1,0.2,1.4,0.5c0.3,0.4,0.5,0.9,0.5,1.5v5h-1.3v-4.8c0-0.8-0.3-1.2-0.9-1.2c-0.6,0-1.3,0.5-2,1.4v4.6h-1.3v-4.8
						c0-0.8-0.3-1.2-1-1.2c-0.6,0-1.3,0.5-2,1.4v4.6H104.3z"/>
					<path class="st4" d="M121.9,141.8c-0.8,0.3-1.6,0.4-2.2,0.4c-1,0-1.8-0.3-2.5-1c-0.6-0.7-1-1.5-1-2.6c0-1,0.3-1.9,0.8-2.6
						c0.6-0.7,1.3-1,2.2-1c0.8,0,1.5,0.3,1.9,0.9c0.5,0.6,0.7,1.4,0.7,2.5l0,0.4h-4.3c0.2,1.6,1,2.5,2.4,2.5c0.5,0,1.2-0.1,1.9-0.4
						V141.8z M117.7,137.9h3c0-1.3-0.5-1.9-1.4-1.9C118.3,136,117.8,136.6,117.7,137.9z"/>
					<path class="st4" d="M124.5,142.1v-6.9h1.3v1.3c0.7-1,1.5-1.4,2.4-1.4c0.6,0,1.1,0.2,1.4,0.6c0.4,0.4,0.5,0.9,0.5,1.5v5h-1.3
						v-4.5c0-0.5-0.1-0.9-0.2-1.1c-0.1-0.2-0.4-0.3-0.7-0.3c-0.8,0-1.5,0.5-2.2,1.5v4.5H124.5z"/>
					<path class="st4" d="M136,142.1c-0.4,0.1-0.7,0.2-1,0.2c-0.6,0-1.1-0.2-1.5-0.5c-0.4-0.4-0.5-0.9-0.5-1.5v-4h-0.9v-0.9h0.9
						v-1.3l1.3-0.1v1.4h1.8v0.9h-1.8v3.8c0,0.9,0.4,1.4,1.2,1.4c0.2,0,0.4,0,0.6-0.1V142.1z"/>
					<path class="st4" d="M141.8,141.2c-0.7,0.7-1.5,1-2.2,1c-0.6,0-1-0.2-1.4-0.5s-0.6-0.8-0.6-1.4c0-0.8,0.3-1.3,0.9-1.7
						c0.6-0.4,1.5-0.6,2.7-0.6h0.3v-0.8c0-0.8-0.4-1.2-1.3-1.2c-0.6,0-1.4,0.2-2.1,0.6v-1c0.8-0.3,1.6-0.5,2.4-0.5
						c0.8,0,1.3,0.2,1.7,0.5c0.4,0.3,0.5,0.9,0.5,1.6v3.1c0,0.7,0.2,1.1,0.7,1.1c0.1,0,0.1,0,0.2,0l0.1,0.7
						c-0.3,0.1-0.6,0.2-0.9,0.2C142.3,142.2,141.9,141.9,141.8,141.2z M141.6,140.5v-1.8l-0.4,0c-0.7,0-1.3,0.1-1.7,0.4
						c-0.4,0.3-0.6,0.6-0.6,1c0,0.3,0.1,0.6,0.3,0.8c0.2,0.2,0.5,0.3,0.8,0.3C140.5,141.2,141,141,141.6,140.5z"/>
					<path class="st4" d="M145.8,142.1v-10h1.3v10H145.8z"/>
					<path class="st4" d="M154.7,142.1v-6h-1v-0.9h1v-0.8c0-1.6,0.7-2.5,2.2-2.5c0.4,0,0.9,0.1,1.4,0.2v1c-0.6-0.2-1-0.3-1.4-0.3
						c-0.4,0-0.7,0.1-0.8,0.3c-0.2,0.2-0.2,0.6-0.2,1.1v1h1.7v0.9h-1.7v6H154.7z"/>
					<path class="st4" d="M162.3,142.2c-1,0-1.8-0.3-2.4-1c-0.6-0.6-0.9-1.5-0.9-2.6c0-1.1,0.3-2,0.9-2.6c0.6-0.6,1.4-1,2.4-1
						s1.8,0.3,2.4,1c0.6,0.6,0.9,1.5,0.9,2.6c0,1.1-0.3,2-0.9,2.6C164.2,141.9,163.4,142.2,162.3,142.2z M162.3,141.3
						c0.6,0,1.1-0.2,1.4-0.7c0.3-0.5,0.5-1.1,0.5-2c0-0.8-0.2-1.5-0.5-2c-0.3-0.5-0.8-0.7-1.4-0.7c-0.6,0-1.1,0.2-1.4,0.7
						c-0.3,0.5-0.5,1.1-0.5,2c0,0.8,0.2,1.5,0.5,2C161.2,141.1,161.7,141.3,162.3,141.3z"/>
					<path class="st4" d="M170.7,142.2c-1,0-1.8-0.3-2.4-1c-0.6-0.6-0.9-1.5-0.9-2.6c0-1.1,0.3-2,0.9-2.6c0.6-0.6,1.4-1,2.4-1
						s1.8,0.3,2.4,1c0.6,0.6,0.9,1.5,0.9,2.6c0,1.1-0.3,2-0.9,2.6C172.5,141.9,171.7,142.2,170.7,142.2z M170.7,141.3
						c0.6,0,1.1-0.2,1.4-0.7c0.3-0.5,0.5-1.1,0.5-2c0-0.8-0.2-1.5-0.5-2c-0.3-0.5-0.8-0.7-1.4-0.7c-0.6,0-1.1,0.2-1.4,0.7
						c-0.3,0.5-0.5,1.1-0.5,2c0,0.8,0.2,1.5,0.5,2C169.6,141.1,170.1,141.3,170.7,141.3z"/>
					<path class="st4" d="M179.4,142.1c-0.4,0.1-0.7,0.2-1,0.2c-0.6,0-1.1-0.2-1.5-0.5c-0.4-0.4-0.5-0.9-0.5-1.5v-4h-0.9v-0.9h0.9
						v-1.3l1.3-0.1v1.4h1.8v0.9h-1.8v3.8c0,0.9,0.4,1.4,1.2,1.4c0.2,0,0.4,0,0.6-0.1V142.1z"/>
					<path class="st4" d="M181.6,144.6v-9.4h1.3v1.3c0.5-1,1.3-1.4,2.3-1.4c0.8,0,1.5,0.3,2,0.9c0.5,0.6,0.7,1.4,0.7,2.5
						c0,1.1-0.3,2.1-0.8,2.8c-0.5,0.7-1.2,1-2.1,1c-0.8,0-1.5-0.3-2-0.9v3.3H181.6z M182.9,140.4c0.6,0.6,1.3,0.9,1.8,0.9
						c0.6,0,1-0.2,1.3-0.7s0.5-1.2,0.5-2c0-1.6-0.5-2.4-1.6-2.4c-0.7,0-1.4,0.4-2,1.1V140.4z"/>
					<path class="st4" d="M190.2,142.1v-6.9h1.3v1.3c0.5-1,1.2-1.4,2.2-1.4c0.1,0,0.3,0,0.4,0v1.2c-0.2-0.1-0.4-0.1-0.6-0.1
						c-0.8,0-1.5,0.5-2,1.4v4.5H190.2z"/>
					<path class="st4" d="M195.9,133.9v-1.2h1.3v1.2H195.9z M195.9,142.1v-6.9h1.3v6.9H195.9z"/>
					<path class="st4" d="M200,142.1v-6.9h1.3v1.3c0.7-1,1.5-1.4,2.4-1.4c0.6,0,1.1,0.2,1.4,0.6c0.4,0.4,0.5,0.9,0.5,1.5v5h-1.3
						v-4.5c0-0.5-0.1-0.9-0.2-1.1c-0.1-0.2-0.4-0.3-0.7-0.3c-0.8,0-1.5,0.5-2.2,1.5v4.5H200z"/>
					<path class="st4" d="M211.6,142.1c-0.4,0.1-0.7,0.2-1,0.2c-0.6,0-1.1-0.2-1.5-0.5c-0.4-0.4-0.5-0.9-0.5-1.5v-4h-0.9v-0.9h0.9
						v-1.3l1.3-0.1v1.4h1.8v0.9h-1.8v3.8c0,0.9,0.4,1.4,1.2,1.4c0.2,0,0.4,0,0.6-0.1V142.1z"/>
				</g>
			</g>
		</g>
		<g>
			<path class="st5" d="M218.7,396c0-49.7,52.6-90,117.5-90c64.9,0,117.5,40.3,117.5,90c0,49.7-52.6,90-117.5,90
				C271.3,486,218.7,445.7,218.7,396"/>
			<g>
				<g>
					<path class="st4" d="M274.9,340.5v-2c0.9,0.4,1.6,0.6,2,0.7c0.4,0.1,0.9,0.1,1.2,0.1c0.7,0,1.2-0.2,1.5-0.5
						c0.3-0.3,0.5-0.7,0.5-1.1c0-0.3-0.1-0.6-0.3-0.9c-0.2-0.3-0.6-0.6-1.4-1l-0.8-0.4c-1.1-0.6-1.9-1.2-2.3-1.7
						c-0.4-0.5-0.6-1.1-0.6-1.8c0-0.9,0.3-1.6,1-2.2c0.7-0.6,1.6-0.9,2.9-0.9c0.9,0,2,0.1,3.1,0.4v1.9c-1.2-0.4-2.1-0.7-2.8-0.7
						c-0.6,0-1,0.1-1.3,0.4s-0.5,0.6-0.5,0.9c0,0.3,0.1,0.5,0.3,0.8c0.2,0.2,0.6,0.6,1.4,1l0.8,0.5c1.3,0.7,2.1,1.3,2.4,1.9
						c0.3,0.5,0.5,1.1,0.5,1.8c0,0.9-0.4,1.8-1.1,2.4s-1.9,1-3.4,1C277.2,340.9,276.2,340.8,274.9,340.5z"/>
					<path class="st4" d="M291.7,340.3c-1.1,0.3-2.1,0.5-3.1,0.5c-0.9,0-1.7-0.2-2.4-0.5c-0.7-0.3-1.2-0.9-1.6-1.6
						c-0.4-0.7-0.6-1.5-0.6-2.4c0-0.8,0.2-1.5,0.5-2.2s0.8-1.2,1.4-1.6c0.6-0.4,1.4-0.6,2.2-0.6c1.1,0,2,0.3,2.6,1
						c0.7,0.7,1,2,1,3.9h-5.3c0.1,0.6,0.2,1,0.4,1.4c0.2,0.3,0.5,0.6,0.8,0.8s0.8,0.3,1.4,0.3c0.8,0,1.6-0.2,2.6-0.5V340.3z
						 M286.3,335.5h3c0-0.8-0.1-1.3-0.4-1.7c-0.3-0.3-0.6-0.5-1-0.5c-0.4,0-0.8,0.2-1.1,0.6C286.6,334.2,286.4,334.7,286.3,335.5z"
						/>
					<path class="st4" d="M294.1,340.6v-12.3h2.3v12.3H294.1z"/>
					<path class="st4" d="M299.5,340.6v-7.1h-1.2V332h1.2v-0.6c0-1.2,0.3-2.1,0.8-2.6c0.5-0.5,1.3-0.8,2.3-0.8
						c0.7,0,1.4,0.1,2.1,0.3v1.6c-0.7-0.3-1.2-0.4-1.8-0.4c-0.2,0-0.5,0-0.6,0.1c-0.2,0.1-0.3,0.3-0.4,0.5s-0.2,0.6-0.2,1.2v0.7h2.2
						v1.4h-2.2v7.1H299.5z"/>
					<path class="st4" d="M305.1,336.4V335h3.5v1.4H305.1z"/>
					<path class="st4" d="M310.1,340.5v-2c0.9,0.4,1.6,0.6,2,0.7c0.4,0.1,0.9,0.1,1.2,0.1c0.7,0,1.2-0.2,1.5-0.5
						c0.3-0.3,0.5-0.7,0.5-1.1c0-0.3-0.1-0.6-0.3-0.9c-0.2-0.3-0.6-0.6-1.4-1l-0.8-0.4c-1.1-0.6-1.9-1.2-2.3-1.7
						c-0.4-0.5-0.6-1.1-0.6-1.8c0-0.9,0.3-1.6,1-2.2c0.7-0.6,1.6-0.9,2.9-0.9c0.9,0,2,0.1,3.1,0.4v1.9c-1.2-0.4-2.1-0.7-2.8-0.7
						c-0.6,0-1,0.1-1.3,0.4s-0.5,0.6-0.5,0.9c0,0.3,0.1,0.5,0.3,0.8c0.2,0.2,0.6,0.6,1.4,1l0.8,0.5c1.3,0.7,2.1,1.3,2.4,1.9
						c0.3,0.5,0.5,1.1,0.5,1.8c0,0.9-0.4,1.8-1.1,2.4s-1.9,1-3.4,1C312.4,340.9,311.3,340.8,310.1,340.5z"/>
					<path class="st4" d="M325.2,340.6V339c-0.4,0.7-0.9,1.1-1.4,1.4c-0.5,0.3-1,0.4-1.5,0.4c-0.7,0-1.3-0.2-1.7-0.7
						c-0.5-0.4-0.7-1.1-0.7-2.1V332h2.3v5.5c0,0.5,0,0.8,0.1,1c0.1,0.2,0.2,0.3,0.4,0.4s0.3,0.1,0.5,0.1c0.3,0,0.6-0.1,1-0.3
						s0.7-0.6,1.1-1.2V332h2.3v8.6H325.2z"/>
					<path class="st4" d="M330.2,340.3v-1.7c1.1,0.5,2.1,0.7,2.9,0.7c0.4,0,0.8-0.1,1-0.3c0.3-0.2,0.4-0.4,0.4-0.7
						c0-0.2-0.1-0.5-0.3-0.6c-0.2-0.2-0.5-0.3-0.9-0.5l-0.8-0.3c-0.8-0.3-1.4-0.7-1.8-1.1c-0.4-0.4-0.6-0.9-0.6-1.5
						c0-0.7,0.3-1.4,0.9-1.8s1.5-0.7,2.7-0.7c0.7,0,1.5,0.1,2.5,0.3v1.6c-0.9-0.3-1.7-0.5-2.3-0.5c-0.5,0-0.8,0.1-1.1,0.2
						s-0.4,0.4-0.4,0.6c0,0.2,0.1,0.4,0.2,0.5c0.2,0.2,0.4,0.3,0.8,0.5l0.7,0.3c1.1,0.4,1.8,0.8,2.2,1.2c0.3,0.4,0.5,0.9,0.5,1.4
						c0,0.7-0.3,1.4-0.9,1.9c-0.6,0.5-1.5,0.8-2.7,0.8C332.2,340.8,331.2,340.6,330.2,340.3z"/>
					<path class="st4" d="M343.9,340.5c-0.6,0.2-1,0.2-1.3,0.2c-0.8,0-1.3-0.1-1.8-0.3c-0.4-0.2-0.7-0.5-0.9-0.9
						c-0.2-0.4-0.3-0.9-0.3-1.6v-4.5h-1V332h1v-1.4l2.3-0.3v1.7h1.8v1.4h-1.8v4.2c0,0.6,0.1,1,0.3,1.3c0.2,0.2,0.5,0.3,1,0.3
						c0.2,0,0.4,0,0.7-0.1V340.5z"/>
					<path class="st4" d="M350.1,339.7c-0.3,0.3-0.6,0.6-0.9,0.7c-0.2,0.1-0.5,0.2-0.8,0.3s-0.5,0.1-0.8,0.1c-0.8,0-1.4-0.2-1.8-0.7
						s-0.7-1.1-0.7-1.8c0-0.8,0.3-1.5,1-2.1c0.7-0.6,1.8-0.8,3.4-0.8h0.6v-0.8c0-0.5-0.1-0.9-0.4-1.1c-0.3-0.2-0.7-0.3-1.1-0.3
						c-0.9,0-1.8,0.3-2.7,0.8v-1.6c1-0.4,2.1-0.6,3.1-0.6c0.6,0,1.2,0.1,1.7,0.3s0.9,0.4,1.2,0.8c0.3,0.4,0.4,0.9,0.4,1.6v3.8
						c0,0.5,0.1,0.7,0.2,0.9c0.1,0.1,0.3,0.2,0.4,0.2c0.1,0,0.2,0,0.3,0l0.1,1.3c-0.5,0.1-0.9,0.2-1.3,0.2c-0.4,0-0.8-0.1-1.1-0.2
						c-0.3-0.1-0.5-0.4-0.7-0.9H350.1z M350.1,338.4v-1.7h-0.5c-0.8,0-1.3,0.1-1.7,0.4c-0.4,0.3-0.6,0.6-0.6,1
						c0,0.3,0.1,0.6,0.3,0.8c0.2,0.2,0.5,0.3,0.8,0.3c0.3,0,0.5-0.1,0.8-0.2C349.6,338.9,349.8,338.7,350.1,338.4z"/>
					<path class="st4" d="M355.3,330.6v-1.9h2.3v1.9H355.3z M355.3,340.6V332h2.3v8.6H355.3z"/>
					<path class="st4" d="M360.5,340.6V332h2.3v1.6c0.4-0.7,0.9-1.1,1.4-1.4c0.5-0.3,1-0.4,1.5-0.4c0.7,0,1.3,0.2,1.7,0.7
						c0.5,0.4,0.7,1.1,0.7,2.1v6.1h-2.3v-5.5c0-0.5,0-0.8-0.1-1c-0.1-0.2-0.2-0.3-0.4-0.4s-0.3-0.1-0.5-0.1c-0.3,0-0.6,0.1-1,0.3
						s-0.7,0.6-1.1,1.2v5.4H360.5z"/>
					<path class="st4" d="M371,330.6v-1.9h2.3v1.9H371z M371,340.6V332h2.3v8.6H371z"/>
					<path class="st4" d="M376.2,340.6V332h2.3v1.6c0.4-0.7,0.9-1.1,1.4-1.4c0.5-0.3,1-0.4,1.5-0.4c0.7,0,1.3,0.2,1.7,0.7
						c0.5,0.4,0.7,1.1,0.7,2.1v6.1h-2.3v-5.5c0-0.5,0-0.8-0.1-1c-0.1-0.2-0.2-0.3-0.4-0.4s-0.3-0.1-0.5-0.1c-0.3,0-0.6,0.1-1,0.3
						s-0.7,0.6-1.1,1.2v5.4H376.2z"/>
					<path class="st4" d="M386.8,343.3l0.2-1.7c0.9,0.4,1.8,0.7,2.7,0.7c0.8,0,1.4-0.2,1.8-0.5c0.4-0.3,0.6-0.9,0.6-1.8v-1.2
						c-0.2,0.5-0.6,1-1.1,1.3c-0.5,0.3-1,0.5-1.7,0.5c-0.7,0-1.2-0.2-1.7-0.5c-0.5-0.3-0.9-0.8-1.2-1.5c-0.3-0.7-0.4-1.4-0.4-2.2
						c0-1.3,0.3-2.4,1-3.2s1.5-1.3,2.7-1.3c0.3,0,0.6,0,0.8,0.1c0.3,0.1,0.5,0.2,0.7,0.3s0.5,0.4,0.8,0.7l0.2-0.9h2.1v6.5
						c0,1.7-0.2,2.9-0.5,3.5c-0.3,0.6-0.8,1.1-1.5,1.4c-0.7,0.3-1.5,0.5-2.4,0.5C389,343.9,388,343.7,386.8,343.3z M392.1,337.4
						v-3.2c-0.3-0.4-0.6-0.6-0.9-0.8c-0.3-0.1-0.6-0.2-0.8-0.2c-0.6,0-1,0.3-1.4,0.8c-0.3,0.5-0.5,1.2-0.5,2.2
						c0,0.8,0.1,1.4,0.4,1.8s0.7,0.7,1.2,0.7c0.4,0,0.7-0.1,1.1-0.3C391.5,338.2,391.8,337.8,392.1,337.4z"/>
				</g>
			</g>
			<g>
				<g>
					<path class="st4" d="M261.7,371.8c-0.3,0-0.6-0.1-0.8-0.3s-0.3-0.5-0.3-0.8s0.1-0.6,0.3-0.8s0.5-0.3,0.8-0.3s0.6,0.1,0.8,0.3
						s0.3,0.5,0.3,0.8s-0.1,0.6-0.3,0.8S262,371.8,261.7,371.8z"/>
					<path class="st4" d="M276.4,374.3v-9.4h2.8c0.9,0,1.6,0.2,2.1,0.6c0.5,0.4,0.7,1,0.7,1.7c0,0.6-0.2,1.1-0.5,1.6
						c-0.3,0.5-0.8,0.8-1.4,1.1l3.1,4.4h-1.6l-2.7-4h-1.2v4H276.4z M277.7,369.3h0.4c0.8,0,1.4-0.2,1.9-0.5s0.6-0.8,0.6-1.5
						c0-1-0.7-1.5-2.1-1.5h-0.8V369.3z"/>
					<path class="st4" d="M290.1,374.1c-0.8,0.3-1.6,0.4-2.2,0.4c-1,0-1.8-0.3-2.5-1c-0.6-0.7-1-1.5-1-2.6c0-1,0.3-1.9,0.8-2.6
						c0.6-0.7,1.3-1,2.2-1c0.8,0,1.5,0.3,1.9,0.9c0.5,0.6,0.7,1.4,0.7,2.5l0,0.4h-4.3c0.2,1.6,1,2.5,2.4,2.5c0.5,0,1.2-0.1,1.9-0.4
						V374.1z M285.9,370.1h3c0-1.3-0.5-1.9-1.4-1.9C286.5,368.2,286,368.8,285.9,370.1z"/>
					<path class="st4" d="M297,374.3V373c-0.7,1-1.5,1.5-2.4,1.5c-0.6,0-1.1-0.2-1.4-0.6s-0.5-0.9-0.5-1.5v-5h1.3v4.5
						c0,0.5,0.1,0.9,0.2,1.1c0.1,0.2,0.4,0.3,0.8,0.3c0.8,0,1.5-0.5,2.2-1.5v-4.5h1.3v6.9H297z"/>
					<path class="st4" d="M300.9,374.1v-1.1c0.8,0.4,1.5,0.6,2.1,0.6c0.4,0,0.7-0.1,0.9-0.3c0.2-0.2,0.4-0.4,0.4-0.7
						c0-0.4-0.3-0.8-1-1.1l-0.7-0.3c-1.1-0.4-1.6-1.1-1.6-1.9c0-0.6,0.2-1.1,0.6-1.4c0.4-0.3,1-0.5,1.7-0.5c0.4,0,0.9,0.1,1.4,0.2
						l0.3,0.1v1c-0.7-0.2-1.3-0.3-1.7-0.3c-0.4,0-0.7,0.1-0.9,0.2c-0.2,0.2-0.3,0.4-0.3,0.6c0,0.4,0.3,0.7,0.9,1l0.6,0.3
						c0.7,0.3,1.2,0.6,1.4,0.9s0.4,0.7,0.4,1.2c0,0.6-0.2,1.1-0.7,1.5c-0.5,0.4-1.1,0.6-1.8,0.6
						C302.4,374.5,301.7,374.3,300.9,374.1z"/>
					<path class="st4" d="M313.2,374.1c-0.8,0.3-1.6,0.4-2.2,0.4c-1,0-1.8-0.3-2.5-1c-0.6-0.7-1-1.5-1-2.6c0-1,0.3-1.9,0.8-2.6
						c0.6-0.7,1.3-1,2.2-1c0.8,0,1.5,0.3,1.9,0.9c0.5,0.6,0.7,1.4,0.7,2.5l0,0.4h-4.3c0.2,1.6,1,2.5,2.4,2.5c0.5,0,1.2-0.1,1.9-0.4
						V374.1z M309,370.1h3c0-1.3-0.5-1.9-1.4-1.9C309.6,368.2,309.1,368.8,309,370.1z"/>
					<path class="st4" d="M261.7,391.8c-0.3,0-0.6-0.1-0.8-0.3s-0.3-0.5-0.3-0.8s0.1-0.6,0.3-0.8s0.5-0.3,0.8-0.3s0.6,0.1,0.8,0.3
						s0.3,0.5,0.3,0.8s-0.1,0.6-0.3,0.8S262,391.8,261.7,391.8z"/>
					<path class="st4" d="M276.4,394.3v-9.4h2.8c0.9,0,1.6,0.2,2.1,0.6c0.5,0.4,0.7,1,0.7,1.7c0,0.6-0.2,1.1-0.5,1.6
						c-0.3,0.5-0.8,0.8-1.4,1.1l3.1,4.4h-1.6l-2.7-4h-1.2v4H276.4z M277.7,389.3h0.4c0.8,0,1.4-0.2,1.9-0.5s0.6-0.8,0.6-1.5
						c0-1-0.7-1.5-2.1-1.5h-0.8V389.3z"/>
					<path class="st4" d="M290.1,394.1c-0.8,0.3-1.6,0.4-2.2,0.4c-1,0-1.8-0.3-2.5-1c-0.6-0.7-1-1.5-1-2.6c0-1,0.3-1.9,0.8-2.6
						c0.6-0.7,1.3-1,2.2-1c0.8,0,1.5,0.3,1.9,0.9c0.5,0.6,0.7,1.4,0.7,2.5l0,0.4h-4.3c0.2,1.6,1,2.5,2.4,2.5c0.5,0,1.2-0.1,1.9-0.4
						V394.1z M285.9,390.1h3c0-1.3-0.5-1.9-1.4-1.9C286.5,388.2,286,388.8,285.9,390.1z"/>
					<path class="st4" d="M297.5,394.1c-0.8,0.2-1.5,0.4-2.1,0.4c-0.9,0-1.7-0.3-2.3-1s-0.9-1.6-0.9-2.6c0-1.1,0.3-2,0.9-2.6
						c0.6-0.6,1.5-0.9,2.5-0.9c0.5,0,1.1,0.1,1.8,0.2v1c-0.7-0.2-1.3-0.3-1.7-0.3c-0.6,0-1.2,0.2-1.5,0.7s-0.6,1.1-0.6,1.9
						c0,0.8,0.2,1.4,0.6,1.9c0.4,0.5,0.9,0.7,1.6,0.7c0.6,0,1.2-0.1,1.8-0.4V394.1z"/>
					<path class="st4" d="M300.2,396.8l1.1-2.5l-2.7-6.9h1.4l2,5.2l2.1-5.2h1.2l-3.8,9.4H300.2z"/>
					<path class="st4" d="M311.7,394.1c-0.8,0.2-1.5,0.4-2.1,0.4c-0.9,0-1.7-0.3-2.3-1s-0.9-1.6-0.9-2.6c0-1.1,0.3-2,0.9-2.6
						c0.6-0.6,1.5-0.9,2.5-0.9c0.5,0,1.1,0.1,1.8,0.2v1c-0.7-0.2-1.3-0.3-1.7-0.3c-0.6,0-1.2,0.2-1.5,0.7s-0.6,1.1-0.6,1.9
						c0,0.8,0.2,1.4,0.6,1.9c0.4,0.5,0.9,0.7,1.6,0.7c0.6,0,1.2-0.1,1.8-0.4V394.1z"/>
					<path class="st4" d="M314,394.3v-10h1.3v10H314z"/>
					<path class="st4" d="M323.2,394.1c-0.8,0.3-1.6,0.4-2.2,0.4c-1,0-1.8-0.3-2.5-1c-0.6-0.7-1-1.5-1-2.6c0-1,0.3-1.9,0.8-2.6
						c0.6-0.7,1.3-1,2.2-1c0.8,0,1.5,0.3,1.9,0.9c0.5,0.6,0.7,1.4,0.7,2.5l0,0.4h-4.3c0.2,1.6,1,2.5,2.4,2.5c0.5,0,1.2-0.1,1.9-0.4
						V394.1z M318.9,390.1h3c0-1.3-0.5-1.9-1.4-1.9C319.6,388.2,319,388.8,318.9,390.1z"/>
					<path class="st4" d="M261.7,411.8c-0.3,0-0.6-0.1-0.8-0.3s-0.3-0.5-0.3-0.8s0.1-0.6,0.3-0.8s0.5-0.3,0.8-0.3s0.6,0.1,0.8,0.3
						s0.3,0.5,0.3,0.8s-0.1,0.6-0.3,0.8S262,411.8,261.7,411.8z"/>
					<path class="st4" d="M276.4,414.3v-9.4h5.2v1h-3.9v3h3.3v1h-3.3v3.4h4.2v1H276.4z"/>
					<path class="st4" d="M283.9,414.3v-6.9h1.3v1.3c0.7-1,1.5-1.4,2.4-1.4c0.6,0,1.1,0.2,1.4,0.6c0.4,0.4,0.5,0.9,0.5,1.5v5h-1.3
						v-4.5c0-0.5-0.1-0.9-0.2-1.1c-0.1-0.2-0.4-0.3-0.7-0.3c-0.8,0-1.5,0.5-2.2,1.5v4.5H283.9z"/>
					<path class="st4" d="M296.8,414.3V413c-0.5,1-1.3,1.5-2.3,1.5c-0.8,0-1.5-0.3-2-0.9c-0.5-0.6-0.7-1.4-0.7-2.5
						c0-1.1,0.3-2.1,0.8-2.8c0.5-0.7,1.3-1,2.1-1c0.8,0,1.5,0.3,2,0.9v-3.9h1.3v10H296.8z M296.8,409.1c-0.6-0.6-1.3-0.9-1.8-0.9
						c-0.6,0-1,0.2-1.3,0.7c-0.3,0.5-0.5,1.2-0.5,2c0,1.6,0.5,2.4,1.6,2.4c0.7,0,1.4-0.4,2-1.1V409.1z"/>
					<path class="st4" d="M300.6,410.9v-0.8h5.6v0.8H300.6z"/>
					<path class="st4" d="M308.8,414.3v-10h1.3v10H308.8z"/>
					<path class="st4" d="M313,406.2v-1.2h1.3v1.2H313z M313,414.3v-6.9h1.3v6.9H313z"/>
					<path class="st4" d="M317.4,414.3v-6h-1v-0.9h1v-0.8c0-1.6,0.7-2.5,2.2-2.5c0.4,0,0.9,0.1,1.4,0.2v1c-0.6-0.2-1-0.3-1.4-0.3
						c-0.4,0-0.7,0.1-0.8,0.3c-0.2,0.2-0.2,0.6-0.2,1.1v1h1.7v0.9h-1.7v6H317.4z"/>
					<path class="st4" d="M327.4,414.1c-0.8,0.3-1.6,0.4-2.2,0.4c-1,0-1.8-0.3-2.5-1c-0.6-0.7-1-1.5-1-2.6c0-1,0.3-1.9,0.8-2.6
						c0.6-0.7,1.3-1,2.2-1c0.8,0,1.5,0.3,1.9,0.9c0.5,0.6,0.7,1.4,0.7,2.5l0,0.4H323c0.2,1.6,1,2.5,2.4,2.5c0.5,0,1.2-0.1,1.9-0.4
						V414.1z M323.1,410.1h3c0-1.3-0.5-1.9-1.4-1.9C323.7,408.2,323.2,408.8,323.1,410.1z"/>
					<path class="st4" d="M337.2,414.5c-1,0-1.8-0.3-2.4-1c-0.6-0.6-0.9-1.5-0.9-2.6c0-1.1,0.3-2,0.9-2.6c0.6-0.6,1.4-1,2.4-1
						c1,0,1.8,0.3,2.4,1c0.6,0.6,0.9,1.5,0.9,2.6c0,1.1-0.3,2-0.9,2.6C339,414.1,338.2,414.5,337.2,414.5z M337.2,413.5
						c0.6,0,1.1-0.2,1.4-0.7c0.3-0.5,0.5-1.1,0.5-2c0-0.8-0.2-1.5-0.5-2c-0.3-0.5-0.8-0.7-1.4-0.7c-0.6,0-1.1,0.2-1.4,0.7
						c-0.3,0.5-0.5,1.1-0.5,2c0,0.8,0.2,1.5,0.5,2C336.1,413.3,336.6,413.5,337.2,413.5z"/>
					<path class="st4" d="M343.1,414.3v-6h-1v-0.9h1v-0.8c0-1.6,0.7-2.5,2.2-2.5c0.4,0,0.9,0.1,1.4,0.2v1c-0.6-0.2-1-0.3-1.4-0.3
						c-0.4,0-0.7,0.1-0.8,0.3c-0.2,0.2-0.2,0.6-0.2,1.1v1h1.7v0.9h-1.7v6H343.1z"/>
					<path class="st4" d="M353.3,414.3l-2-6.9h1.2l1.5,5.3l1.6-5.3h1.2l1.4,5.3l1.7-5.3h1.1l-2.2,6.9h-1.3l-1.5-5.3l-1.6,5.3H353.3z
						"/>
					<path class="st4" d="M366.5,413.4c-0.7,0.7-1.5,1-2.2,1c-0.6,0-1-0.2-1.4-0.5c-0.4-0.4-0.6-0.8-0.6-1.4c0-0.8,0.3-1.3,0.9-1.7
						c0.6-0.4,1.5-0.6,2.7-0.6h0.3v-0.8c0-0.8-0.4-1.2-1.2-1.2c-0.6,0-1.4,0.2-2.1,0.6v-1c0.8-0.3,1.6-0.5,2.4-0.5
						c0.8,0,1.3,0.2,1.7,0.5c0.4,0.3,0.5,0.9,0.5,1.6v3.1c0,0.7,0.2,1.1,0.7,1.1c0.1,0,0.1,0,0.2,0l0.1,0.7
						c-0.3,0.1-0.6,0.2-0.9,0.2C367,414.5,366.6,414.1,366.5,413.4z M366.3,412.8V411l-0.4,0c-0.7,0-1.3,0.1-1.7,0.4
						c-0.4,0.3-0.6,0.6-0.6,1c0,0.3,0.1,0.6,0.3,0.8c0.2,0.2,0.5,0.3,0.8,0.3C365.2,413.4,365.7,413.2,366.3,412.8z"/>
					<path class="st4" d="M370.2,414.1v-1.1c0.8,0.4,1.5,0.6,2.1,0.6c0.4,0,0.7-0.1,0.9-0.3c0.2-0.2,0.4-0.4,0.4-0.7
						c0-0.4-0.3-0.8-1-1.1l-0.7-0.3c-1.1-0.4-1.6-1.1-1.6-1.9c0-0.6,0.2-1.1,0.6-1.4c0.4-0.3,1-0.5,1.7-0.5c0.4,0,0.9,0.1,1.4,0.2
						l0.3,0.1v1c-0.7-0.2-1.3-0.3-1.7-0.3c-0.4,0-0.7,0.1-0.9,0.2c-0.2,0.2-0.3,0.4-0.3,0.6c0,0.4,0.3,0.7,0.9,1l0.6,0.3
						c0.7,0.3,1.2,0.6,1.4,0.9c0.3,0.3,0.4,0.7,0.4,1.2c0,0.6-0.2,1.1-0.7,1.5c-0.5,0.4-1.1,0.6-1.8,0.6
						C371.7,414.5,371,414.3,370.2,414.1z"/>
					<path class="st4" d="M380.6,414.3c-0.4,0.1-0.7,0.2-1,0.2c-0.6,0-1.1-0.2-1.5-0.5c-0.4-0.4-0.5-0.9-0.5-1.5v-4h-0.9v-0.9h0.9
						v-1.3l1.2-0.1v1.4h1.8v0.9h-1.8v3.8c0,0.9,0.4,1.4,1.2,1.4c0.2,0,0.4,0,0.6-0.1V414.3z"/>
					<path class="st4" d="M387.8,414.1c-0.8,0.3-1.6,0.4-2.2,0.4c-1,0-1.8-0.3-2.5-1c-0.6-0.7-1-1.5-1-2.6c0-1,0.3-1.9,0.8-2.6
						c0.6-0.7,1.3-1,2.2-1c0.8,0,1.5,0.3,1.9,0.9s0.7,1.4,0.7,2.5l0,0.4h-4.3c0.2,1.6,1,2.5,2.4,2.5c0.5,0,1.2-0.1,1.9-0.4V414.1z
						 M383.5,410.1h3c0-1.3-0.5-1.9-1.4-1.9C384.2,408.2,383.6,408.8,383.5,410.1z"/>
					<path class="st4" d="M261.7,431.8c-0.3,0-0.6-0.1-0.8-0.3s-0.3-0.5-0.3-0.8s0.1-0.6,0.3-0.8s0.5-0.3,0.8-0.3s0.6,0.1,0.8,0.3
						s0.3,0.5,0.3,0.8s-0.1,0.6-0.3,0.8S262,431.8,261.7,431.8z"/>
					<path class="st4" d="M277.3,434.3l-2-6.9h1.2l1.5,5.3l1.6-5.3h1.3l1.4,5.3l1.7-5.3h1.1l-2.2,6.9h-1.3l-1.5-5.3l-1.6,5.3H277.3z
						"/>
					<path class="st4" d="M290.4,433.4c-0.7,0.7-1.5,1-2.2,1c-0.6,0-1-0.2-1.4-0.5s-0.6-0.8-0.6-1.4c0-0.8,0.3-1.3,0.9-1.7
						c0.6-0.4,1.5-0.6,2.7-0.6h0.3v-0.8c0-0.8-0.4-1.2-1.3-1.2c-0.6,0-1.4,0.2-2.1,0.6v-1c0.8-0.3,1.6-0.5,2.4-0.5
						c0.8,0,1.3,0.2,1.7,0.5c0.4,0.3,0.5,0.9,0.5,1.6v3.1c0,0.7,0.2,1.1,0.7,1.1c0.1,0,0.1,0,0.2,0l0.1,0.7
						c-0.3,0.1-0.6,0.2-0.9,0.2C291,434.5,290.6,434.1,290.4,433.4z M290.2,432.8V431l-0.4,0c-0.7,0-1.3,0.1-1.7,0.4
						c-0.4,0.3-0.6,0.6-0.6,1c0,0.3,0.1,0.6,0.3,0.8c0.2,0.2,0.5,0.3,0.8,0.3C289.1,433.4,289.7,433.2,290.2,432.8z"/>
					<path class="st4" d="M294.2,434.1v-1.1c0.8,0.4,1.5,0.6,2.1,0.6c0.4,0,0.7-0.1,0.9-0.3c0.2-0.2,0.4-0.4,0.4-0.7
						c0-0.4-0.3-0.8-1-1.1l-0.7-0.3c-1.1-0.4-1.6-1.1-1.6-1.9c0-0.6,0.2-1.1,0.6-1.4c0.4-0.3,1-0.5,1.7-0.5c0.4,0,0.9,0.1,1.4,0.2
						l0.3,0.1v1c-0.7-0.2-1.3-0.3-1.7-0.3c-0.4,0-0.7,0.1-0.9,0.2c-0.2,0.2-0.3,0.4-0.3,0.6c0,0.4,0.3,0.7,0.9,1l0.6,0.3
						c0.7,0.3,1.2,0.6,1.4,0.9s0.4,0.7,0.4,1.2c0,0.6-0.2,1.1-0.7,1.5c-0.5,0.4-1.1,0.6-1.8,0.6C295.7,434.5,295,434.3,294.2,434.1z
						"/>
					<path class="st4" d="M304.5,434.3c-0.4,0.1-0.7,0.2-1,0.2c-0.6,0-1.1-0.2-1.5-0.5c-0.4-0.4-0.5-0.9-0.5-1.5v-4h-0.9v-0.9h0.9
						v-1.3l1.3-0.1v1.4h1.8v0.9h-1.8v3.8c0,0.9,0.4,1.4,1.2,1.4c0.2,0,0.4,0,0.6-0.1V434.3z"/>
					<path class="st4" d="M311.8,434.1c-0.8,0.3-1.6,0.4-2.2,0.4c-1,0-1.8-0.3-2.5-1c-0.6-0.7-1-1.5-1-2.6c0-1,0.3-1.9,0.8-2.6
						c0.6-0.7,1.3-1,2.2-1c0.8,0,1.5,0.3,1.9,0.9c0.5,0.6,0.7,1.4,0.7,2.5l0,0.4h-4.3c0.2,1.6,1,2.5,2.4,2.5c0.5,0,1.2-0.1,1.9-0.4
						V434.1z M307.5,430.1h3c0-1.3-0.5-1.9-1.4-1.9C308.1,428.2,307.6,428.8,307.5,430.1z"/>
					<path class="st4" d="M319.6,434.3l-2-6.9h1.2l1.5,5.3l1.6-5.3h1.3l1.4,5.3l1.7-5.3h1.1l-2.2,6.9H324l-1.5-5.3l-1.6,5.3H319.6z"
						/>
					<path class="st4" d="M332.8,433.4c-0.7,0.7-1.5,1-2.2,1c-0.6,0-1-0.2-1.4-0.5s-0.6-0.8-0.6-1.4c0-0.8,0.3-1.3,0.9-1.7
						c0.6-0.4,1.5-0.6,2.7-0.6h0.3v-0.8c0-0.8-0.4-1.2-1.3-1.2c-0.6,0-1.4,0.2-2.1,0.6v-1c0.8-0.3,1.6-0.5,2.4-0.5
						c0.8,0,1.3,0.2,1.7,0.5c0.4,0.3,0.5,0.9,0.5,1.6v3.1c0,0.7,0.2,1.1,0.7,1.1c0.1,0,0.1,0,0.2,0l0.1,0.7
						c-0.3,0.1-0.6,0.2-0.9,0.2C333.3,434.5,333,434.1,332.8,433.4z M332.6,432.8V431l-0.4,0c-0.7,0-1.3,0.1-1.7,0.4
						c-0.4,0.3-0.6,0.6-0.6,1c0,0.3,0.1,0.6,0.3,0.8c0.2,0.2,0.5,0.3,0.8,0.3C331.5,433.4,332.1,433.2,332.6,432.8z"/>
					<path class="st4" d="M339.9,434.3c-0.4,0.1-0.7,0.2-1,0.2c-0.6,0-1.1-0.2-1.5-0.5c-0.4-0.4-0.5-0.9-0.5-1.5v-4H336v-0.9h0.9
						v-1.3l1.3-0.1v1.4h1.8v0.9h-1.8v3.8c0,0.9,0.4,1.4,1.2,1.4c0.2,0,0.4,0,0.6-0.1V434.3z"/>
					<path class="st4" d="M347.1,434.1c-0.8,0.3-1.6,0.4-2.2,0.4c-1,0-1.8-0.3-2.5-1c-0.6-0.7-1-1.5-1-2.6c0-1,0.3-1.9,0.8-2.6
						c0.6-0.7,1.3-1,2.2-1c0.8,0,1.5,0.3,1.9,0.9c0.5,0.6,0.7,1.4,0.7,2.5l0,0.4h-4.3c0.2,1.6,1,2.5,2.4,2.5c0.5,0,1.2-0.1,1.9-0.4
						V434.1z M342.9,430.1h3c0-1.3-0.5-1.9-1.4-1.9C343.5,428.2,343,428.8,342.9,430.1z"/>
					<path class="st4" d="M349.7,434.3v-6.9h1.3v1.3c0.5-1,1.2-1.4,2.2-1.4c0.1,0,0.3,0,0.4,0v1.2c-0.2-0.1-0.4-0.1-0.6-0.1
						c-0.8,0-1.5,0.5-2,1.4v4.5H349.7z"/>
					<path class="st4" d="M261.7,451.8c-0.3,0-0.6-0.1-0.8-0.3s-0.3-0.5-0.3-0.8s0.1-0.6,0.3-0.8s0.5-0.3,0.8-0.3s0.6,0.1,0.8,0.3
						s0.3,0.5,0.3,0.8s-0.1,0.6-0.3,0.8S262,451.8,261.7,451.8z"/>
					<path class="st4" d="M277.3,454.3l-2-6.9h1.2l1.5,5.3l1.6-5.3h1.3l1.4,5.3l1.7-5.3h1.1l-2.2,6.9h-1.3l-1.5-5.3l-1.6,5.3H277.3z
						"/>
					<path class="st4" d="M290.4,453.4c-0.7,0.7-1.5,1-2.2,1c-0.6,0-1-0.2-1.4-0.5s-0.6-0.8-0.6-1.4c0-0.8,0.3-1.3,0.9-1.7
						c0.6-0.4,1.5-0.6,2.7-0.6h0.3v-0.8c0-0.8-0.4-1.2-1.3-1.2c-0.6,0-1.4,0.2-2.1,0.6v-1c0.8-0.3,1.6-0.5,2.4-0.5
						c0.8,0,1.3,0.2,1.7,0.5c0.4,0.3,0.5,0.9,0.5,1.6v3.1c0,0.7,0.2,1.1,0.7,1.1c0.1,0,0.1,0,0.2,0l0.1,0.7
						c-0.3,0.1-0.6,0.2-0.9,0.2C291,454.5,290.6,454.1,290.4,453.4z M290.2,452.8V451l-0.4,0c-0.7,0-1.3,0.1-1.7,0.4
						c-0.4,0.3-0.6,0.6-0.6,1c0,0.3,0.1,0.6,0.3,0.8c0.2,0.2,0.5,0.3,0.8,0.3C289.1,453.4,289.7,453.2,290.2,452.8z"/>
					<path class="st4" d="M294.2,454.1v-1.1c0.8,0.4,1.5,0.6,2.1,0.6c0.4,0,0.7-0.1,0.9-0.3c0.2-0.2,0.4-0.4,0.4-0.7
						c0-0.4-0.3-0.8-1-1.1l-0.7-0.3c-1.1-0.4-1.6-1.1-1.6-1.9c0-0.6,0.2-1.1,0.6-1.4c0.4-0.3,1-0.5,1.7-0.5c0.4,0,0.9,0.1,1.4,0.2
						l0.3,0.1v1c-0.7-0.2-1.3-0.3-1.7-0.3c-0.4,0-0.7,0.1-0.9,0.2c-0.2,0.2-0.3,0.4-0.3,0.6c0,0.4,0.3,0.7,0.9,1l0.6,0.3
						c0.7,0.3,1.2,0.6,1.4,0.9s0.4,0.7,0.4,1.2c0,0.6-0.2,1.1-0.7,1.5c-0.5,0.4-1.1,0.6-1.8,0.6C295.7,454.5,295,454.3,294.2,454.1z
						"/>
					<path class="st4" d="M304.5,454.3c-0.4,0.1-0.7,0.2-1,0.2c-0.6,0-1.1-0.2-1.5-0.5c-0.4-0.4-0.5-0.9-0.5-1.5v-4h-0.9v-0.9h0.9
						v-1.3l1.3-0.1v1.4h1.8v0.9h-1.8v3.8c0,0.9,0.4,1.4,1.2,1.4c0.2,0,0.4,0,0.6-0.1V454.3z"/>
					<path class="st4" d="M311.8,454.1c-0.8,0.3-1.6,0.4-2.2,0.4c-1,0-1.8-0.3-2.5-1c-0.6-0.7-1-1.5-1-2.6c0-1,0.3-1.9,0.8-2.6
						c0.6-0.7,1.3-1,2.2-1c0.8,0,1.5,0.3,1.9,0.9c0.5,0.6,0.7,1.4,0.7,2.5l0,0.4h-4.3c0.2,1.6,1,2.5,2.4,2.5c0.5,0,1.2-0.1,1.9-0.4
						V454.1z M307.5,450.1h3c0-1.3-0.5-1.9-1.4-1.9C308.1,448.2,307.6,448.8,307.5,450.1z"/>
					<path class="st4" d="M318.6,454.1v-1.1c0.8,0.4,1.5,0.6,2.1,0.6c0.4,0,0.7-0.1,0.9-0.3c0.2-0.2,0.4-0.4,0.4-0.7
						c0-0.4-0.3-0.8-1-1.1l-0.7-0.3c-1.1-0.4-1.6-1.1-1.6-1.9c0-0.6,0.2-1.1,0.6-1.4c0.4-0.3,1-0.5,1.7-0.5c0.4,0,0.9,0.1,1.4,0.2
						l0.3,0.1v1c-0.7-0.2-1.3-0.3-1.7-0.3c-0.4,0-0.7,0.1-0.9,0.2c-0.2,0.2-0.3,0.4-0.3,0.6c0,0.4,0.3,0.7,0.9,1l0.6,0.3
						c0.7,0.3,1.2,0.6,1.4,0.9s0.4,0.7,0.4,1.2c0,0.6-0.2,1.1-0.7,1.5c-0.5,0.4-1.1,0.6-1.8,0.6
						C320.1,454.5,319.4,454.3,318.6,454.1z"/>
					<path class="st4" d="M325.9,454.3v-10h1.3v10H325.9z"/>
					<path class="st4" d="M334.3,454.3V453c-0.7,1-1.5,1.5-2.4,1.5c-0.6,0-1.1-0.2-1.4-0.6s-0.5-0.9-0.5-1.5v-5h1.3v4.5
						c0,0.5,0.1,0.9,0.2,1.1c0.1,0.2,0.4,0.3,0.8,0.3c0.8,0,1.5-0.5,2.2-1.5v-4.5h1.3v6.9H334.3z"/>
					<path class="st4" d="M342.9,454.3V453c-0.5,1-1.3,1.5-2.3,1.5c-0.8,0-1.5-0.3-2-0.9s-0.7-1.4-0.7-2.5c0-1.1,0.3-2.1,0.8-2.8
						c0.5-0.7,1.3-1,2.1-1c0.8,0,1.5,0.3,2,0.9v-3.9h1.2v10H342.9z M342.9,449.1c-0.6-0.6-1.3-0.9-1.8-0.9c-0.6,0-1,0.2-1.3,0.7
						c-0.3,0.5-0.5,1.2-0.5,2c0,1.6,0.5,2.4,1.6,2.4c0.7,0,1.4-0.4,2-1.1V449.1z"/>
					<path class="st4" d="M347.1,456.6l0.1-1.1c0.7,0.3,1.4,0.5,2.1,0.5c1.4,0,2.1-0.7,2.1-2.2v-1.1c-0.2,0.5-0.5,0.8-0.9,1.1
						s-0.8,0.4-1.3,0.4c-0.8,0-1.5-0.3-2-0.9s-0.7-1.4-0.7-2.4c0-1,0.3-1.9,0.8-2.6c0.6-0.7,1.3-1,2.2-1c0.8,0,1.4,0.3,2,0.9v-0.8
						h1.3v5c0,1.1-0.1,1.9-0.2,2.4c-0.1,0.5-0.3,0.9-0.6,1.3c-0.5,0.6-1.4,0.9-2.6,0.9C348.6,457,347.8,456.8,347.1,456.6z
						 M351.5,451.9v-2.9c-0.6-0.6-1.2-0.9-1.8-0.9c-0.6,0-1,0.2-1.4,0.7c-0.3,0.5-0.5,1.1-0.5,1.9c0,1.5,0.5,2.2,1.6,2.2
						C350.1,453.1,350.8,452.7,351.5,451.9z"/>
					<path class="st4" d="M360.6,454.1c-0.8,0.3-1.6,0.4-2.2,0.4c-1,0-1.8-0.3-2.5-1c-0.6-0.7-1-1.5-1-2.6c0-1,0.3-1.9,0.8-2.6
						c0.6-0.7,1.3-1,2.2-1c0.8,0,1.5,0.3,1.9,0.9s0.7,1.4,0.7,2.5l0,0.4h-4.3c0.2,1.6,1,2.5,2.4,2.5c0.5,0,1.2-0.1,1.9-0.4V454.1z
						 M356.3,450.1h3c0-1.3-0.5-1.9-1.4-1.9C357,448.2,356.4,448.8,356.3,450.1z"/>
				</g>
			</g>
		</g>
		<g>
			<path class="st6" d="M432.8,93c0-49.7,52.6-90,117.5-90c64.9,0,117.5,40.3,117.5,90c0,49.7-52.6,90-117.5,90
				C485.4,183,432.8,142.7,432.8,93"/>
			<g>
				<g>
					<path class="st4" d="M466.4,90.5c-0.3,0-0.6-0.1-0.8-0.3s-0.3-0.5-0.3-0.8s0.1-0.6,0.3-0.8s0.5-0.3,0.8-0.3
						c0.3,0,0.6,0.1,0.8,0.3s0.3,0.5,0.3,0.8s-0.1,0.6-0.3,0.8S466.8,90.5,466.4,90.5z"/>
					<path class="st4" d="M481.1,93.1v-9.4h5.2v1h-3.9v3h3.3v1h-3.3v3.4h4.2v1H481.1z"/>
					<path class="st4" d="M488.6,93.1v-6.9h1.2v1.3c0.7-1,1.5-1.4,2.4-1.4c0.6,0,1.1,0.2,1.4,0.6s0.5,0.9,0.5,1.5v5H493v-4.5
						c0-0.5-0.1-0.9-0.2-1.1c-0.1-0.2-0.4-0.3-0.7-0.3c-0.8,0-1.5,0.5-2.2,1.5v4.5H488.6z"/>
					<path class="st4" d="M498.5,93.1l-2.6-6.9h1.3l2,5.4l2.1-5.4h1.2l-2.7,6.9H498.5z"/>
					<path class="st4" d="M504.2,84.9v-1.2h1.2v1.2H504.2z M504.2,93.1v-6.9h1.2v6.9H504.2z"/>
					<path class="st4" d="M508.3,93.1v-6.9h1.3v1.3c0.5-1,1.2-1.4,2.2-1.4c0.1,0,0.3,0,0.4,0v1.2c-0.2-0.1-0.4-0.1-0.6-0.1
						c-0.8,0-1.5,0.5-2,1.4v4.5H508.3z"/>
					<path class="st4" d="M516.8,93.2c-1,0-1.8-0.3-2.4-1c-0.6-0.6-0.9-1.5-0.9-2.6c0-1.1,0.3-2,0.9-2.6c0.6-0.6,1.4-1,2.4-1
						c1,0,1.8,0.3,2.4,1c0.6,0.6,0.9,1.5,0.9,2.6c0,1.1-0.3,2-0.9,2.6C518.6,92.9,517.8,93.2,516.8,93.2z M516.8,92.3
						c0.6,0,1.1-0.2,1.4-0.7c0.3-0.5,0.5-1.1,0.5-2c0-0.8-0.2-1.5-0.5-2c-0.3-0.5-0.8-0.7-1.4-0.7c-0.6,0-1.1,0.2-1.4,0.7
						c-0.3,0.5-0.5,1.1-0.5,2c0,0.8,0.2,1.5,0.5,2C515.7,92.1,516.2,92.3,516.8,92.3z"/>
					<path class="st4" d="M522.4,93.1v-6.9h1.2v1.3c0.7-1,1.5-1.4,2.4-1.4c0.6,0,1.1,0.2,1.4,0.6s0.5,0.9,0.5,1.5v5h-1.3v-4.5
						c0-0.5-0.1-0.9-0.2-1.1c-0.1-0.2-0.4-0.3-0.7-0.3c-0.8,0-1.5,0.5-2.2,1.5v4.5H522.4z"/>
					<path class="st4" d="M530.9,93.1v-6.9h1.2v1.3c0.6-1,1.4-1.4,2.3-1.4c0.9,0,1.5,0.5,1.9,1.4c0.6-1,1.4-1.4,2.3-1.4
						c0.6,0,1.1,0.2,1.4,0.5c0.3,0.4,0.5,0.9,0.5,1.5v5h-1.2v-4.8c0-0.8-0.3-1.2-0.9-1.2c-0.6,0-1.3,0.5-2,1.4v4.6h-1.2v-4.8
						c0-0.8-0.3-1.2-1-1.2c-0.6,0-1.3,0.5-2,1.4v4.6H530.9z"/>
					<path class="st4" d="M548.5,92.8c-0.8,0.3-1.6,0.4-2.2,0.4c-1,0-1.8-0.3-2.5-1c-0.6-0.7-1-1.5-1-2.6c0-1,0.3-1.9,0.8-2.6
						c0.6-0.7,1.3-1,2.2-1c0.8,0,1.5,0.3,1.9,0.9s0.7,1.4,0.7,2.5l0,0.4h-4.3c0.2,1.6,1,2.5,2.4,2.5c0.5,0,1.2-0.1,1.9-0.4V92.8z
						 M544.2,88.9h3c0-1.3-0.5-1.9-1.4-1.9C544.8,87,544.3,87.6,544.2,88.9z"/>
					<path class="st4" d="M551,93.1v-6.9h1.3v1.3c0.7-1,1.5-1.4,2.4-1.4c0.6,0,1.1,0.2,1.4,0.6c0.4,0.4,0.5,0.9,0.5,1.5v5h-1.2v-4.5
						c0-0.5-0.1-0.9-0.2-1.1s-0.4-0.3-0.7-0.3c-0.8,0-1.5,0.5-2.2,1.5v4.5H551z"/>
					<path class="st4" d="M562.6,93.1c-0.4,0.1-0.7,0.2-1,0.2c-0.6,0-1.1-0.2-1.5-0.5c-0.4-0.4-0.5-0.9-0.5-1.5v-4h-0.9v-0.9h0.9
						v-1.3l1.2-0.1v1.4h1.8v0.9h-1.8v3.8c0,0.9,0.4,1.4,1.2,1.4c0.2,0,0.4,0,0.6-0.1V93.1z"/>
					<path class="st4" d="M568.3,92.2c-0.7,0.7-1.5,1-2.2,1c-0.6,0-1-0.2-1.4-0.5c-0.4-0.4-0.6-0.8-0.6-1.4c0-0.8,0.3-1.3,0.9-1.7
						s1.5-0.6,2.7-0.6h0.3v-0.8c0-0.8-0.4-1.2-1.3-1.2c-0.6,0-1.4,0.2-2.1,0.6v-1c0.8-0.3,1.6-0.5,2.4-0.5c0.8,0,1.3,0.2,1.7,0.5
						c0.4,0.3,0.5,0.9,0.5,1.6v3.1c0,0.7,0.2,1.1,0.7,1.1c0.1,0,0.1,0,0.2,0l0.1,0.7c-0.3,0.1-0.6,0.2-0.9,0.2
						C568.8,93.2,568.5,92.9,568.3,92.2z M568.1,91.5v-1.8l-0.4,0c-0.7,0-1.3,0.1-1.7,0.4c-0.4,0.3-0.6,0.6-0.6,1
						c0,0.3,0.1,0.6,0.3,0.8c0.2,0.2,0.5,0.3,0.8,0.3C567,92.2,567.6,92,568.1,91.5z"/>
					<path class="st4" d="M572.3,93.1V83h1.3v10H572.3z"/>
					<path class="st4" d="M584,93.1c-0.4,0.1-0.7,0.2-1,0.2c-0.6,0-1.1-0.2-1.5-0.5c-0.4-0.4-0.5-0.9-0.5-1.5v-4h-0.9v-0.9h0.9v-1.3
						l1.2-0.1v1.4h1.8v0.9h-1.8v3.8c0,0.9,0.4,1.4,1.2,1.4c0.2,0,0.4,0,0.6-0.1V93.1z"/>
					<path class="st4" d="M591.3,92.8c-0.8,0.3-1.6,0.4-2.2,0.4c-1,0-1.8-0.3-2.5-1c-0.6-0.7-1-1.5-1-2.6c0-1,0.3-1.9,0.8-2.6
						c0.6-0.7,1.3-1,2.2-1c0.8,0,1.5,0.3,1.9,0.9s0.7,1.4,0.7,2.5l0,0.4H587c0.2,1.6,1,2.5,2.4,2.5c0.5,0,1.2-0.1,1.9-0.4V92.8z
						 M587,88.9h3c0-1.3-0.5-1.9-1.4-1.9C587.7,87,587.1,87.6,587,88.9z"/>
					<path class="st4" d="M593.6,92.8v-1.1c0.8,0.4,1.5,0.6,2.1,0.6c0.4,0,0.7-0.1,0.9-0.3c0.2-0.2,0.4-0.4,0.4-0.7
						c0-0.4-0.3-0.8-1-1.1l-0.7-0.3c-1.1-0.4-1.6-1.1-1.6-1.9c0-0.6,0.2-1.1,0.6-1.4c0.4-0.3,1-0.5,1.7-0.5c0.4,0,0.9,0.1,1.4,0.2
						l0.3,0.1v1c-0.7-0.2-1.3-0.3-1.7-0.3c-0.4,0-0.7,0.1-0.9,0.2c-0.2,0.2-0.3,0.4-0.3,0.6c0,0.4,0.3,0.7,0.9,1l0.6,0.3
						c0.7,0.3,1.2,0.6,1.4,0.9c0.3,0.3,0.4,0.7,0.4,1.2c0,0.6-0.2,1.1-0.7,1.5c-0.5,0.4-1.1,0.6-1.8,0.6
						C595.1,93.2,594.4,93.1,593.6,92.8z"/>
					<path class="st4" d="M603.9,93.1c-0.4,0.1-0.7,0.2-1,0.2c-0.6,0-1.1-0.2-1.5-0.5c-0.4-0.4-0.5-0.9-0.5-1.5v-4h-0.9v-0.9h0.9
						v-1.3l1.3-0.1v1.4h1.8v0.9h-1.8v3.8c0,0.9,0.4,1.4,1.2,1.4c0.2,0,0.4,0,0.6-0.1V93.1z"/>
					<path class="st4" d="M606.1,84.9v-1.2h1.2v1.2H606.1z M606.1,93.1v-6.9h1.2v6.9H606.1z"/>
					<path class="st4" d="M610.3,93.1v-6.9h1.3v1.3c0.7-1,1.5-1.4,2.4-1.4c0.6,0,1.1,0.2,1.4,0.6c0.4,0.4,0.5,0.9,0.5,1.5v5h-1.2
						v-4.5c0-0.5-0.1-0.9-0.2-1.1s-0.4-0.3-0.7-0.3c-0.8,0-1.5,0.5-2.2,1.5v4.5H610.3z"/>
					<path class="st4" d="M618.8,95.4l0.1-1.1c0.7,0.3,1.4,0.5,2.1,0.5c1.4,0,2.1-0.7,2.1-2.2v-1.1c-0.2,0.5-0.5,0.8-0.9,1.1
						s-0.8,0.4-1.3,0.4c-0.8,0-1.5-0.3-2-0.9s-0.7-1.4-0.7-2.4c0-1,0.3-1.9,0.8-2.6c0.6-0.7,1.3-1,2.2-1c0.8,0,1.4,0.3,2,0.9v-0.8
						h1.3v5c0,1.1-0.1,1.9-0.2,2.4c-0.1,0.5-0.3,0.9-0.6,1.3c-0.5,0.6-1.4,0.9-2.6,0.9C620.3,95.7,619.5,95.6,618.8,95.4z
						 M623.2,90.7v-2.9c-0.6-0.6-1.2-0.9-1.8-0.9c-0.6,0-1,0.2-1.4,0.7c-0.3,0.5-0.5,1.1-0.5,1.9c0,1.5,0.5,2.2,1.6,2.2
						C621.8,91.8,622.5,91.4,623.2,90.7z"/>
					<path class="st4" d="M466.4,110.5c-0.3,0-0.6-0.1-0.8-0.3s-0.3-0.5-0.3-0.8s0.1-0.6,0.3-0.8s0.5-0.3,0.8-0.3
						c0.3,0,0.6,0.1,0.8,0.3s0.3,0.5,0.3,0.8s-0.1,0.6-0.3,0.8S466.8,110.5,466.4,110.5z"/>
					<path class="st4" d="M481.1,113.1v-9.4h2.8c0.9,0,1.6,0.2,2.1,0.6c0.5,0.4,0.7,1,0.7,1.7c0,0.6-0.2,1.1-0.5,1.6
						s-0.8,0.8-1.4,1.1l3.1,4.4h-1.6l-2.7-4h-1.2v4H481.1z M482.5,108.1h0.4c0.8,0,1.4-0.2,1.9-0.5c0.4-0.3,0.6-0.8,0.6-1.5
						c0-1-0.7-1.5-2.1-1.5h-0.8V108.1z"/>
					<path class="st4" d="M494.8,112.8c-0.8,0.3-1.6,0.4-2.2,0.4c-1,0-1.8-0.3-2.5-1c-0.6-0.7-1-1.5-1-2.6c0-1,0.3-1.9,0.8-2.6
						c0.6-0.7,1.3-1,2.2-1c0.8,0,1.5,0.3,1.9,0.9s0.7,1.4,0.7,2.5l0,0.4h-4.3c0.2,1.6,1,2.5,2.4,2.5c0.5,0,1.2-0.1,1.9-0.4V112.8z
						 M490.6,108.9h3c0-1.3-0.5-1.9-1.4-1.9C491.2,107,490.7,107.6,490.6,108.9z"/>
					<path class="st4" d="M497.4,115.6v-9.4h1.3v1.3c0.5-1,1.3-1.4,2.3-1.4c0.8,0,1.5,0.3,2,0.9c0.5,0.6,0.7,1.4,0.7,2.5
						c0,1.1-0.3,2.1-0.8,2.8c-0.5,0.7-1.2,1-2.1,1c-0.8,0-1.5-0.3-2-0.9v3.3H497.4z M498.7,111.4c0.6,0.6,1.3,0.9,1.8,0.9
						c0.6,0,1-0.2,1.3-0.7c0.3-0.5,0.5-1.2,0.5-2c0-1.6-0.5-2.4-1.6-2.4c-0.7,0-1.4,0.4-2,1.1V111.4z"/>
					<path class="st4" d="M506,113.1v-10h1.2v10H506z"/>
					<path class="st4" d="M513.7,112.2c-0.7,0.7-1.5,1-2.2,1c-0.6,0-1-0.2-1.4-0.5c-0.4-0.4-0.6-0.8-0.6-1.4c0-0.8,0.3-1.3,0.9-1.7
						s1.5-0.6,2.7-0.6h0.3v-0.8c0-0.8-0.4-1.2-1.3-1.2c-0.6,0-1.4,0.2-2.1,0.6v-1c0.8-0.3,1.6-0.5,2.4-0.5c0.8,0,1.3,0.2,1.7,0.5
						c0.4,0.3,0.5,0.9,0.5,1.6v3.1c0,0.7,0.2,1.1,0.7,1.1c0.1,0,0.1,0,0.2,0l0.1,0.7c-0.3,0.1-0.6,0.2-0.9,0.2
						C514.2,113.2,513.9,112.9,513.7,112.2z M513.5,111.5v-1.8l-0.4,0c-0.7,0-1.3,0.1-1.7,0.4c-0.4,0.3-0.6,0.6-0.6,1
						c0,0.3,0.1,0.6,0.3,0.8c0.2,0.2,0.5,0.3,0.8,0.3C512.4,112.2,513,112,513.5,111.5z"/>
					<path class="st4" d="M522.5,112.9c-0.8,0.2-1.5,0.4-2.1,0.4c-0.9,0-1.7-0.3-2.3-1c-0.6-0.7-0.9-1.6-0.9-2.6
						c0-1.1,0.3-2,0.9-2.6s1.5-0.9,2.5-0.9c0.5,0,1.1,0.1,1.8,0.2v1c-0.7-0.2-1.3-0.3-1.7-0.3c-0.6,0-1.2,0.2-1.5,0.7
						c-0.4,0.5-0.6,1.1-0.6,1.9c0,0.8,0.2,1.4,0.6,1.9c0.4,0.5,0.9,0.7,1.6,0.7c0.6,0,1.2-0.1,1.8-0.4V112.9z"/>
					<path class="st4" d="M529.8,112.8c-0.8,0.3-1.6,0.4-2.2,0.4c-1,0-1.8-0.3-2.5-1c-0.6-0.7-1-1.5-1-2.6c0-1,0.3-1.9,0.8-2.6
						c0.6-0.7,1.3-1,2.2-1c0.8,0,1.5,0.3,1.9,0.9c0.5,0.6,0.7,1.4,0.7,2.5l0,0.4h-4.3c0.2,1.6,1,2.5,2.4,2.5c0.5,0,1.2-0.1,1.9-0.4
						V112.8z M525.5,108.9h3c0-1.3-0.5-1.9-1.4-1.9C526.2,107,525.7,107.6,525.5,108.9z"/>
					<path class="st4" d="M466.4,130.5c-0.3,0-0.6-0.1-0.8-0.3s-0.3-0.5-0.3-0.8s0.1-0.6,0.3-0.8s0.5-0.3,0.8-0.3
						c0.3,0,0.6,0.1,0.8,0.3s0.3,0.5,0.3,0.8s-0.1,0.6-0.3,0.8S466.8,130.5,466.4,130.5z"/>
					<path class="st4" d="M481.1,133.1v-9.4h2.8c0.9,0,1.6,0.2,2.1,0.6c0.5,0.4,0.7,1,0.7,1.7c0,0.6-0.2,1.1-0.5,1.6
						s-0.8,0.8-1.4,1.1l3.1,4.4h-1.6l-2.7-4h-1.2v4H481.1z M482.5,128.1h0.4c0.8,0,1.4-0.2,1.9-0.5c0.4-0.3,0.6-0.8,0.6-1.5
						c0-1-0.7-1.5-2.1-1.5h-0.8V128.1z"/>
					<path class="st4" d="M494.8,132.8c-0.8,0.3-1.6,0.4-2.2,0.4c-1,0-1.8-0.3-2.5-1c-0.6-0.7-1-1.5-1-2.6c0-1,0.3-1.9,0.8-2.6
						c0.6-0.7,1.3-1,2.2-1c0.8,0,1.5,0.3,1.9,0.9s0.7,1.4,0.7,2.5l0,0.4h-4.3c0.2,1.6,1,2.5,2.4,2.5c0.5,0,1.2-0.1,1.9-0.4V132.8z
						 M490.6,128.9h3c0-1.3-0.5-1.9-1.4-1.9C491.2,127,490.7,127.6,490.6,128.9z"/>
					<path class="st4" d="M497.4,133.1v-6.9h1.3v1.3c0.7-1,1.5-1.4,2.4-1.4c0.6,0,1.1,0.2,1.4,0.6c0.4,0.4,0.5,0.9,0.5,1.5v5h-1.2
						v-4.5c0-0.5-0.1-0.9-0.2-1.1s-0.4-0.3-0.7-0.3c-0.8,0-1.5,0.5-2.2,1.5v4.5H497.4z"/>
					<path class="st4" d="M510.9,132.8c-0.8,0.3-1.6,0.4-2.2,0.4c-1,0-1.8-0.3-2.5-1c-0.6-0.7-1-1.5-1-2.6c0-1,0.3-1.9,0.8-2.6
						c0.6-0.7,1.3-1,2.2-1c0.8,0,1.5,0.3,1.9,0.9c0.5,0.6,0.7,1.4,0.7,2.5l0,0.4h-4.3c0.2,1.6,1,2.5,2.4,2.5c0.5,0,1.2-0.1,1.9-0.4
						V132.8z M506.7,128.9h3c0-1.3-0.5-1.9-1.4-1.9C507.3,127,506.8,127.6,506.7,128.9z"/>
					<path class="st4" d="M514.3,133.1l-2-6.9h1.2l1.5,5.3l1.6-5.3h1.3l1.4,5.3l1.7-5.3h1.1l-2.2,6.9h-1.2l-1.5-5.3l-1.7,5.3H514.3z
						"/>
				</g>
			</g>
			<g>
				<g>
					<path class="st4" d="M460.2,69.8V58.2h7.4v1.6h-5V63h4.1v1.6h-4.1v3.5h5.4v1.6H460.2z"/>
					<path class="st4" d="M476,69.6c-0.9,0.3-1.8,0.4-2.7,0.4c-1.5,0-2.5-0.4-3.3-1.3c-0.7-0.9-1.1-1.9-1.1-3.2
						c0-1.3,0.4-2.4,1.2-3.2s1.9-1.2,3.4-1.2c0.7,0,1.5,0.1,2.4,0.3V63c-0.9-0.3-1.7-0.5-2.2-0.5c-0.8,0-1.4,0.3-1.7,0.9
						c-0.4,0.6-0.5,1.3-0.5,2c0,0.6,0.1,1.1,0.3,1.6c0.2,0.5,0.5,0.8,0.9,1.1s0.8,0.3,1.3,0.3c0.7,0,1.4-0.2,2.1-0.5V69.6z"/>
					<path class="st4" d="M481.9,70c-0.9,0-1.7-0.2-2.4-0.5s-1.2-0.9-1.5-1.6s-0.5-1.5-0.5-2.3c0-0.9,0.2-1.6,0.5-2.3
						s0.8-1.2,1.5-1.6s1.5-0.6,2.4-0.6c0.9,0,1.7,0.2,2.4,0.6s1.2,0.9,1.5,1.6s0.5,1.5,0.5,2.3c0,0.9-0.2,1.6-0.5,2.3
						s-0.9,1.2-1.5,1.6S482.9,70,481.9,70z M481.9,68.5c0.7,0,1.1-0.3,1.5-0.9s0.5-1.3,0.5-2.2c0-0.9-0.2-1.6-0.5-2.2
						s-0.8-0.9-1.5-0.9c-0.7,0-1.1,0.3-1.5,0.9s-0.5,1.3-0.5,2.2c0,0.9,0.2,1.6,0.5,2.2S481.3,68.5,481.9,68.5z"/>
					<path class="st4" d="M487.7,65.6v-1.4h3.5v1.4H487.7z"/>
					<path class="st4" d="M493.6,69.8v-7.1h-1.2v-1.4h1.2v-0.6c0-1.2,0.3-2.1,0.8-2.6s1.3-0.8,2.3-0.8c0.7,0,1.4,0.1,2.1,0.3v1.6
						c-0.7-0.3-1.2-0.4-1.8-0.4c-0.2,0-0.5,0-0.6,0.1s-0.3,0.3-0.4,0.5s-0.2,0.6-0.2,1.2v0.7h2.2v1.4h-2.2v7.1H493.6z"/>
					<path class="st4" d="M500,69.8v-8.6h2.3v1.6c0.3-0.6,0.7-1,1.1-1.3s1-0.5,1.6-0.5c0.1,0,0.3,0,0.4,0v2.1
						c-0.3-0.1-0.6-0.2-0.9-0.2c-0.5,0-0.9,0.1-1.2,0.3s-0.7,0.6-1,1.1v5.4H500z"/>
					<path class="st4" d="M507.2,59.8v-1.9h2.3v1.9H507.2z M507.2,69.8v-8.6h2.3v8.6H507.2z"/>
					<path class="st4" d="M519.4,69.5c-1.1,0.3-2.1,0.5-3.1,0.5c-0.9,0-1.7-0.2-2.4-0.5c-0.7-0.3-1.2-0.9-1.6-1.6
						c-0.4-0.7-0.6-1.5-0.6-2.4c0-0.8,0.2-1.5,0.5-2.2s0.8-1.2,1.4-1.6s1.4-0.6,2.2-0.6c1.1,0,2,0.3,2.6,1s1,2,1,3.9h-5.3
						c0.1,0.6,0.2,1,0.4,1.4s0.5,0.6,0.8,0.8s0.8,0.3,1.4,0.3c0.8,0,1.6-0.2,2.6-0.5V69.5z M514.1,64.6h3c0-0.8-0.1-1.3-0.4-1.7
						s-0.6-0.5-1-0.5c-0.4,0-0.8,0.2-1.1,0.6S514.1,63.9,514.1,64.6z"/>
					<path class="st4" d="M521.8,69.8v-8.6h2.3v1.6c0.4-0.7,0.9-1.1,1.4-1.4s1-0.4,1.5-0.4c0.7,0,1.3,0.2,1.7,0.7s0.7,1.1,0.7,2.1
						v6.1h-2.3v-5.5c0-0.5,0-0.8-0.1-1s-0.2-0.3-0.4-0.4s-0.3-0.1-0.5-0.1c-0.3,0-0.6,0.1-1,0.3s-0.7,0.6-1.1,1.2v5.4H521.8z"/>
					<path class="st4" d="M537.6,69.8v-1.6c-0.3,0.6-0.7,1.1-1.1,1.4s-1,0.5-1.6,0.5c-1,0-1.8-0.4-2.4-1.2c-0.6-0.8-0.9-1.8-0.9-3.1
						c0-1.3,0.3-2.5,1-3.4s1.5-1.3,2.7-1.3c0.3,0,0.6,0,0.8,0.1s0.5,0.2,0.7,0.3s0.5,0.4,0.8,0.7v-4.6h2.3v12.3H537.6z M537.6,63.4
						c-0.3-0.4-0.6-0.6-0.9-0.7s-0.6-0.2-0.9-0.2c-0.6,0-1.1,0.3-1.4,0.9c-0.3,0.6-0.5,1.3-0.5,2.1c0,0.8,0.1,1.4,0.4,1.9
						c0.3,0.5,0.7,0.7,1.2,0.7c0.3,0,0.7-0.1,1-0.4c0.3-0.2,0.6-0.6,0.9-1V63.4z"/>
					<path class="st4" d="M542.9,69.8V57.4h2.3v12.3H542.9z"/>
					<path class="st4" d="M548.2,72.9l1.9-3.1l-3.2-8.6h2.5l2.1,5.7l2.5-5.7h1.8l-5.3,11.7H548.2z"/>
					<path class="st4" d="M562.6,69.8V58.2h3.2l2.8,8.1l2.9-8.1h2.8v11.6H572V61l-2.8,8h-1.9l-2.8-8.1v8.8H562.6z"/>
					<path class="st4" d="M581.3,68.9c-0.3,0.3-0.6,0.6-0.9,0.7s-0.5,0.2-0.8,0.3s-0.5,0.1-0.8,0.1c-0.8,0-1.4-0.2-1.8-0.7
						s-0.7-1.1-0.7-1.8c0-0.8,0.3-1.5,1-2.1s1.8-0.8,3.4-0.8h0.6v-0.8c0-0.5-0.1-0.9-0.4-1.1s-0.7-0.3-1.1-0.3
						c-0.9,0-1.8,0.3-2.7,0.8v-1.6c1-0.4,2.1-0.6,3.1-0.6c0.6,0,1.2,0.1,1.7,0.3s0.9,0.4,1.2,0.8s0.4,0.9,0.4,1.6v3.8
						c0,0.5,0.1,0.7,0.2,0.9s0.3,0.2,0.4,0.2c0.1,0,0.2,0,0.3,0l0.1,1.3c-0.5,0.1-0.9,0.2-1.3,0.2c-0.4,0-0.8-0.1-1.1-0.2
						s-0.5-0.4-0.7-0.9H581.3z M581.3,67.6v-1.7h-0.5c-0.8,0-1.3,0.1-1.7,0.4s-0.6,0.6-0.6,1c0,0.3,0.1,0.6,0.3,0.8s0.5,0.3,0.8,0.3
						c0.3,0,0.5-0.1,0.8-0.2S581,67.9,581.3,67.6z"/>
					<path class="st4" d="M590.9,69.7c-0.6,0.2-1,0.2-1.3,0.2c-0.8,0-1.3-0.1-1.8-0.3s-0.7-0.5-0.9-0.9s-0.3-0.9-0.3-1.6v-4.5h-1
						v-1.4h1v-1.4l2.3-0.3v1.7h1.8v1.4h-1.8v4.2c0,0.6,0.1,1,0.3,1.3c0.2,0.2,0.5,0.3,1,0.3c0.2,0,0.4,0,0.7-0.1V69.7z"/>
					<path class="st4" d="M599.9,69.5c-1.1,0.3-2.1,0.5-3.1,0.5c-0.9,0-1.7-0.2-2.4-0.5c-0.7-0.3-1.2-0.9-1.6-1.6
						c-0.4-0.7-0.6-1.5-0.6-2.4c0-0.8,0.2-1.5,0.5-2.2s0.8-1.2,1.4-1.6s1.4-0.6,2.2-0.6c1.1,0,2,0.3,2.6,1s1,2,1,3.9h-5.3
						c0.1,0.6,0.2,1,0.4,1.4s0.5,0.6,0.8,0.8s0.8,0.3,1.4,0.3c0.8,0,1.6-0.2,2.6-0.5V69.5z M594.6,64.6h3c0-0.8-0.1-1.3-0.4-1.7
						s-0.6-0.5-1-0.5c-0.4,0-0.8,0.2-1.1,0.6S594.7,63.9,594.6,64.6z"/>
					<path class="st4" d="M602.3,69.8v-8.6h2.3v1.6c0.3-0.6,0.7-1,1.1-1.3s1-0.5,1.6-0.5c0.1,0,0.3,0,0.4,0v2.1
						c-0.3-0.1-0.6-0.2-0.9-0.2c-0.5,0-0.9,0.1-1.2,0.3s-0.7,0.6-1,1.1v5.4H602.3z"/>
					<path class="st4" d="M609.6,59.8v-1.9h2.3v1.9H609.6z M609.6,69.8v-8.6h2.3v8.6H609.6z"/>
					<path class="st4" d="M619,68.9c-0.3,0.3-0.6,0.6-0.9,0.7s-0.5,0.2-0.8,0.3s-0.5,0.1-0.8,0.1c-0.8,0-1.4-0.2-1.8-0.7
						s-0.7-1.1-0.7-1.8c0-0.8,0.3-1.5,1-2.1s1.8-0.8,3.4-0.8h0.6v-0.8c0-0.5-0.1-0.9-0.4-1.1s-0.7-0.3-1.1-0.3
						c-0.9,0-1.8,0.3-2.7,0.8v-1.6c1-0.4,2.1-0.6,3.1-0.6c0.6,0,1.2,0.1,1.7,0.3s0.9,0.4,1.2,0.8s0.4,0.9,0.4,1.6v3.8
						c0,0.5,0.1,0.7,0.2,0.9s0.3,0.2,0.4,0.2c0.1,0,0.2,0,0.3,0l0.1,1.3c-0.5,0.1-0.9,0.2-1.3,0.2c-0.4,0-0.8-0.1-1.1-0.2
						s-0.5-0.4-0.7-0.9H619z M619,67.6v-1.7h-0.5c-0.8,0-1.3,0.1-1.7,0.4s-0.6,0.6-0.6,1c0,0.3,0.1,0.6,0.3,0.8s0.5,0.3,0.8,0.3
						c0.3,0,0.5-0.1,0.8-0.2S618.7,67.9,619,67.6z"/>
					<path class="st4" d="M624.2,69.8V57.4h2.3v12.3H624.2z"/>
					<path class="st4" d="M629.2,69.5v-1.7c1.1,0.5,2.1,0.7,2.9,0.7c0.4,0,0.8-0.1,1-0.3s0.4-0.4,0.4-0.7c0-0.2-0.1-0.5-0.3-0.6
						c-0.2-0.2-0.5-0.3-0.9-0.5l-0.8-0.3c-0.8-0.3-1.4-0.7-1.8-1.1c-0.4-0.4-0.6-0.9-0.6-1.5c0-0.7,0.3-1.4,0.9-1.8s1.5-0.7,2.7-0.7
						c0.7,0,1.5,0.1,2.5,0.3v1.6c-0.9-0.3-1.7-0.5-2.3-0.5c-0.5,0-0.8,0.1-1.1,0.2s-0.4,0.4-0.4,0.6c0,0.2,0.1,0.4,0.2,0.5
						c0.2,0.2,0.4,0.3,0.8,0.5l0.7,0.3c1.1,0.4,1.8,0.8,2.2,1.2c0.3,0.4,0.5,0.9,0.5,1.4c0,0.7-0.3,1.4-0.9,1.9s-1.5,0.8-2.7,0.8
						C631.3,70,630.3,69.8,629.2,69.5z"/>
				</g>
			</g>
		</g>
	</g>
</g>
</svg>
