<?xml version="1.0" encoding="UTF-8"?>
<svg xmlns="http://www.w3.org/2000/svg" xmlns:xlink="http://www.w3.org/1999/xlink" id="_圖層_1" data-name="圖層 1" width="600" height="360" viewBox="0 0 600 360">
  <defs>
    <style>
      .cls-1 {
        fill: #fff;
      }

      .cls-2 {
        fill: #1d3253;
      }

      .cls-3 {
        fill: url(#_未命名漸層_3);
      }

      .cls-4 {
        fill: #fedf58;
      }

      .cls-5 {
        fill: #058247;
      }

      .cls-6 {
        clip-path: url(#clippath-1);
      }

      .cls-7 {
        fill: #ea664a;
      }

      .cls-8 {
        fill: #dfe2ea;
        opacity: .5;
      }

      .cls-9 {
        clip-path: url(#clippath);
      }

      .cls-10 {
        fill: none;
      }

      .cls-11 {
        fill: #54565a;
      }
    </style>
    <clipPath id="clippath">
      <rect class="cls-10" width="600" height="360"></rect>
    </clipPath>
    <clipPath id="clippath-1">
      <rect class="cls-10" x="-6.52" y="346.67" width="613.33" height="20"></rect>
    </clipPath>
    <linearGradient id="_未命名漸層_3" data-name="未命名漸層 3" x1="606.81" y1="356.67" x2="-6.52" y2="356.67" gradientUnits="userSpaceOnUse">
      <stop offset="0" stop-color="#ea664a"></stop>
      <stop offset=".18" stop-color="#b3584c"></stop>
      <stop offset=".39" stop-color="#7e4a4e"></stop>
      <stop offset=".58" stop-color="#543f50"></stop>
      <stop offset=".75" stop-color="#353851"></stop>
      <stop offset=".9" stop-color="#233352"></stop>
      <stop offset="1" stop-color="#1d3253"></stop>
    </linearGradient>
  </defs>
  <rect class="cls-1" width="600" height="360"></rect>
  <g class="cls-9">
    <g>
      <g>
        <path class="cls-8" d="m52,47.22c.47,0,.85.38.85.85s-.38.85-.85.85c-.35,0-.69-.23-.8-.56H-6.81v-.57h58.01c.11-.33.45-.56.8-.56m8.57,7.53c.47,0,.85.38.85.85s-.38.85-.85.85c-.37,0-.66-.22-.8-.56H-6.81s0-.55,0-.55H59.77c.13-.35.43-.58.8-.58ZM-6.81,14.48H60.45l33.88,33.88h226.57l22.59-22.58h115.92s51.49,51.49,51.49,51.49c-.16.32-.11.64.16.96.4.33.79.33,1.2,0,.33-.4.33-.79,0-1.2-.32-.27-.64-.32-.96-.16l-51.66-51.66h-116.38s-22.58,22.58-22.58,22.58H94.55L60.68,13.91H-6.81v.57Zm0,7.53H57.32l33.53,33.88h233.44l22.31-22.59h109.67l49.29,49.29c-.16.32-.11.64.16.96.4.33.79.33,1.2,0,.33-.4.33-.79,0-1.2-.32-.27-.64-.32-.96-.16l-49.46-49.46h-110.14l-22.31,22.59H91.09L57.56,21.44H-6.81v.57Zm0,7.53h61.01l33.53,33.87h239.19s22.79-22.58,22.79-22.58h103.43l46.94,46.94c-.16.32-.11.64.16.96.4.33.79.33,1.2,0,.33-.4.33-.79,0-1.2-.32-.27-.64-.32-.96-.16l-47.1-47.1h-103.9l-22.79,22.59H87.97S54.44,28.97,54.44,28.97H-6.81v.57Zm0,7.53h58.44l33.7,33.88c81.8-.46,163.71-.69,245.51-.69l21.89-21.89h97.42l44.83,44.83c-.16.32-.11.64.16.96.4.33.79.33,1.2,0,.33-.4.33-.79,0-1.2-.32-.27-.64-.32-.96-.16l-44.99-44.99h-97.88l-21.89,21.89-245.04.69-33.7-33.88H-6.81v.57Zm613.33,26h-87.19S450.7-4.91,450.7-4.91h-98.42l-33.87,33.87H121.17l-12.65,12.65v1.89c-.33.12-.56.43-.56.8,0,.47.38.85.85.85s.85-.38.85-.85c0-.37-.24-.68-.56-.8v-1.66l12.32-12.32h197.24l33.87-33.87h97.96l68.63,67.98h87.43v-.58Zm0,7.31h-90.44L447.7,2.62h-92.41l-33.87,33.87H124.18l-7.49,7.48c-.32-.16-.64-.11-.96.16-.33.4-.33.79,0,1.2.4.33.79.33,1.2,0,.27-.32.32-.64.16-.96l7.32-7.32h197.24L355.52,3.19h91.94l68.39,67.75h90.67v-.57ZM320.56-5.47c.47,0,.85.38.85.85s-.38.85-.85.85c-.35,0-.69-.23-.8-.56H114.68l-7.81,7.81c.16.32.11.64-.16.96-.4.34-.8.33-1.2,0-.33-.4-.34-.79,0-1.2.32-.27.64-.32.96-.16l7.98-7.98h205.31c.11-.33.45-.56.8-.56Zm-7.48,7.48c.47,0,.85.38.85.85s-.38.85-.85.85c-.36,0-.67-.23-.8-.56l-194.6.05-5.75,5.75c.16.32.11.64-.16.96-.4.34-.79.33-1.2,0-.34-.4-.33-.79,0-1.2.32-.27.64-.32.96-.16l5.91-5.91,194.83-.05c.11-.33.45-.56.8-.56ZM-6.81-4.34H59l10.96,10.96c-.16.32-.11.64.16.96.4.33.79.33,1.2,0,.33-.4.33-.79,0-1.2-.32-.27-.64-.32-.96-.16l-11.13-11.13H-6.81v.57Zm0,7.53h62.8l8.7,8.7c-.16.32-.11.64.16.96.4.34.79.33,1.2,0,.34-.4.33-.8,0-1.2-.32-.27-.64-.32-.96-.16l-8.87-8.87H-6.81v.57Zm523.9,6.65c-.33-.4-.33-.79,0-1.2.4-.33.79-.33,1.2,0,.25.3.33.59.16.95l11.84,11.84h76.23v.57h-76.46l-12.01-12.01c-.35.18-.66.08-.96-.16Zm10.26-.28c-.33-.4-.34-.79,0-1.2.4-.33.79-.34,1.2,0,.24.29.34.6.16.95l4.59,4.6h73.22v.57h-73.46l-4.76-4.76c-.35.18-.66.08-.96-.16Zm-21.17-.77c-.33-.33-.3-.87.02-1.2.33-.33.87-.31,1.2.02.26.28.3.62.15.96l19.63,20.39h79.35v.57h-79.59l-19.8-20.56c-.32.15-.71.07-.96-.19Zm-10.25,1.18c-.34-.4-.33-.79,0-1.2.4-.33.79-.34,1.2,0,.23.28.34.61.16.95l26.76,26.77h82.47v.57h-82.7l-26.93-26.93c-.35.18-.66.08-.96-.16ZM-6.81,158.26h126.66l22.31-22.59h109.67l43.7,43.7c-.16.32-.11.64.16.96.4.33.79.33,1.2,0,.33-.4.33-.79,0-1.2-.32-.27-.64-.32-.96-.16l-43.87-43.87h-110.14l-22.31,22.59H-6.81v.57Zm0,7.53H122.48s22.79-22.58,22.79-22.58h103.43l36.17,36.17c-.16.32-.11.64.16.96.4.34.79.33,1.2,0,.33-.4.34-.79,0-1.2-.32-.27-.64-.32-.96-.16l-36.34-36.34h-103.9l-22.79,22.59H-6.81s0,.56,0,.56Zm467.7-16.19c.47,0,.85.38.85.85s-.38.85-.85.85c-.35,0-.69-.23-.8-.56h-139.43l-68.18-67.54h-110.86l-33.67,33.67H-6.81v-.57h114.53l33.67-33.67h111.32l68.18,67.54h139.2c.11-.33.45-.56.8-.56Zm8.57,7.53c.47,0,.85.38.85.85s-.38.85-.85.85c-.34,0-.7-.23-.8-.56l-151.09.03-68.42-67.78h-104.2l-33.87,33.87H-6.81v-.57h117.65l33.87-33.87h104.66l68.42,67.78,150.86-.03c.13-.34.43-.56.8-.56Zm4.41,7.53c.47,0,.85.38.85.84s-.38.85-.84.85c-.37,0-.66-.22-.8-.56l-158.42.23-68.63-67.98h-97.96l-33.87,33.87H-6.81v-.57h120.77l33.87-33.87h98.42l68.63,67.98,158.19-.23c.11-.34.45-.56.8-.56Zm7.79,7.53c.47,0,.85.38.85.85s-.38.85-.85.85c-.35,0-.69-.23-.8-.56h-169.45l-68.39-67.75h-91.94l-33.87,33.87H-6.81v-.57h123.78l33.87-33.87h92.41l68.39,67.75h169.22c.11-.33.45-.56.8-.56ZM116.12,96.91c.47,0,.85.38.85.85s-.38.85-.85.85c-.35,0-.69-.23-.8-.56H-6.81v-.57h122.13c.11-.33.45-.56.8-.56Zm7.53-7.53c.47,0,.85.38.85.85s-.38.85-.85.85c-.35,0-.69-.23-.8-.56H-6.81v-.57H122.85c.11-.33.45-.56.8-.56Zm482.88,26.91h-82.71l-21.46,21.46v4.36c-.33.12-.56.43-.56.8,0,.47.38.85.85.85s.85-.38.85-.85c0-.37-.24-.68-.56-.8v-4.12l21.13-21.13h82.47v-.57Zm0,7.53h-79.58l-17.06,17.06v5.01c-.33.12-.56.43-.56.8,0,.47.38.85.85.85s.85-.38.85-.85c0-.37-.24-.68-.56-.8v-4.78l16.72-16.72h79.35v-.57Zm0,7.53h-76.46l-12.65,12.65v1.89c-.33.12-.56.43-.56.8,0,.47.38.85.85.85s.85-.38.85-.85c0-.37-.24-.68-.56-.8v-1.66l12.32-12.32h76.23v-.57Zm0,7.53h-73.46l-7.49,7.48c-.32-.16-.64-.11-.96.16-.33.4-.33.79,0,1.2.4.33.79.33,1.2,0,.27-.32.32-.64.16-.96l7.32-7.32h73.22v-.57Zm0-56.46h-89.42l-12.47,12.47c-.32-.16-.64-.11-.96.16-.34.4-.33.79,0,1.2.4.33.79.34,1.2,0,.27-.32.32-.64.16-.96l12.3-12.3h89.19v-.57Zm0,15.06h-83.18l-7.98,7.98c-.32-.16-.64-.11-.96.16-.34.4-.33.79,0,1.2.4.33.79.34,1.2,0,.27-.32.32-.64.16-.96l7.81-7.81h82.95v-.57Zm0,7.53h-80.18l-5.91,5.91c-.32-.16-.64-.11-.96.16-.33.4-.34.79,0,1.2.4.33.79.33,1.2,0,.27-.32.32-.64.16-.96l5.75-5.75h79.94v-.57Zm0-15.06h-86.3l-9.83,9.83c-.32-.16-.64-.11-.96.16-.33.4-.34.79,0,1.2.4.33.79.34,1.2,0,.27-.32.32-.64.16-.96l9.67-9.67h86.07v-.57Zm-339.87-6.55c-.47,0-.85-.38-.85-.85s.38-.85.85-.85c.35,0,.69.23.8.56h206.76l15.82,15.83c.31-.14.74-.06.97.17.35.29.3.9,0,1.2-.29.35-.9.29-1.2,0-.27-.22-.3-.64-.16-.96l-15.67-15.67h-206.53c-.11.33-.45.56-.8.56Zm12.97,15.21c-.47,0-.85-.38-.85-.85s.38-.85.85-.85c.35,0,.69.23.8.56h187.7l11.13,11.13c.32-.16.64-.11.96.16.33.4.33.79,0,1.2-.4.33-.79.34-1.2,0-.27-.32-.32-.64-.16-.96l-10.96-10.96h-187.46c-.11.33-.45.56-.8.56Zm6.68,7.53c-.47,0-.85-.38-.85-.85s.38-.85.85-.85c.35,0,.69.23.8.56h178.01l8.87,8.87c.32-.16.64-.11.96.16.33.4.34.79,0,1.2-.4.34-.8.33-1.2,0-.27-.32-.32-.64-.16-.96l-8.7-8.7h-177.78c-.11.33-.45.56-.8.56Zm-13-15.06c-.47,0-.85-.38-.85-.85s.38-.85.85-.85c.35,0,.69.23.8.56h197.14l13.33,13.33c.32-.16.64-.11.96.16.34.4.33.8,0,1.2-.4.33-.79.34-1.2,0-.27-.32-.32-.64-.16-.96l-13.17-13.17h-196.91c-.11.33-.45.56-.8.56Zm39.35,21.14c-.34-.4-.33-.79,0-1.2.4-.33.79-.34,1.2,0,.23.28.34.61.16.95l11.84,11.85h140.6l33.53,33.88h106.54v.57h-106.78l-33.53-33.88h-140.6l-12.01-12.01c-.35.18-.66.08-.96-.16Zm10.26-.28c-.33-.4-.34-.79,0-1.2.4-.33.79-.34,1.2,0,.24.29.34.6.16.95l4.59,4.6h140.71l33.88,33.88h103.08v.57h-103.31l-33.88-33.88h-140.71l-4.76-4.76c-.35.18-.66.08-.96-.16Zm-21.17-.77c-.33-.33-.3-.87.02-1.2.33-.33.87-.31,1.2.02.26.28.3.62.15.96l19.63,20.39h140.6l33.54,33.88h109.66v.57h-109.9l-33.54-33.88h-140.6l-19.79-20.56c-.32.15-.71.07-.96-.19Zm-10.25,1.18c-.34-.4-.33-.79,0-1.2.4-.33.79-.34,1.2,0,.23.28.34.61.16.95l26.76,26.77h141.15l33.01,33.18h112.76v.57h-112.99l-33.01-33.18h-141.14l-26.93-26.93c-.35.18-.66.08-.96-.16ZM484.07-3.78c-.47,0-.85-.38-.85-.85s.38-.85.85-.85c.35,0,.69.23.8.56h121.66v.57h-121.66c-.11.33-.45.56-.8.56Zm6.68,7.53c-.47,0-.85-.38-.85-.85s.38-.85.85-.85c.35,0,.69.23.8.56h114.98v.57h-114.98c-.11.33-.45.56-.8.56ZM131.12,81.85c.47,0,.85.38.85.85s-.38.85-.85.85c-.35,0-.69-.23-.8-.56H-6.81v-.57h137.13c.11-.33.45-.56.8-.56Zm-66.14-19.35c.46,0,.85.38.85.85s-.38.85-.85.85c-.37,0-.67-.23-.8-.56H-6.81v-.57h70.99c.11-.33.45-.56.8-.56Zm43.66,41.88c.46,0,.85.38.85.84s-.38.85-.84.85c-.35,0-.68-.23-.8-.56l-114.65.05v-.56l114.65-.05c.11-.33.45-.56.8-.56ZM-6.81,150.73h123.21l22.63-22.59h115.91s51.49,51.49,51.49,51.49c-.16.32-.11.64.16.96.4.33.79.33,1.2,0,.33-.4.33-.79,0-1.2-.32-.27-.64-.32-.96-.16l-51.66-51.66h-116.38s-22.63,22.58-22.63,22.58H-6.81v.57Zm0,21.97l133.2-.38,22.21-21.6h97.42l28.65,28.64c-.16.32-.11.64.16.96.4.33.79.34,1.2,0,.33-.4.34-.79,0-1.2-.32-.27-.64-.32-.96-.16l-28.81-28.81h-97.88l-22.21,21.6-132.97.38v.56Zm0,58.58h57.31s51.49,51.49,51.49,51.49c-.16.32-.11.64.16.96.4.33.79.33,1.2,0,.33-.4.33-.79,0-1.2-.32-.27-.64-.32-.96-.16l-51.66-51.66H-6.81s0,.56,0,.56Zm0,7.53h54.19l49.29,49.29c-.16.32-.11.64.16.96.4.33.79.33,1.2,0,.33-.4.33-.79,0-1.2-.32-.27-.64-.32-.96-.16l-49.46-49.46H-6.81v.57Zm0,7.53h51.07l46.94,46.94c-.16.32-.11.64.16.96.4.33.79.33,1.2,0,.33-.4.33-.79,0-1.2-.32-.27-.64-.32-.96-.16l-47.1-47.1H-6.81v.57Zm0,7.53h48.06l44.83,44.83c-.16.32-.11.64.16.96.4.33.79.33,1.2,0,.33-.4.33-.79,0-1.2-.32-.27-.64-.32-.96-.16l-44.99-44.99H-6.81v.57Zm263.25-1.13c.47,0,.85.38.85.85s-.38.85-.85.85c-.35,0-.69-.23-.8-.56H116.21l-68.18-67.54H-6.81v-.57h55.07l68.18,67.54h139.2c.11-.33.45-.56.8-.56Zm8.57,7.53c.47,0,.85.38.85.85s-.38.85-.85.85c-.34,0-.7-.23-.8-.56l-151.09.03-68.42-67.78H-6.81v-.57h51.74l68.42,67.78,150.86-.03c.13-.34.43-.56.8-.56Zm4.41,7.76c.47,0,.85.38.85.85s-.38.85-.85.85c-.35,0-.69-.23-.8-.56H110.21l-68.63-67.98H-6.81v-.57h48.62l68.63,67.98h158.19c.11-.33.45-.56.8-.56Zm7.79,7.29c.47,0,.85.38.85.85s-.38.85-.85.85c-.35,0-.69-.23-.8-.56H106.97l-68.39-67.75H-6.81v-.57h45.61l68.39,67.75h169.22c.11-.33.45-.56.8-.56Zm329.31-89.56h-56.25l-33.67,33.67h-197.24l-21.46,21.46v4.36c-.33.12-.56.43-.56.8,0,.47.38.85.85.85s.85-.38.85-.85c0-.37-.24-.68-.56-.8v-4.13l21.13-21.13h197.24l33.67-33.67h56.02v-.57Zm-.02,7.32h-52.9l-33.87,33.87h-197.24l-17.06,17.06v5.01c-.33.12-.56.43-.56.8,0,.47.38.85.85.85s.85-.38.85-.85c0-.37-.24-.68-.56-.8v-4.78l16.72-16.72h197.24l33.87-33.87h52.67v-.57Zm.02,7.53h-49.8l-33.87,33.87h-197.24l-12.65,12.65v1.89c-.33.12-.56.43-.56.8,0,.47.38.85.85.85s.85-.38.85-.85c0-.37-.24-.68-.56-.8v-1.66l12.32-12.32h197.24l33.87-33.87h49.57v-.57Zm0,7.53h-46.79l-33.87,33.87h-197.23l-7.49,7.48c-.32-.16-.64-.11-.96.16-.33.4-.33.79,0,1.2.4.33.79.33,1.2,0,.27-.32.32-.64.16-.96l7.32-7.32h197.23l33.87-33.87h46.56v-.57Zm-66.51-23.1c.46,0,.85.38.85.85s-.38.85-.85.85c-.37,0-.67-.23-.8-.56l-226.33-.05-12.3,12.31c.16.32.11.64-.16.96-.4.33-.79.33-1.2,0-.34-.4-.33-.8,0-1.2.32-.27.64-.32.96-.16l12.47-12.47,226.56.05c.14-.34.42-.56.8-.56Zm-15,15c.47,0,.85.38.85.85s-.38.85-.85.85c-.35,0-.69-.23-.8-.56h-205.08l-7.81,7.81c.16.32.11.64-.16.96-.4.34-.8.33-1.2,0-.33-.4-.34-.79,0-1.2.32-.27.64-.32.96-.16l7.98-7.98h205.31c.11-.33.45-.56.8-.56Zm-7.48,7.48c.47,0,.85.38.85.85s-.38.85-.85.85c-.36,0-.67-.23-.8-.56l-194.6.05-5.75,5.75c.16.32.11.64-.16.96-.4.34-.79.33-1.2,0-.34-.4-.33-.79,0-1.2.32-.27.64-.32.96-.16l5.91-5.91,194.83-.05c.11-.33.45-.56.8-.56Zm15-15.01c.47,0,.85.38.85.85s-.38.85-.85.85c-.35,0-.69-.23-.8-.56h-215.73l-9.67,9.66c.16.32.11.64-.16.96-.4.34-.8.33-1.2,0-.34-.4-.33-.79,0-1.2.32-.27.64-.32.96-.16l9.83-9.83h215.96c.11-.33.45-.56.8-.56Zm-470.39-5.83c-.47,0-.85-.38-.85-.85s.38-.85.85-.85c.35,0,.69.23.8.56h206.98l15.67,15.68c.31-.14.74-.06.97.17.35.29.3.9,0,1.2-.29.35-.9.29-1.2,0-.27-.22-.3-.64-.16-.96l-15.52-15.52H62.94c-.11.33-.45.56-.8.56Zm13.04,15.06c-.47,0-.85-.38-.85-.85s.38-.85.85-.85c.35,0,.69.23.8.56h187.7l11.13,11.13c.32-.16.64-.11.96.16.33.4.33.79,0,1.2-.4.33-.79.33-1.2,0-.27-.32-.32-.64-.16-.96l-10.96-10.96H75.98c-.11.33-.45.56-.8.56Zm6.68,7.53c-.47,0-.85-.38-.85-.85s.38-.85.85-.85c.35,0,.69.23.8.56h178.01l8.87,8.87c.32-.16.64-.11.96.16.33.4.34.79,0,1.2-.4.33-.79.33-1.2,0-.27-.32-.32-.64-.16-.96l-8.7-8.7H82.66c-.11.33-.45.56-.8.56Zm-13-15.06c-.47,0-.85-.38-.85-.85s.38-.85.85-.85c.35,0,.69.23.8.56h197.14l13.33,13.33c.32-.16.64-.11.96.16.34.4.33.8,0,1.2-.4.33-.79.34-1.2,0-.27-.32-.32-.64-.16-.96l-13.17-13.17H69.66c-.11.33-.45.56-.8.56Zm39.35,21.14c-.33-.4-.33-.79,0-1.2.4-.33.79-.33,1.2,0,.25.3.33.59.16.95l11.84,11.84h140.6l33.53,33.88h232.97l22.31-22.59h55.71v.57h-55.48l-22.31,22.59h-233.44l-33.53-33.88H121.17l-12.01-12.01c-.35.18-.66.08-.96-.16Zm10.26-.28c-.33-.4-.34-.79,0-1.2.4-.33.79-.34,1.2,0,.24.29.34.6.16.95l4.59,4.6h140.71l33.88,33.88h226.11l22.59-22.58h58.83v.57h-58.6l-22.59,22.58h-226.57l-33.88-33.88H124.18l-4.76-4.76c-.35.18-.66.08-.96-.16Zm-21.17-.77c-.33-.33-.3-.87.02-1.2s.87-.31,1.2.02c.26.28.3.62.15.96l19.63,20.39h140.6l33.54,33.88h238.72s22.79-22.58,22.79-22.58h52.59v.57h-52.36l-22.79,22.58h-239.19s-33.53-33.88-33.53-33.88H118.05l-19.79-20.56c-.34.14-.7.07-.96-.19Zm-10.25,1.18c-.34-.4-.33-.79,0-1.2.4-.33.79-.34,1.2,0,.23.28.34.61.16.95l26.76,26.77h141.15l33.77,33.88h244.97l21.89-22.59h49.59v.57h-49.35l-21.89,22.59h-245.44l-33.77-33.88H114.93l-26.93-26.93c-.35.18-.66.08-.96-.16Zm-35.05,139.63c.47,0,.85.38.85.85s-.38.85-.85.85c-.35,0-.69-.23-.8-.56H-6.81v-.57h58.01c.11-.33.45-.56.8-.56Zm8.57,7.53c.47,0,.85.38.85.85s-.38.85-.85.85c-.37,0-.66-.22-.8-.56H-6.81s0-.55,0-.55H59.77c.13-.35.43-.58.8-.58Zm545.96-6.97h-81.19l-68.18-67.54h-111.32l-33.67,33.67H114.93l-21.46,21.46v4.36c-.33.12-.56.43-.56.8,0,.47.38.85.85.85s.85-.38.85-.85c0-.37-.24-.68-.56-.8v-4.13l21.13-21.13h197.24l33.67-33.67h110.86l68.18,67.54h81.42v-.57Zm0,7.56h-84.28l-68.42-67.78h-104.66l-33.87,33.88H118.05l-17.06,17.06v5.01c-.33.12-.56.43-.56.8,0,.47.38.85.85.85s.85-.38.85-.85c0-.37-.24-.68-.56-.8v-4.78l16.72-16.72h197.24l33.87-33.88h104.2l68.42,67.78h84.51v-.57Zm-270.96-75.66c.47,0,.85.38.85.85s-.38.85-.85.85c-.35,0-.69-.23-.8-.56H108.23l-12.1,12.1c.16.32.11.64-.16.96-.4.34-.8.33-1.2,0-.33-.4-.34-.79,0-1.2.32-.27.64-.32.96-.16l12.26-12.26h226.77c.11-.33.45-.56.8-.56Zm-15,14.85c.47,0,.85.38.85.85s-.38.85-.85.85c-.35,0-.69-.23-.8-.56H114.68l-7.81,7.81c.16.32.11.64-.16.96-.4.34-.8.33-1.2,0-.33-.4-.34-.79,0-1.2.32-.27.64-.32.96-.16l7.98-7.98h205.31c.11-.33.45-.56.8-.56Zm-7.48,7.48c.47,0,.85.38.85.85s-.38.85-.85.85c-.36,0-.67-.23-.8-.56l-194.6.05-5.75,5.75c.16.32.11.64-.16.96-.4.33-.79.33-1.2,0-.34-.4-.33-.8,0-1.2.32-.27.64-.32.96-.16l5.91-5.91,194.83-.05c.11-.33.45-.56.8-.56Zm15-15.01c.47,0,.85.38.85.85s-.38.85-.85.85c-.35,0-.69-.23-.8-.56H111.56l-9.67,9.67c.16.32.11.64-.16.96-.4.34-.79.33-1.2,0-.34-.4-.33-.8,0-1.2.32-.27.64-.32.96-.16l9.83-9.83h215.96c.11-.33.45-.56.8-.56ZM-6.81,303.55H59l10.96,10.96c-.16.32-.11.64.16.96.4.34.79.33,1.2,0,.33-.4.33-.79,0-1.2-.32-.27-.64-.32-.96-.16l-11.13-11.13H-6.81v.57Zm0,7.53h62.8l8.7,8.7c-.16.32-.11.64.16.96.4.33.79.33,1.2,0,.34-.4.33-.8,0-1.2-.32-.27-.64-.32-.96-.16l-8.87-8.87H-6.81v.57Zm0-15.06H62.12l13.17,13.17c-.16.32-.11.64.16.96.4.34.79.33,1.2,0,.33-.4.34-.79,0-1.2-.32-.27-.64-.32-.96-.16l-13.33-13.33H-6.81v.57Zm523.91,21.71c-.34-.4-.33-.79,0-1.2.4-.33.79-.34,1.2,0,.23.28.34.61.16.95l11.84,11.85h76.23v.57h-76.46l-12.01-12.01c-.35.18-.66.08-.96-.16Zm10.26-.28c-.33-.33-.33-.87,0-1.2.33-.33.86-.33,1.2,0,.25.25.32.65.17.96l4.59,4.59h73.22v.57h-73.46l-4.75-4.75c-.31.16-.71.08-.96-.16Zm-21.17-.77c-.33-.33-.3-.87.02-1.2.33-.33.87-.31,1.2.02.26.28.3.62.15.96l19.63,20.39h79.35v.57h-79.59l-19.8-20.56c-.32.15-.71.07-.96-.19Zm-10.25,1.18c-.34-.4-.33-.79,0-1.2.4-.33.79-.34,1.2,0,.23.28.34.61.16.95l26.76,26.77h82.47v.57h-82.7l-26.93-26.93c-.35.18-.66.08-.96-.16Zm-24.9-28.81c-.47,0-.85-.38-.85-.85s.38-.85.85-.85c.35,0,.69.23.8.56h134.69v.57h-134.69c-.11.33-.45.56-.8.56Zm13.04,15.06c-.47,0-.85-.38-.85-.85s.38-.85.85-.85c.35,0,.69.23.8.56h121.66v.57h-121.66c-.11.33-.45.56-.8.56Zm6.68,7.53c-.47,0-.85-.38-.85-.85s.38-.85.85-.85c.35,0,.69.23.8.56h114.98v.57h-114.98c-.11.33-.45.56-.8.56Zm-13-15.06c-.47,0-.85-.38-.85-.85s.38-.85.85-.85c.35,0,.69.23.8.56h127.98v.57h-127.98c-.11.33-.45.56-.8.56ZM-6.81,288.49h72.05l15.52,15.52c-.14.31-.11.73.16.96.3.3.91.35,1.2,0,.3-.3.35-.91,0-1.2-.23-.23-.66-.31-.97-.17l-15.67-15.68H-6.81v.57Zm80.83,78.17h-.8l-21.6-21.71H-6.81v-.57h58.67l22.16,22.28Zm9.92,0h-.79l-28.95-29.24H-6.81v-.57h61.25l29.51,29.81Zm377.42,0h-.8l-10.42-10.42h-97.42l-10.42,10.42h-.8l10.99-10.99h97.88l10.99,10.99Zm10.54,0h-.8l-17.95-17.95h-103.43l-18.12,17.95h-.8l18.69-18.52h103.9l18.52,18.52Zm10.65,0h-.8l-25.48-25.48h-109.67l-22.31,22.59H90.86l-33.53-33.88H-6.81v-.57H57.56l33.53,33.88h232.97l22.31-22.59h110.14l26.04,26.05Zm10.65,0h-.8l-33.01-33.01h-115.92s-22.59,22.58-22.59,22.58H94.32l-33.88-33.88H-6.81v-.57H60.68l33.88,33.88h226.11l22.58-22.58h116.38s33.57,33.57,33.57,33.57Zm11.18,0h-.8l-56.11-55.59h-91.94l-33.87,33.87H124.41l-7.32,7.32c.16.32.11.64-.16.96-.4.33-.79.33-1.2,0-.33-.4-.33-.79,0-1.2.32-.27.64-.32.96-.16l7.49-7.48h197.24l33.87-33.87h92.41l56.68,56.15Zm10.61,0h-.8l-63.71-63.12h-97.96l-33.87,33.87H121.4l-12.32,12.32v1.66c.33.12.56.43.56.8,0,.47-.38.85-.85.85s-.85-.38-.85-.85c0-.37.24-.68.56-.8v-1.89l12.65-12.65h197.24l33.87-33.87h98.42l64.28,63.68ZM469.56-6.67h.8l54.97,54.45h81.19v.57h-81.42l-55.54-55.02Zm-10.72,0h.8l62.6,62.01h84.28v.57h-84.51l-63.17-62.58Zm-115.45,0h.8l-28.67,28.67H118.28l-16.72,16.72v4.78c.33.12.56.43.56.8,0,.47-.38.85-.85.85s-.85-.38-.85-.85c0-.37.24-.68.56-.8v-5.01l17.06-17.06h197.24l28.11-28.11Zm-10.65,0h.8l-21.14,21.14H115.16l-21.13,21.13v4.13c.33.12.56.43.56.8,0,.47-.38.85-.85.85s-.85-.38-.85-.85c0-.37.24-.68.56-.8v-4.36l21.46-21.46h197.24l20.58-20.58Zm-227.18,0h.8l-4.46,4.46c.16.32.11.64-.16.96-.4.34-.8.33-1.2,0-.34-.4-.33-.79,0-1.2.32-.27.64-.32.96-.16l4.06-4.06Zm-11.03,0h1.69c-.02.18-.1.35-.25.53-.4.34-.8.33-1.2,0-.15-.18-.23-.35-.25-.53Zm-16.57,0h.8l2.38,2.38c.31-.14.74-.06.97.17.35.29.3.9,0,1.2-.29.35-.9.3-1.2,0-.27-.22-.3-.64-.16-.96l-2.79-2.79Zm-10.64,0h.8l7.56,7.56c.32-.16.64-.11.96.16.34.4.33.8,0,1.2-.4.33-.79.34-1.2,0-.27-.32-.32-.64-.16-.96l-7.96-7.96Z"></path>
        <g class="cls-6">
          <rect class="cls-3" x="-6.52" y="346.67" width="613.33" height="20"></rect>
        </g>
        <path class="cls-2" d="m64.22,160.51l-5.05-13.59c-.11-.3-.22-.46-.32-.46s-.22.15-.35.46l-5.05,13.59h10.77Zm30.07,15.15c-4.39,0-8.86-.43-13.4-1.29v-6.29c5.03.84,9.51,1.26,13.43,1.26,5.51,0,8.27-1.51,8.27-4.54,0-.91-.61-1.72-1.83-2.42-1.22-.7-3.8-1.6-7.75-2.7-3.95-1.1-7.01-2.48-9.19-4.15-2.18-1.67-3.26-3.99-3.26-6.98,0-3.15,1.28-5.7,3.85-7.65,2.57-1.95,6.3-2.93,11.19-2.93,3.49,0,7.52.43,12.09,1.29v6.26c-5.03-.82-9.07-1.24-12.11-1.24s-4.92.39-6.04,1.16c-1.13.77-1.69,1.8-1.69,3.09,0,.95.57,1.81,1.72,2.58,1.15.77,3.73,1.71,7.75,2.82,4.02,1.11,7.12,2.45,9.29,4.03,2.17,1.58,3.26,3.86,3.26,6.85,0,3.15-1.33,5.75-3.99,7.79-2.66,2.04-6.52,3.06-11.59,3.06Zm45.57-.24h-17.19c-2.6,0-4.69-.68-6.27-2.04-1.59-1.36-2.38-3.35-2.38-5.96v-29.2h25.84v6.34h-18.56v9.08h17.75v6.34h-17.75v7.44c0,1.11.8,1.67,2.42,1.67h16.14v6.34Zm-62.07,0h-7.84l-3.44-8.86h-15.34l-3.47,8.86h-7.84l14.07-34.43c.84-2.01,2.53-3.01,5.05-3.01,2.31,0,3.92,1.07,4.83,3.2l13.97,34.25Z"></path>
        <path class="cls-4" d="m59.27,85.8c.17.06.33.12.49.18l-.49-.19h0Zm6.95,2.6c-.36-.13-.75-.28-1.16-.44l1.16.44Z"></path>
        <path class="cls-2" d="m98.59,65.46c0,1.83-1.48,3.31-3.31,3.31s-3.31-1.48-3.31-3.31,1.48-3.31,3.31-3.31,3.31,1.48,3.31,3.31m38.1,14.33c-6.83,2.61-13.55,5.16-20.38,7.77,4.13,5.87,8.2,11.67,12.37,17.61.5.72-.11,1.68-.97,1.53-7.14-1.27-14.13-2.52-21.24-3.79,1.16,6.15,2.3,12.19,3.47,18.37.16.85-.78,1.47-1.5,1-6.22-4.06-12.3-8.04-18.5-12.08-2.25,4.94-4.48,9.83-6.78,14.87-.37.82-1.55.74-1.83-.11-1.78-5.57-3.51-10.98-5.26-16.45-4.52,2.8-8.97,5.56-13.58,8.43-.74.46-1.67-.21-1.47-1.06,1.32-5.62,2.6-11.09,3.91-16.67-5.39.64-10.71,1.28-16.2,1.93-.88.1-1.43-.92-.87-1.6,3.82-4.63,7.53-9.12,11.31-13.71l.05-.07,9.97,3.74c.31.33,7.4,7.76,17.02,7.76.34,0,.7,0,1.04-.03.9-.05,1.78-.17,2.66-.35v-4.97c3.83-1.11,7.46-3.94,10.83-8.44l3.88,2.89c-4.39,5.87-9.34,9.4-14.7,10.52v9.26s.06,0,.09,0c.41-.03.83-.07,1.25-.11.22-.03.44-.05.66-.08.22-.03.44-.06.65-.1.44-.07.88-.15,1.32-.24.42-.09.83-.19,1.24-.3.5-.13.99-.27,1.48-.43.33-.1.65-.21.97-.33.61-.22,1.22-.46,1.81-.73.2-.08.39-.17.58-.26.45-.21.89-.43,1.32-.66.13-.07.26-.14.38-.21.39-.22.78-.45,1.17-.69.16-.1.31-.2.47-.3,1.19-.77,2.32-1.63,3.38-2.57.11-.1.23-.21.35-.31.5-.46.97-.93,1.44-1.42.13-.14.26-.27.39-.41.72-.8,1.4-1.63,2.02-2.51.11-.16.22-.31.33-.47.09-.12.17-.24.25-.36.08-.12.17-.25.25-.38.58-.9,1.1-1.83,1.57-2.79.09-.19.19-.38.28-.58.1-.21.19-.42.28-.63.07-.17.14-.33.21-.49.05-.12.1-.24.15-.37.07-.17.13-.34.2-.52.07-.2.15-.4.21-.6.08-.23.16-.47.23-.7.05-.17.11-.34.16-.51.06-.19.11-.39.17-.58.07-.27.14-.53.21-.8.04-.16.07-.32.11-.48.05-.21.09-.42.13-.63.13-.63.23-1.28.31-1.93.03-.2.05-.41.07-.61.03-.23.05-.46.06-.7.02-.22.04-.44.05-.66,0-.18.02-.36.03-.53,0,0,.47-22.31-26.01-31.48-.05-.02-.11-.04-.17-.06l.17-.1,2.36-1.39,2.45-1.44c5-2.92,9.96-5.81,15.06-8.78.7-.4,1.56.15,1.47.95-.65,6.1-1.3,12.07-1.95,18.2,6.5-.74,12.95-1.47,19.55-2.22.85-.1,1.41.87.9,1.56-3.93,5.36-7.76,10.59-11.65,15.89,6.14,2.56,12.22,5.09,18.41,7.67.82.34.8,1.5-.03,1.82Z"></path>
        <path class="cls-7" d="m98.59,65.46c0,1.83-1.48,3.31-3.31,3.31s-3.31-1.48-3.31-3.31,1.48-3.31,3.31-3.31,3.31,1.48,3.31,3.31m17.53,13.7s.47-22.41-26.18-31.53l-8.73,31.53h34.91Z"></path>
        <path class="cls-4" d="m81.75,65.46c0,1.83-1.48,3.31-3.31,3.31s-3.31-1.48-3.31-3.31,1.48-3.31,3.31-3.31,3.31,1.48,3.31,3.31m8.15,13.7v12.74c-.95.27-1.92.44-2.89.5-.27.02-.53.02-.79.02-7.51,0-13.45-6.17-13.51-6.23l-3.52,3.31c.31.33,7.4,7.76,17.02,7.76.34,0,.69-.01,1.04-.03.9-.05,1.78-.17,2.66-.35v-4.98c3.83-1.11,7.46-3.94,10.83-8.44l3.88,2.89c-4.39,5.87-9.34,9.4-14.7,10.52v9.26c14.3-.95,25.68-12.57,26.22-26.98h-26.22Z"></path>
        <path class="cls-5" d="m81.75,65.46c0,1.83-1.48,3.31-3.31,3.31s-3.31-1.48-3.31-3.31,1.48-3.31,3.31-3.31,3.31,1.48,3.31,3.31m4.12,26.96c.11,0,.23,0,.34,0,.26,0,.53,0,.79-.02.98-.06,1.94-.22,2.89-.5v-12.74h-8.69l8.73-31.53,4.97-2.93c-2.82-4.43-5.58-8.79-8.4-13.24-.39-.62-1.3-.6-1.67.03-2.83,4.78-5.59,9.45-8.37,14.15-4.75-1.77-9.43-3.52-14.2-5.3-.73-.27-1.47.38-1.3,1.14,1.13,4.99,2.23,9.86,3.34,14.81-5.41.1-10.67.2-16.03.31-.81.02-1.25.95-.76,1.58,3.31,4.26,6.56,8.43,9.84,12.65-4.85,2.38-9.59,4.7-14.42,7.06-.77.38-.72,1.49.08,1.8,5.44,2.07,26.16,9.81,26.16,9.81l3.52-3.31c.06.06,5.82,6.04,13.17,6.23Z"></path>
      </g>
      <g>
        <path class="cls-11" d="m365.38,53.58h3.88l5.56,12.11,5.59-12.11h3.85v18.08h-3.75v-10.27l-4.79,10.27h-1.81l-4.76-10.27v10.27h-3.78v-18.08Z"></path>
        <path class="cls-11" d="m387.89,70.9c-.96-.77-1.44-1.81-1.44-3.14s.46-2.45,1.37-3.22c.91-.77,2.21-1.15,3.88-1.15.74,0,1.45.08,2.12.23.67.16,1.27.37,1.79.65v-.31c0-.78-.28-1.35-.83-1.71-.55-.36-1.4-.54-2.54-.54-1.52,0-2.92.28-4.19.85v-2.85c.55-.24,1.27-.44,2.15-.61.88-.16,1.76-.25,2.64-.25,2.24,0,3.92.46,5.02,1.38,1.1.92,1.66,2.21,1.66,3.87v7.55h-3.67v-1.14c-1.05,1.02-2.47,1.53-4.24,1.53-1.52,0-2.75-.38-3.71-1.15Zm6.51-1.8c.52-.24.92-.58,1.22-1.01v-1.24c-.88-.59-1.85-.88-2.9-.88-.72,0-1.28.15-1.67.45s-.58.75-.58,1.33c0,.55.19.97.57,1.27.38.29.92.44,1.63.44.64,0,1.22-.12,1.73-.36Z"></path>
        <path class="cls-11" d="m404.01,70.85c-.75-.8-1.13-1.92-1.13-3.35v-5.43h-1.81v-2.82h1.81v-3.73h3.91v3.73h2.92v2.82h-2.92v4.92c0,.72.14,1.25.41,1.57.28.32.77.48,1.47.48.57,0,1.11-.14,1.63-.41v2.92c-.79.34-1.79.52-3,.52-1.45,0-2.55-.4-3.3-1.2Z"></path>
        <path class="cls-11" d="m414.02,70.85c-.75-.8-1.13-1.92-1.13-3.35v-5.43h-1.81v-2.82h1.81v-3.73h3.91v3.73h2.92v2.82h-2.92v4.92c0,.72.14,1.25.41,1.57.28.32.77.48,1.47.48.57,0,1.11-.14,1.63-.41v2.92c-.79.34-1.79.52-3,.52-1.45,0-2.55-.4-3.3-1.2Z"></path>
        <path class="cls-11" d="m422.13,52.55h3.91v8.12c.59-.6,1.25-1.06,1.99-1.36.74-.3,1.53-.45,2.38-.45,1.69,0,2.95.45,3.79,1.36.84.91,1.25,2.13,1.25,3.66v7.79h-3.91v-7.35c0-1.6-.74-2.41-2.22-2.41-.66,0-1.27.16-1.84.48-.57.32-1.05.79-1.45,1.41v7.86h-3.91v-19.12Z"></path>
        <path class="cls-11" d="m439.57,70.33c-1.36-1.15-2.04-2.75-2.04-4.82s.61-3.67,1.82-4.86c1.22-1.19,2.95-1.78,5.21-1.78,1.48,0,2.74.28,3.78.83,1.04.55,1.82,1.32,2.35,2.29.53.97.8,2.07.8,3.3v1.58h-10.25c.28,1.59,1.76,2.38,4.45,2.38.79,0,1.61-.07,2.46-.21.84-.14,1.58-.33,2.2-.57v2.74c-.6.26-1.38.47-2.33.62s-1.9.23-2.85.23c-2.38,0-4.25-.57-5.61-1.72Zm8.23-6.01c-.05-.83-.36-1.47-.93-1.93s-1.35-.69-2.35-.69-1.76.23-2.33.7c-.57.47-.88,1.1-.93,1.91h6.55Z"></path>
        <path class="cls-11" d="m453.15,59.25h3.91l2.28,7.76,2.22-7.76h3.26l2.25,7.76,2.25-7.76h3.91l-4.11,12.42h-3.54l-2.38-7.71-2.38,7.71h-3.54l-4.11-12.42Z"></path>
        <path class="cls-11" d="m483.96,53.58h4.14l3.23,11.69,3.18-11.69h3.03l3.08,11.69,3.23-11.69h4.11l-5.07,18.08h-3.7l-3.23-11.46-3.21,11.46h-3.73l-5.07-18.08Z"></path>
        <path class="cls-11" d="m511.09,70.9c-.96-.77-1.44-1.81-1.44-3.14s.46-2.45,1.37-3.22c.91-.77,2.21-1.15,3.88-1.15.74,0,1.45.08,2.12.23.67.16,1.27.37,1.79.65v-.31c0-.78-.28-1.35-.83-1.71-.55-.36-1.4-.54-2.54-.54-1.52,0-2.92.28-4.19.85v-2.85c.55-.24,1.27-.44,2.15-.61.88-.16,1.76-.25,2.64-.25,2.24,0,3.92.46,5.02,1.38,1.1.92,1.66,2.21,1.66,3.87v7.55h-3.67v-1.14c-1.05,1.02-2.47,1.53-4.24,1.53-1.52,0-2.75-.38-3.71-1.15Zm6.51-1.8c.52-.24.92-.58,1.22-1.01v-1.24c-.88-.59-1.85-.88-2.9-.88-.72,0-1.28.15-1.67.45s-.58.75-.58,1.33c0,.55.19.97.57,1.27.38.29.92.44,1.63.44.64,0,1.22-.12,1.73-.36Z"></path>
        <path class="cls-11" d="m525.3,59.25h3.78v1.53c.57-.64,1.25-1.12,2.03-1.44.78-.32,1.61-.48,2.47-.48,1.69,0,2.95.45,3.79,1.36.84.91,1.25,2.13,1.25,3.66v7.79h-3.91v-7.35c0-1.6-.74-2.41-2.22-2.41-.66,0-1.27.16-1.84.48-.57.32-1.05.79-1.45,1.41v7.86h-3.91v-12.42Z"></path>
        <path class="cls-11" d="m545.39,77.38c-.84-.16-1.54-.36-2.11-.62v-2.87c1.33.59,2.86.88,4.6.88,1.4,0,2.4-.28,3-.85.6-.57.91-1.42.91-2.56v-.78c-.53.48-1.19.85-1.97,1.1-.78.25-1.6.38-2.48.38-1.28,0-2.42-.28-3.43-.84-1.01-.56-1.8-1.34-2.37-2.34-.57-1-.85-2.14-.85-3.42s.28-2.47.84-3.47c.56-1,1.34-1.77,2.33-2.32.99-.54,2.12-.81,3.4-.81.96,0,1.82.14,2.56.41.74.28,1.44.72,2.1,1.32v-1.35h3.78v11.62c0,2.16-.64,3.82-1.92,4.99s-3.24,1.76-5.9,1.76c-.83,0-1.66-.08-2.5-.23Zm5.07-9.02c.65-.44,1.09-1.02,1.33-1.75v-2.33c-.28-.72-.73-1.3-1.36-1.73-.63-.43-1.35-.65-2.16-.65-1.05,0-1.91.32-2.57.96-.66.64-1,1.49-1,2.56s.33,1.96,1,2.61c.66.66,1.52.98,2.57.98.81,0,1.54-.22,2.19-.66Z"></path>
      </g>
      <g>
        <path class="cls-11" d="m476.25,91.36h8.67v1.62h-6.75v4.16h5.04v1.6h-5.04v4.18h6.75v1.6h-8.67v-13.15Z"></path>
        <path class="cls-11" d="m486.9,95.48h1.84v1.3c.43-.54.95-.94,1.57-1.19.62-.26,1.27-.39,1.95-.39,1.2,0,2.1.32,2.69.96.59.64.88,1.5.88,2.58v5.78h-1.9v-5.59c0-1.47-.7-2.2-2.11-2.2-.6,0-1.16.14-1.68.42s-.97.71-1.35,1.29v6.08h-1.9v-9.03Z"></path>
        <path class="cls-11" d="m501.11,108.69c-.58-.1-1.08-.24-1.48-.43v-1.56c.94.43,2.03.64,3.27.64,1.17,0,2.02-.25,2.55-.76.53-.51.8-1.28.8-2.3v-.96c-.83.99-2.04,1.49-3.65,1.49-.92,0-1.74-.2-2.46-.6s-1.3-.97-1.71-1.69-.62-1.56-.62-2.5.2-1.79.61-2.51c.41-.72.97-1.28,1.69-1.68.72-.4,1.53-.6,2.44-.6.84,0,1.55.12,2.14.37s1.13.65,1.63,1.21v-1.3h1.84v8.58c0,1.54-.43,2.73-1.29,3.55-.86.82-2.18,1.23-3.96,1.23-.61,0-1.21-.05-1.8-.15Zm3.93-6.02c.6-.41,1-.97,1.21-1.66v-2.03c-.24-.7-.65-1.25-1.23-1.66-.58-.4-1.26-.6-2.04-.6-.61,0-1.17.14-1.67.4-.5.27-.88.66-1.17,1.16s-.42,1.07-.42,1.71.14,1.23.42,1.72.67.88,1.17,1.16,1.05.41,1.67.41c.78,0,1.46-.21,2.06-.62Z"></path>
        <path class="cls-11" d="m510.92,93.39c-.21-.21-.32-.48-.32-.79s.11-.58.32-.79.48-.32.79-.32.6.11.82.32c.22.21.33.48.33.79s-.11.58-.33.79c-.22.21-.49.32-.82.32s-.58-.11-.79-.32Zm-.17,2.09h1.94v9.03h-1.94v-9.03Z"></path>
        <path class="cls-11" d="m515.31,95.48h1.84v1.3c.43-.54.95-.94,1.57-1.19.62-.26,1.27-.39,1.95-.39,1.2,0,2.1.32,2.69.96.59.64.88,1.5.88,2.58v5.78h-1.9v-5.59c0-1.47-.7-2.2-2.11-2.2-.6,0-1.16.14-1.68.42s-.97.71-1.35,1.29v6.08h-1.9v-9.03Z"></path>
        <path class="cls-11" d="m527.64,103.54c-.95-.83-1.42-2.01-1.42-3.53s.42-2.65,1.27-3.52c.85-.87,2.05-1.3,3.62-1.3,1.04,0,1.93.2,2.65.59s1.28.94,1.65,1.64c.37.7.55,1.49.55,2.38v.94h-7.94c.06.85.42,1.49,1.08,1.91.66.42,1.55.63,2.68.63.58,0,1.16-.05,1.75-.16.59-.11,1.11-.25,1.56-.42v1.52c-.4.16-.93.3-1.59.4-.66.11-1.31.16-1.95.16-1.67,0-2.98-.42-3.92-1.25Zm6.54-4.13c-.03-.85-.3-1.51-.84-1.99-.53-.47-1.29-.71-2.27-.71s-1.69.24-2.22.73c-.53.49-.8,1.14-.83,1.96h6.15Z"></path>
        <path class="cls-11" d="m539.08,103.54c-.95-.83-1.42-2.01-1.42-3.53s.42-2.65,1.27-3.52c.85-.87,2.05-1.3,3.62-1.3,1.04,0,1.93.2,2.65.59s1.28.94,1.65,1.64c.37.7.55,1.49.55,2.38v.94h-7.94c.06.85.42,1.49,1.08,1.91.66.42,1.55.63,2.68.63.58,0,1.16-.05,1.75-.16.59-.11,1.11-.25,1.56-.42v1.52c-.4.16-.93.3-1.59.4-.66.11-1.31.16-1.95.16-1.67,0-2.98-.42-3.92-1.25Zm6.54-4.13c-.03-.85-.3-1.51-.84-1.99-.53-.47-1.29-.71-2.27-.71s-1.69.24-2.22.73c-.53.49-.8,1.14-.83,1.96h6.15Z"></path>
        <path class="cls-11" d="m549.48,95.48h1.84v1.62c.38-.55.91-.96,1.59-1.22.68-.26,1.48-.4,2.38-.4v1.49c-.97,0-1.79.16-2.48.47-.69.31-1.17.81-1.43,1.49v5.59h-1.9v-9.03Z"></path>
        <path class="cls-11" d="m439.69,116.06h5.29c1.41,0,2.48.34,3.24,1.02.75.68,1.13,1.67,1.13,2.97,0,.97-.26,1.78-.77,2.46-.51.67-1.24,1.13-2.18,1.36l2.9,5.34h-1.99l-2.8-5.19h-2.88v5.19h-1.92v-13.15Zm4.97,6.34c.84,0,1.51-.2,2-.59.5-.4.74-.98.74-1.76,0-.85-.24-1.46-.72-1.83-.48-.36-1.16-.55-2.02-.55h-3.05v4.72h3.05Z"></path>
        <path class="cls-11" d="m452.35,128.56c-.88-.62-1.32-1.5-1.32-2.62,0-.84.24-1.56.71-2.16.47-.6,1.23-1.2,2.27-1.79-.63-.58-1.08-1.1-1.37-1.57-.29-.47-.43-.99-.43-1.57,0-.93.32-1.67.95-2.23.63-.56,1.48-.84,2.53-.84.66,0,1.26.13,1.78.4.52.27.93.64,1.21,1.1.29.46.43.98.43,1.56,0,.69-.18,1.28-.55,1.77-.37.49-1.01,1.03-1.91,1.62l3.58,3.39c.23-.36.38-.79.46-1.29.08-.5.12-1.1.12-1.82h1.67c0,.97-.08,1.77-.23,2.42s-.41,1.28-.79,1.89l2.52,2.39h-2.29l-1.34-1.28c-.56.54-1.22.93-1.98,1.19-.75.25-1.62.38-2.6.38-1.41,0-2.55-.31-3.42-.93Zm5.38-.81c.58-.22,1.06-.53,1.45-.93l-3.91-3.78c-.84.41-1.45.84-1.83,1.29s-.56.98-.56,1.61c0,.69.27,1.22.82,1.59.55.37,1.25.56,2.1.56.72,0,1.36-.11,1.94-.33Zm-.75-7.62c.3-.34.45-.75.45-1.21,0-.51-.16-.93-.47-1.23s-.74-.46-1.28-.46-.99.15-1.3.45c-.31.3-.47.72-.47,1.24,0,.4.12.77.36,1.09.24.33.64.75,1.2,1.28.7-.43,1.2-.81,1.5-1.16Z"></path>
        <path class="cls-11" d="m465.96,116.06h4.23c1.42,0,2.65.26,3.69.79s1.84,1.28,2.4,2.26c.56.98.84,2.13.84,3.46,0,2.18-.63,3.84-1.89,4.96-1.26,1.12-3.03,1.68-5.3,1.68h-3.97v-13.15Zm3.95,11.55c1.76,0,3.07-.43,3.95-1.3.88-.87,1.32-2.11,1.32-3.74,0-1.51-.43-2.7-1.29-3.57s-2.08-1.32-3.68-1.32h-2.33v9.93h2.03Z"></path>
        <path class="cls-11" d="m486.14,116.06h4.23c1.42,0,2.65.26,3.69.79s1.84,1.28,2.4,2.26c.56.98.84,2.13.84,3.46,0,2.18-.63,3.84-1.89,4.96-1.26,1.12-3.03,1.68-5.3,1.68h-3.97v-13.15Zm3.95,11.55c1.76,0,3.07-.43,3.95-1.3.88-.87,1.32-2.11,1.32-3.74,0-1.51-.43-2.7-1.29-3.57s-2.08-1.32-3.68-1.32h-2.33v9.93h2.03Z"></path>
        <path class="cls-11" d="m499.69,118.09c-.21-.21-.32-.48-.32-.79s.11-.58.32-.79.48-.32.79-.32.6.11.82.32c.22.21.33.48.33.79s-.11.58-.33.79c-.22.21-.49.32-.82.32s-.58-.11-.79-.32Zm-.17,2.09h1.94v9.03h-1.94v-9.03Z"></path>
        <path class="cls-11" d="m503.7,120.18h2.01l2.65,6.49,2.65-6.49h2.01l-3.84,9.03h-1.66l-3.84-9.03Z"></path>
        <path class="cls-11" d="m515.42,118.09c-.21-.21-.32-.48-.32-.79s.11-.58.32-.79.48-.32.79-.32.6.11.82.32c.22.21.33.48.33.79s-.11.58-.33.79c-.22.21-.49.32-.82.32s-.58-.11-.79-.32Zm-.17,2.09h1.94v9.03h-1.94v-9.03Z"></path>
        <path class="cls-11" d="m521.14,129.25c-.7-.16-1.25-.37-1.66-.63v-1.62c.49.29,1.05.52,1.69.71s1.26.27,1.86.27c.68,0,1.17-.08,1.49-.24.31-.16.47-.43.47-.79,0-.28-.07-.5-.22-.67s-.39-.32-.73-.46c-.35-.14-.86-.3-1.55-.49-.74-.21-1.33-.43-1.76-.65-.43-.22-.76-.5-.98-.84-.22-.34-.33-.78-.33-1.32,0-.87.34-1.52,1.03-1.97.68-.44,1.6-.67,2.76-.67.6,0,1.19.06,1.77.17.58.11,1.04.27,1.39.47v1.58c-.36-.21-.81-.38-1.34-.51s-1.08-.19-1.63-.19c-.67,0-1.17.08-1.52.24-.35.16-.53.45-.53.87,0,.26.08.48.23.64s.39.3.72.42.86.27,1.59.46c1.14.31,1.93.68,2.38,1.11.45.43.67,1.02.67,1.77s-.32,1.4-.96,1.86-1.59.7-2.84.7c-.63,0-1.29-.08-1.99-.24Z"></path>
        <path class="cls-11" d="m529.32,118.09c-.21-.21-.32-.48-.32-.79s.11-.58.32-.79.48-.32.79-.32.6.11.82.32c.22.21.33.48.33.79s-.11.58-.33.79c-.22.21-.49.32-.82.32s-.58-.11-.79-.32Zm-.17,2.09h1.94v9.03h-1.94v-9.03Z"></path>
        <path class="cls-11" d="m535.79,128.92c-.77-.38-1.37-.93-1.81-1.66s-.65-1.57-.65-2.55.21-1.81.64-2.54,1.03-1.29,1.81-1.68c.78-.4,1.67-.59,2.69-.59s1.91.2,2.69.59c.78.4,1.38.96,1.82,1.68s.65,1.57.65,2.54-.22,1.83-.65,2.55-1.04,1.27-1.82,1.66c-.78.38-1.67.57-2.69.57s-1.91-.19-2.68-.57Zm5.01-1.83c.58-.6.87-1.39.87-2.37s-.29-1.82-.87-2.41c-.58-.59-1.35-.88-2.33-.88s-1.76.29-2.33.88c-.58.59-.87,1.39-.87,2.41s.29,1.77.87,2.37c.58.6,1.35.9,2.33.9s1.76-.3,2.33-.9Z"></path>
        <path class="cls-11" d="m545.69,120.18h1.84v1.3c.43-.54.95-.94,1.57-1.19.62-.26,1.27-.39,1.95-.39,1.2,0,2.1.32,2.69.96.59.64.88,1.5.88,2.58v5.78h-1.9v-5.59c0-1.47-.7-2.2-2.11-2.2-.6,0-1.16.14-1.68.42s-.97.71-1.35,1.29v6.08h-1.9v-9.03Z"></path>
        <path class="cls-11" d="m269.27,140.75h1.92l4.69,10.25,4.68-10.25h1.92v13.15h-1.86v-9.35l-4.27,9.35h-.94l-4.29-9.35v9.35h-1.84v-13.15Z"></path>
        <path class="cls-11" d="m285.53,153.35c-.66-.56-.99-1.31-.99-2.27,0-1,.32-1.78.95-2.32.63-.55,1.53-.82,2.7-.82,1.24,0,2.29.25,3.16.75v-.47c0-.71-.22-1.24-.65-1.59-.43-.34-1.11-.52-2.04-.52-.55,0-1.09.05-1.61.16-.52.11-.99.25-1.4.44v-1.54c.38-.18.87-.32,1.47-.42.6-.11,1.19-.16,1.75-.16,1.49,0,2.6.33,3.32.99.72.66,1.08,1.57,1.08,2.74v5.59h-1.79v-1.02c-.39.43-.85.75-1.38.97s-1.18.33-1.95.33c-1.09,0-1.97-.28-2.62-.84Zm4.73-.97c.49-.24.85-.57,1.09-1v-1.22c-.82-.53-1.72-.79-2.73-.79-.73,0-1.27.14-1.63.42s-.54.71-.54,1.29c0,1.1.72,1.66,2.16,1.66.6,0,1.15-.12,1.64-.36Z"></path>
        <path class="cls-11" d="m296.99,153.39c-.5-.53-.74-1.27-.74-2.24v-4.82h-1.37v-1.47h1.37v-2.71h1.92v2.71h2.22v1.47h-2.22v4.68c0,.6.12,1.03.35,1.28.23.25.66.38,1.27.38.36,0,.73-.08,1.09-.24v1.51c-.48.16-1.07.24-1.77.24-.92,0-1.62-.26-2.12-.79Z"></path>
        <path class="cls-11" d="m304.03,153.39c-.5-.53-.74-1.27-.74-2.24v-4.82h-1.37v-1.47h1.37v-2.71h1.92v2.71h2.22v1.47h-2.22v4.68c0,.6.12,1.03.35,1.28.23.25.66.38,1.27.38.36,0,.73-.08,1.09-.24v1.51c-.48.16-1.07.24-1.77.24-.92,0-1.62-.26-2.12-.79Z"></path>
        <path class="cls-11" d="m309.7,140h1.9v6.11c.87-1.02,2.02-1.52,3.46-1.52,1.2,0,2.1.32,2.69.96.59.64.88,1.5.88,2.58v5.78h-1.9v-5.59c0-1.47-.7-2.2-2.11-2.2-.6,0-1.16.14-1.68.42s-.97.71-1.35,1.29v6.08h-1.9v-13.9Z"></path>
        <path class="cls-11" d="m322.03,152.93c-.95-.83-1.42-2.01-1.42-3.53s.42-2.65,1.27-3.52c.85-.87,2.05-1.3,3.62-1.3,1.04,0,1.93.2,2.65.59s1.28.94,1.65,1.64c.37.7.55,1.49.55,2.38v.94h-7.94c.06.85.42,1.49,1.08,1.91.66.42,1.55.63,2.68.63.58,0,1.16-.05,1.75-.16.59-.11,1.11-.25,1.56-.42v1.52c-.4.16-.93.3-1.59.4-.66.11-1.31.16-1.95.16-1.67,0-2.98-.42-3.92-1.25Zm6.54-4.13c-.03-.85-.3-1.51-.84-1.99-.53-.47-1.29-.71-2.27-.71s-1.69.24-2.22.73c-.53.49-.8,1.14-.83,1.96h6.15Z"></path>
        <path class="cls-11" d="m332.05,144.87h1.94l2.03,6.7,2.01-6.7h1.71l2.01,6.7,2.03-6.7h1.96l-2.94,9.03h-1.82l-2.09-6.74-2.09,6.74h-1.84l-2.92-9.03Z"></path>
        <path class="cls-11" d="m347.44,153.9h7.47v1.66h-7.47v-1.66Z"></path>
        <path class="cls-11" d="m356.61,140.75h1.99l2.94,9.99,2.9-9.99h1.5l2.88,9.99,2.93-9.99h2l-3.84,13.15h-1.83l-2.92-9.93-2.9,9.93h-1.83l-3.84-13.15Z"></path>
        <path class="cls-11" d="m376.43,153.35c-.66-.56-.99-1.31-.99-2.27,0-1,.32-1.78.95-2.32.63-.55,1.53-.82,2.7-.82,1.24,0,2.29.25,3.16.75v-.47c0-.71-.22-1.24-.65-1.59-.43-.34-1.11-.52-2.04-.52-.55,0-1.09.05-1.61.16-.52.11-.99.25-1.4.44v-1.54c.38-.18.87-.32,1.47-.42.6-.11,1.19-.16,1.75-.16,1.49,0,2.6.33,3.32.99.72.66,1.08,1.57,1.08,2.74v5.59h-1.79v-1.02c-.39.43-.85.75-1.38.97s-1.18.33-1.95.33c-1.09,0-1.97-.28-2.62-.84Zm4.73-.97c.49-.24.85-.57,1.09-1v-1.22c-.82-.53-1.72-.79-2.73-.79-.73,0-1.27.14-1.63.42s-.54.71-.54,1.29c0,1.1.72,1.66,2.16,1.66.6,0,1.15-.12,1.64-.36Z"></path>
        <path class="cls-11" d="m386.52,144.87h1.84v1.3c.43-.54.95-.94,1.57-1.19.62-.26,1.27-.39,1.95-.39,1.2,0,2.1.32,2.69.96.59.64.88,1.5.88,2.58v5.78h-1.9v-5.59c0-1.47-.7-2.2-2.11-2.2-.6,0-1.16.14-1.68.42s-.97.71-1.35,1.29v6.08h-1.9v-9.03Z"></path>
        <path class="cls-11" d="m400.74,158.08c-.58-.1-1.08-.24-1.48-.43v-1.56c.94.43,2.03.64,3.27.64,1.17,0,2.02-.25,2.55-.76.53-.51.8-1.28.8-2.3v-.96c-.83.99-2.04,1.49-3.65,1.49-.92,0-1.74-.2-2.46-.6s-1.3-.97-1.71-1.69-.62-1.56-.62-2.5.2-1.79.61-2.51c.41-.72.97-1.28,1.69-1.68.72-.4,1.53-.6,2.44-.6.84,0,1.55.12,2.14.37s1.13.65,1.63,1.21v-1.3h1.84v8.58c0,1.54-.43,2.73-1.29,3.55-.86.82-2.18,1.23-3.96,1.23-.61,0-1.21-.05-1.8-.15Zm3.93-6.02c.6-.41,1-.97,1.21-1.66v-2.03c-.24-.7-.65-1.25-1.23-1.66-.58-.4-1.26-.6-2.04-.6-.61,0-1.17.14-1.67.4-.5.27-.88.66-1.17,1.16s-.42,1.07-.42,1.71.14,1.23.42,1.72.67.88,1.17,1.16,1.05.41,1.67.41c.78,0,1.46-.21,2.06-.62Z"></path>
        <path class="cls-11" d="m413.46,154.56c-1.14-.51-2.03-1.28-2.66-2.29-.63-1.01-.95-2.24-.95-3.68,0-1.58.33-2.99,1.01-4.22.67-1.24,1.63-2.19,2.88-2.88s2.69-1.03,4.34-1.03c2.27,0,4.04.56,5.31,1.68,1.27,1.12,1.9,2.71,1.9,4.77,0,1.42-.29,2.59-.87,3.53-.58.93-1.41,1.4-2.47,1.4-.46,0-.89-.12-1.29-.37-.39-.24-.66-.57-.78-.99-.29.44-.67.77-1.16,1.01-.48.23-1.03.35-1.63.35-.97,0-1.75-.29-2.34-.86-.6-.57-.89-1.4-.89-2.47,0-.84.17-1.6.52-2.28s.84-1.21,1.48-1.61c.64-.4,1.39-.59,2.24-.59.5,0,1.01.05,1.53.16.52.11.97.25,1.36.44l-.24,4.36c-.03.48.07.84.28,1.1.21.26.51.39.88.39.6,0,1.03-.31,1.28-.93.25-.62.38-1.5.38-2.64,0-1.67-.45-2.91-1.35-3.73-.9-.82-2.28-1.23-4.12-1.23-1.3,0-2.45.27-3.42.8-.98.53-1.73,1.3-2.27,2.31s-.8,2.18-.8,3.54c0,1.72.5,3.03,1.51,3.93,1,.9,2.46,1.35,4.38,1.35,1.3,0,2.5-.18,3.57-.55v1.39c-1.04.4-2.23.6-3.57.6-1.53,0-2.87-.26-4.01-.77Zm5.23-4.62c.34-.34.52-.76.55-1.25l.19-3.01c-.38-.16-.84-.24-1.39-.24-.74,0-1.34.28-1.79.83-.45.55-.68,1.26-.68,2.13,0,.68.14,1.19.43,1.54.29.35.71.53,1.26.53.61,0,1.09-.17,1.43-.52Z"></path>
        <path class="cls-11" d="m427.96,153.35c-.66-.56-.99-1.31-.99-2.27,0-1,.32-1.78.95-2.32.63-.55,1.53-.82,2.7-.82,1.24,0,2.29.25,3.16.75v-.47c0-.71-.22-1.24-.65-1.59-.43-.34-1.11-.52-2.04-.52-.55,0-1.09.05-1.61.16-.52.11-.99.25-1.4.44v-1.54c.38-.18.87-.32,1.47-.42.6-.11,1.19-.16,1.75-.16,1.49,0,2.6.33,3.32.99.72.66,1.08,1.57,1.08,2.74v5.59h-1.79v-1.02c-.39.43-.85.75-1.38.97s-1.18.33-1.95.33c-1.09,0-1.97-.28-2.62-.84Zm4.73-.97c.49-.24.85-.57,1.09-1v-1.22c-.82-.53-1.72-.79-2.73-.79-.73,0-1.27.14-1.63.42s-.54.71-.54,1.29c0,1.1.72,1.66,2.16,1.66.6,0,1.15-.12,1.64-.36Z"></path>
        <path class="cls-11" d="m439.39,153.95c-.7-.16-1.25-.37-1.66-.63v-1.62c.49.29,1.05.52,1.69.71s1.26.27,1.86.27c.68,0,1.17-.08,1.49-.24.31-.16.47-.43.47-.79,0-.28-.07-.5-.22-.67s-.39-.32-.73-.46c-.35-.14-.86-.3-1.55-.49-.74-.21-1.33-.43-1.76-.65-.43-.22-.76-.5-.98-.84-.22-.34-.33-.78-.33-1.32,0-.87.34-1.52,1.03-1.97.68-.44,1.6-.67,2.76-.67.6,0,1.19.06,1.77.17.58.11,1.04.27,1.39.47v1.58c-.36-.21-.81-.38-1.34-.51s-1.08-.19-1.63-.19c-.67,0-1.17.08-1.52.24-.35.16-.53.45-.53.87,0,.26.08.48.23.64s.39.3.72.42.86.27,1.59.46c1.14.31,1.93.68,2.38,1.11.45.43.67,1.02.67,1.77s-.32,1.4-.96,1.86-1.59.7-2.84.7c-.63,0-1.29-.08-1.99-.24Z"></path>
        <path class="cls-11" d="m448.3,152.93c-.95-.83-1.42-2.01-1.42-3.53s.42-2.65,1.27-3.52c.85-.87,2.05-1.3,3.62-1.3,1.04,0,1.93.2,2.65.59s1.28.94,1.65,1.64c.37.7.55,1.49.55,2.38v.94h-7.94c.06.85.42,1.49,1.08,1.91.66.42,1.55.63,2.68.63.58,0,1.16-.05,1.75-.16.59-.11,1.11-.25,1.56-.42v1.52c-.4.16-.93.3-1.59.4-.66.11-1.31.16-1.95.16-1.67,0-2.98-.42-3.92-1.25Zm6.54-4.13c-.03-.85-.3-1.51-.84-1.99-.53-.47-1.29-.71-2.27-.71s-1.69.24-2.22.73c-.53.49-.8,1.14-.83,1.96h6.15Z"></path>
        <path class="cls-11" d="m461.62,158.08c-.58-.1-1.08-.24-1.48-.43v-1.56c.94.43,2.03.64,3.27.64,1.17,0,2.02-.25,2.55-.76.53-.51.8-1.28.8-2.3v-.96c-.83.99-2.04,1.49-3.65,1.49-.92,0-1.74-.2-2.46-.6s-1.3-.97-1.71-1.69-.62-1.56-.62-2.5.2-1.79.61-2.51c.41-.72.97-1.28,1.69-1.68.72-.4,1.53-.6,2.44-.6.84,0,1.55.12,2.14.37s1.13.65,1.63,1.21v-1.3h1.84v8.58c0,1.54-.43,2.73-1.29,3.55-.86.82-2.18,1.23-3.96,1.23-.61,0-1.21-.05-1.8-.15Zm3.93-6.02c.6-.41,1-.97,1.21-1.66v-2.03c-.24-.7-.65-1.25-1.23-1.66-.58-.4-1.26-.6-2.04-.6-.61,0-1.17.14-1.67.4-.5.27-.88.66-1.17,1.16s-.42,1.07-.42,1.71.14,1.23.42,1.72.67.88,1.17,1.16,1.05.41,1.67.41c.78,0,1.46-.21,2.06-.62Z"></path>
        <path class="cls-11" d="m471.11,140h1.9v13.9h-1.9v-13.9Z"></path>
        <path class="cls-11" d="m477.54,153.61c-.77-.38-1.37-.93-1.81-1.66s-.65-1.57-.65-2.55.21-1.81.64-2.54,1.03-1.29,1.81-1.68c.78-.4,1.67-.59,2.69-.59s1.91.2,2.69.59c.78.4,1.38.96,1.82,1.68s.65,1.57.65,2.54-.22,1.83-.65,2.55-1.04,1.27-1.82,1.66c-.78.38-1.67.57-2.69.57s-1.91-.19-2.68-.57Zm5.01-1.83c.58-.6.87-1.39.87-2.37s-.29-1.82-.87-2.41c-.58-.59-1.35-.88-2.33-.88s-1.76.29-2.33.88c-.58.59-.87,1.39-.87,2.41s.29,1.77.87,2.37c.58.6,1.35.9,2.33.9s1.76-.3,2.33-.9Z"></path>
        <path class="cls-11" d="m490.93,153.8c-.6-.26-1.14-.66-1.65-1.21v1.32h-1.84v-13.9h1.9v6.08c.41-.49.95-.86,1.6-1.11s1.35-.38,2.11-.38c.9,0,1.71.2,2.44.61.72.41,1.29.98,1.69,1.7.41.73.61,1.56.61,2.5s-.2,1.79-.61,2.51c-.41.72-.97,1.28-1.69,1.67-.72.4-1.53.59-2.44.59-.82,0-1.52-.13-2.12-.39Zm3.35-1.52c.5-.27.88-.66,1.17-1.16.28-.5.42-1.07.42-1.71s-.14-1.21-.42-1.71c-.28-.5-.67-.89-1.17-1.17-.5-.28-1.05-.41-1.67-.41-.77,0-1.45.21-2.05.62-.6.41-1.01.97-1.22,1.66v2.03c.24.69.65,1.24,1.23,1.65.58.41,1.26.61,2.04.61.61,0,1.17-.13,1.67-.4Z"></path>
        <path class="cls-11" d="m500.47,153.35c-.66-.56-.99-1.31-.99-2.27,0-1,.32-1.78.95-2.32.63-.55,1.53-.82,2.7-.82,1.24,0,2.29.25,3.16.75v-.47c0-.71-.22-1.24-.65-1.59-.43-.34-1.11-.52-2.04-.52-.55,0-1.09.05-1.61.16-.52.11-.99.25-1.4.44v-1.54c.38-.18.87-.32,1.47-.42.6-.11,1.19-.16,1.75-.16,1.49,0,2.6.33,3.32.99.72.66,1.08,1.57,1.08,2.74v5.59h-1.79v-1.02c-.39.43-.85.75-1.38.97s-1.18.33-1.95.33c-1.09,0-1.97-.28-2.62-.84Zm4.73-.97c.49-.24.85-.57,1.09-1v-1.22c-.82-.53-1.72-.79-2.73-.79-.73,0-1.27.14-1.63.42s-.54.71-.54,1.29c0,1.1.72,1.66,2.16,1.66.6,0,1.15-.12,1.64-.36Z"></path>
        <path class="cls-11" d="m510.57,140h1.9v13.9h-1.9v-13.9Z"></path>
        <path class="cls-11" d="m514.79,153.65c-.17-.17-.25-.38-.25-.63s.08-.46.25-.64.38-.26.63-.26.46.09.64.26c.17.18.26.39.26.64s-.09.46-.26.63c-.18.17-.39.25-.64.25s-.46-.08-.63-.25Z"></path>
        <path class="cls-11" d="m520.48,153.62c-.78-.38-1.38-.92-1.82-1.65-.43-.72-.65-1.58-.65-2.57s.22-1.85.65-2.57,1.04-1.28,1.83-1.67c.78-.39,1.68-.58,2.7-.58,1.38,0,2.48.27,3.31.81v1.56c-.82-.56-1.86-.85-3.12-.85-1.03,0-1.86.28-2.49.84s-.95,1.38-.95,2.46.31,1.89.94,2.45c.63.55,1.45.83,2.46.83,1.27,0,2.36-.3,3.27-.9v1.54c-.44.3-.94.52-1.5.66-.56.14-1.21.21-1.97.21-1,0-1.89-.19-2.67-.56Z"></path>
        <path class="cls-11" d="m530.76,153.61c-.77-.38-1.37-.93-1.81-1.66s-.65-1.57-.65-2.55.21-1.81.64-2.54,1.03-1.29,1.81-1.68c.78-.4,1.67-.59,2.69-.59s1.91.2,2.69.59c.78.4,1.38.96,1.82,1.68s.65,1.57.65,2.54-.22,1.83-.65,2.55-1.04,1.27-1.82,1.66c-.78.38-1.67.57-2.69.57s-1.91-.19-2.68-.57Zm5.01-1.83c.58-.6.87-1.39.87-2.37s-.29-1.82-.87-2.41c-.58-.59-1.35-.88-2.33-.88s-1.76.29-2.33.88c-.58.59-.87,1.39-.87,2.41s.29,1.77.87,2.37c.58.6,1.35.9,2.33.9s1.76-.3,2.33-.9Z"></path>
        <path class="cls-11" d="m540.67,144.87h1.81v1.3c.43-.53.91-.92,1.45-1.19.54-.26,1.1-.4,1.67-.4.73,0,1.3.12,1.73.37.43.24.74.62.94,1.12.4-.49.89-.86,1.48-1.11.58-.25,1.17-.38,1.76-.38,1.1,0,1.9.28,2.39.84s.73,1.38.73,2.47v6h-1.84v-5.76c0-.74-.14-1.26-.41-1.57-.28-.31-.75-.46-1.41-.46-.95,0-1.73.41-2.33,1.24.03.19.04.5.04.92v5.63h-1.84v-5.76c0-.74-.12-1.26-.38-1.57-.25-.31-.7-.46-1.35-.46-.95,0-1.81.54-2.56,1.62v6.17h-1.86v-9.03Z"></path>
      </g>
      <g>
        <path class="cls-11" d="m45.95,231.58h3.33l6.23,15.62h-3.46l-1.34-3.4h-6.19l-1.34,3.4h-3.49l6.26-15.62Zm3.87,9.52l-2.21-5.94-2.21,5.94h4.42Z"></path>
        <path class="cls-11" d="m58.24,247.26c-.94-.18-1.71-.42-2.3-.71v-2.99c.79.39,1.61.68,2.46.87.85.19,1.66.29,2.44.29.86,0,1.52-.15,1.97-.45.45-.3.67-.71.67-1.25,0-.39-.11-.71-.33-.98s-.55-.51-.97-.73c-.42-.21-1.08-.5-1.96-.86-1.46-.6-2.52-1.26-3.17-2s-.98-1.65-.98-2.74c0-.88.24-1.66.71-2.33.48-.68,1.15-1.2,2.01-1.58.86-.37,1.86-.56,2.99-.56.92,0,1.74.07,2.46.22.71.15,1.42.38,2.1.69v2.9c-1.31-.66-2.62-.98-3.93-.98-.83,0-1.49.15-1.97.44-.48.29-.71.7-.71,1.24,0,.39.11.71.33.96s.54.48.94.67c.4.19,1.06.48,1.97.85,1.06.45,1.88.88,2.48,1.28.59.41,1.04.89,1.32,1.45.28.56.42,1.25.42,2.07,0,1.42-.51,2.52-1.53,3.31-1.02.79-2.54,1.18-4.57,1.18-.95,0-1.9-.09-2.84-.27Z"></path>
        <path class="cls-11" d="m69.07,231.58h10.84v2.84h-7.44v3.62h5.47v2.73h-5.47v3.6h7.44v2.84h-10.84v-15.62Z"></path>
        <path class="cls-11" d="m89.38,231.58h3.4v15.62h-3.4v-15.62Z"></path>
        <path class="cls-11" d="m95.12,236.47h3.26v1.32c.49-.55,1.08-.96,1.75-1.24.68-.28,1.39-.41,2.13-.41,1.46,0,2.55.39,3.27,1.17.72.78,1.08,1.84,1.08,3.16v6.73h-3.37v-6.35c0-1.38-.64-2.08-1.92-2.08-.57,0-1.09.14-1.59.41-.49.28-.91.68-1.25,1.22v6.79h-3.37v-10.72Z"></path>
        <path class="cls-11" d="m110.14,246.04c-1.15-.99-1.72-2.39-1.72-4.19s.58-3.21,1.73-4.21c1.15-1,2.7-1.51,4.64-1.51,1.76,0,3.16.33,4.2.98v2.66c-.48-.34-1.03-.6-1.67-.76-.63-.16-1.3-.25-2-.25-1.04,0-1.88.25-2.5.76-.62.51-.94,1.28-.94,2.32s.31,1.81.93,2.31,1.45.75,2.49.75c1.44,0,2.72-.35,3.82-1.05v2.64c-1.1.68-2.55,1.03-4.36,1.03-1.94,0-3.48-.5-4.62-1.49Z"></path>
        <path class="cls-11" d="m120.92,246.84c-.25-.24-.37-.54-.37-.89s.13-.66.38-.92.55-.38.89-.38.66.13.92.38.38.56.38.92-.13.66-.38.89-.56.36-.92.36-.66-.12-.9-.36Z"></path>
      </g>
      <g>
        <path class="cls-11" d="m40.3,258.38h.88l7.36,10.71v-10.71h.93v12.33h-.86l-7.37-10.72v10.72h-.93v-12.33Z"></path>
        <path class="cls-11" d="m53.96,270.42c-.69-.37-1.23-.89-1.61-1.57-.39-.68-.58-1.46-.58-2.35s.19-1.68.58-2.36c.39-.68.93-1.21,1.61-1.59.69-.38,1.47-.56,2.35-.56s1.67.19,2.36.56c.69.38,1.23.91,1.62,1.59.39.68.59,1.47.59,2.36s-.19,1.68-.58,2.35c-.39.68-.93,1.2-1.62,1.57-.69.37-1.48.56-2.36.56s-1.67-.19-2.35-.56Zm4.26-.64c.55-.31.98-.74,1.29-1.31.31-.56.46-1.22.46-1.98s-.15-1.41-.46-1.98c-.31-.57-.74-1.01-1.29-1.31-.55-.3-1.19-.46-1.91-.46s-1.35.15-1.9.46c-.55.31-.98.74-1.29,1.31s-.46,1.23-.46,1.98.15,1.41.46,1.98.74,1,1.29,1.31,1.19.46,1.9.46,1.35-.15,1.91-.46Z"></path>
        <path class="cls-11" d="m63,270.54c-.12-.12-.18-.26-.18-.44,0-.17.06-.31.18-.43.12-.12.26-.18.44-.18.16,0,.31.06.43.18s.19.27.19.43c0,.18-.06.32-.19.44-.12.12-.27.18-.43.18-.18,0-.32-.06-.44-.18Z"></path>
      </g>
      <g>
        <path class="cls-11" d="m66,270.04l3.12-3.19.62-.62c.71-.71,1.26-1.29,1.66-1.75.4-.46.73-.94.98-1.45s.38-1.03.38-1.57c0-.8-.24-1.42-.73-1.87-.49-.45-1.22-.67-2.2-.67-.56,0-1.11.09-1.62.26-.52.18-1.04.46-1.57.86v-.93c.48-.34.98-.59,1.51-.76.52-.16,1.12-.25,1.79-.25,1.18,0,2.09.3,2.75.9.66.6.99,1.42.99,2.45,0,.59-.13,1.16-.41,1.72-.27.56-.64,1.12-1.11,1.68-.47.56-1.12,1.26-1.94,2.11l-2.88,2.95h6.84v.79h-8.18v-.67Z"></path>
        <path class="cls-11" d="m78.25,270.41c-.65-.38-1.17-.94-1.55-1.69-.38-.75-.57-1.68-.57-2.77,0-5.22,1.85-7.83,5.56-7.83.54,0,1,.05,1.38.14v.83c-.33-.11-.76-.16-1.31-.16-1.54,0-2.68.5-3.41,1.49-.73.99-1.16,2.5-1.28,4.52.31-.64.77-1.13,1.4-1.48.63-.35,1.34-.53,2.14-.53s1.47.17,2.07.5c.61.34,1.08.81,1.41,1.41.33.61.5,1.3.5,2.09s-.17,1.49-.51,2.1c-.34.61-.83,1.09-1.46,1.43s-1.36.51-2.2.51-1.53-.19-2.18-.56Zm4.55-1.11c.59-.59.89-1.38.89-2.36s-.3-1.75-.89-2.33c-.59-.58-1.38-.86-2.37-.86-.6,0-1.15.14-1.65.41-.5.27-.89.65-1.18,1.14-.29.49-.43,1.05-.43,1.68,0,.56.13,1.09.41,1.59.27.49.66.89,1.16,1.18.5.29,1.07.44,1.7.44.99,0,1.78-.29,2.37-.88Z"></path>
      </g>
      <g>
        <path class="cls-11" d="m87.92,269.88h.99l-1.55,3.4h-.83l1.39-3.4Z"></path>
        <path class="cls-11" d="m100.85,270.18c-.98-.54-1.74-1.29-2.29-2.26-.55-.97-.83-2.09-.83-3.36s.28-2.39.83-3.37c.55-.98,1.32-1.73,2.29-2.27.98-.53,2.08-.8,3.3-.8,1.69,0,3.1.46,4.22,1.39v.94c-1.07-.99-2.46-1.48-4.16-1.48-1.06,0-2.01.23-2.85.69s-1.5,1.11-1.98,1.96-.72,1.83-.72,2.95.24,2.11.73,2.96,1.16,1.49,2,1.95c.85.46,1.79.69,2.82.69.89,0,1.69-.12,2.4-.36.71-.24,1.35-.64,1.92-1.21v.94c-1.05.98-2.5,1.46-4.38,1.46-1.22,0-2.32-.27-3.3-.8Z"></path>
        <path class="cls-11" d="m110.82,257.68h.92v5.98c.45-.6.97-1.03,1.58-1.29.61-.26,1.25-.39,1.93-.39,1.11,0,1.93.29,2.47.86s.81,1.35.81,2.31v5.56h-.93v-5.49c0-.8-.19-1.41-.58-1.84-.39-.43-1.02-.64-1.89-.64-1.41,0-2.54.64-3.39,1.92v6.05h-.92v-13.04Z"></path>
        <path class="cls-11" d="m121.27,260.05c-.12-.12-.18-.28-.18-.47,0-.18.06-.33.18-.46.12-.13.28-.19.47-.19.18,0,.33.07.46.19.13.13.19.28.19.46,0,.19-.06.34-.19.47-.13.12-.28.19-.46.19-.19,0-.34-.06-.47-.19Zm0,2.2h.92v8.47h-.92v-8.47Z"></path>
        <path class="cls-11" d="m125.04,262.25h.9v1.43c.43-.59.96-1.02,1.58-1.29.62-.27,1.27-.41,1.95-.41,1.11,0,1.93.29,2.47.86s.81,1.35.81,2.31v5.56h-.93v-5.49c0-.8-.19-1.41-.58-1.84-.39-.43-1.02-.64-1.89-.64-1.41,0-2.54.64-3.39,1.92v6.05h-.92v-8.47Z"></path>
      </g>
      <path class="cls-11" d="m143.47,270.83c-.62-.1-1.17-.25-1.64-.45v-.88c.51.24,1.06.41,1.68.52.61.11,1.22.17,1.82.17,2.4,0,3.6-.91,3.6-2.73s-1.28-2.61-3.83-2.61h-1.27v-.79h1.25c1.01,0,1.84-.23,2.48-.69.64-.46.96-1.1.96-1.92s-.25-1.43-.74-1.86c-.49-.43-1.23-.64-2.2-.64-.65,0-1.22.07-1.73.22-.51.15-1.05.4-1.64.75v-.85c1.01-.62,2.16-.93,3.44-.93s2.16.29,2.81.88c.65.59.98,1.4.98,2.43,0,.74-.21,1.37-.63,1.88s-1.05.88-1.89,1.1c.92.12,1.63.44,2.15.97s.78,1.22.78,2.06c0,1.08-.36,1.94-1.08,2.58-.72.63-1.85.95-3.39.95-.65,0-1.28-.05-1.91-.15Z"></path>
      <g>
        <path class="cls-11" d="m152.13,262.25h.9v1.8c.71-1.2,2.02-1.8,3.95-1.8v.76c-2.08,0-3.39.75-3.93,2.26v5.45h-.92v-8.47Z"></path>
        <path class="cls-11" d="m159.94,270.43c-.67-.36-1.2-.88-1.59-1.56-.39-.68-.58-1.47-.58-2.37s.19-1.67.58-2.35c.39-.69.92-1.22,1.59-1.6.67-.38,1.42-.56,2.24-.56s1.61.17,2.3.49c.69.33,1.21.82,1.56,1.46v-6.26h.93v13.04h-.92v-1.69c-.82,1.31-2.12,1.96-3.88,1.96-.82,0-1.57-.18-2.24-.55Zm4.72-.87c.66-.45,1.13-1.08,1.38-1.9v-2.31c-.22-.81-.67-1.45-1.35-1.91-.68-.46-1.47-.7-2.37-.7-.67,0-1.28.16-1.84.47s-1,.75-1.32,1.32-.48,1.23-.48,1.97.16,1.39.48,1.96.76,1,1.32,1.31,1.17.47,1.84.47c.89,0,1.67-.23,2.34-.68Z"></path>
        <path class="cls-11" d="m176.51,258.38h4.57c2.49,0,3.74,1.13,3.74,3.39,0,.91-.28,1.66-.83,2.26-.55.6-1.33.95-2.35,1.06l3.16,5.63h-.97l-3.14-5.61h-3.25v5.61h-.93v-12.33Zm4.5,5.93c.91,0,1.61-.22,2.12-.65.51-.43.77-1.06.77-1.89,0-.94-.25-1.61-.75-2-.5-.39-1.21-.59-2.12-.59h-3.58v5.13h3.56Z"></path>
        <path class="cls-11" d="m188.13,270.43c-.67-.36-1.2-.88-1.59-1.56-.39-.68-.58-1.47-.58-2.37s.19-1.67.58-2.35c.39-.69.92-1.22,1.59-1.6.67-.38,1.42-.56,2.24-.56s1.61.17,2.3.49c.69.33,1.21.82,1.56,1.46v-6.26h.93v13.04h-.92v-1.69c-.82,1.31-2.12,1.96-3.88,1.96-.82,0-1.57-.18-2.24-.55Zm4.72-.87c.66-.45,1.13-1.08,1.38-1.9v-2.31c-.22-.81-.67-1.45-1.35-1.91-.68-.46-1.47-.7-2.37-.7-.67,0-1.28.16-1.84.47s-1,.75-1.32,1.32-.48,1.23-.48,1.97.16,1.39.48,1.96.76,1,1.32,1.31,1.17.47,1.84.47c.89,0,1.67-.23,2.34-.68Z"></path>
        <path class="cls-11" d="m197.64,270.54c-.12-.12-.18-.26-.18-.44,0-.17.06-.31.18-.43.12-.12.26-.18.44-.18.16,0,.31.06.43.18s.19.27.19.43c0,.18-.06.32-.19.44-.12.12-.27.18-.43.18-.18,0-.32-.06-.44-.18Z"></path>
        <path class="cls-11" d="m202.03,269.88h.99l-1.55,3.4h-.83l1.39-3.4Z"></path>
        <path class="cls-11" d="m212.19,258.38h.88l7.36,10.71v-10.71h.93v12.33h-.86l-7.37-10.72v10.72h-.93v-12.33Z"></path>
        <path class="cls-11" d="m224.54,270.25c-.59-.48-.89-1.16-.89-2.03s.29-1.59.86-2.06,1.41-.71,2.49-.71c1.33,0,2.45.27,3.35.81v-1.04c0-.85-.23-1.47-.69-1.88-.46-.41-1.19-.61-2.21-.61-.94,0-1.85.18-2.72.55v-.79c.35-.15.78-.28,1.29-.37.5-.09,1-.14,1.48-.14,1.28,0,2.23.29,2.85.86s.93,1.39.93,2.43v5.43h-.86v-1.22c-.74.99-1.9,1.48-3.47,1.48-1.01,0-1.81-.24-2.41-.72Zm4.55-.47c.57-.29.99-.69,1.26-1.19v-1.57c-.52-.28-1.02-.49-1.52-.63-.49-.14-1.06-.2-1.69-.2-.92,0-1.58.17-1.98.5-.41.33-.61.84-.61,1.53s.22,1.14.65,1.48c.43.34,1.09.51,1.98.51.71,0,1.34-.14,1.91-.43Z"></path>
        <path class="cls-11" d="m233.85,262.25h.9v1.43c.43-.59.96-1.02,1.58-1.29.62-.27,1.27-.41,1.95-.41,1.11,0,1.93.29,2.47.86s.81,1.35.81,2.31v5.56h-.93v-5.49c0-.8-.19-1.41-.58-1.84-.39-.43-1.02-.64-1.89-.64-1.41,0-2.54.64-3.39,1.92v6.05h-.92v-8.47Z"></path>
        <path class="cls-11" d="m243.76,270.04l5.27-7.06h-5.17v-.74h6.26v.69l-5.27,7.04h5.47v.74h-6.56v-.67Z"></path>
        <path class="cls-11" d="m252.8,260.05c-.12-.12-.18-.28-.18-.47,0-.18.06-.33.18-.46.12-.13.28-.19.47-.19.18,0,.33.07.46.19.13.13.19.28.19.46,0,.19-.06.34-.19.47-.13.12-.28.19-.46.19-.19,0-.34-.06-.47-.19Zm0,2.2h.92v8.47h-.92v-8.47Z"></path>
        <path class="cls-11" d="m256.57,257.68h.92v5.98c.45-.6.97-1.03,1.58-1.29.61-.26,1.25-.39,1.93-.39,1.11,0,1.93.29,2.47.86s.81,1.35.81,2.31v5.56h-.93v-5.49c0-.8-.19-1.41-.58-1.84-.39-.43-1.02-.64-1.89-.64-1.41,0-2.54.64-3.39,1.92v6.05h-.92v-13.04Z"></path>
        <path class="cls-11" d="m273.71,258.38h3.65c1.32,0,2.45.25,3.41.74.96.49,1.69,1.2,2.2,2.12.51.92.76,2,.76,3.25,0,2.06-.58,3.61-1.75,4.66-1.16,1.05-2.82,1.57-4.96,1.57h-3.32v-12.33Zm3.17,11.54c3.95,0,5.93-1.81,5.93-5.43,0-1.67-.47-2.97-1.42-3.91-.95-.93-2.31-1.4-4.1-1.4h-2.65v10.74h2.24Z"></path>
        <path class="cls-11" d="m286.21,260.05c-.12-.12-.18-.28-.18-.47,0-.18.06-.33.18-.46.12-.13.28-.19.47-.19.18,0,.33.07.46.19.13.13.19.28.19.46,0,.19-.06.34-.19.47-.13.12-.28.19-.46.19-.19,0-.34-.06-.47-.19Zm0,2.2h.92v8.47h-.92v-8.47Z"></path>
        <path class="cls-11" d="m291.04,270.74c-.61-.16-1.07-.36-1.4-.59v-.79c.44.27.93.49,1.47.64.55.16,1.08.24,1.61.24,1.55,0,2.33-.49,2.33-1.48,0-.34-.07-.62-.21-.84-.14-.22-.39-.41-.76-.59s-.9-.36-1.6-.55c-.69-.19-1.24-.38-1.63-.57-.39-.19-.7-.44-.91-.75-.21-.31-.32-.71-.32-1.2,0-.74.29-1.3.87-1.69.58-.39,1.36-.58,2.34-.58,1.08,0,1.96.18,2.63.53v.79c-.69-.38-1.56-.56-2.59-.56-.75,0-1.33.12-1.74.37-.41.25-.61.63-.61,1.15,0,.35.07.63.21.83.14.2.39.38.75.53.36.15.91.33,1.65.53,1.03.28,1.76.62,2.19,1,.42.39.63.92.63,1.61s-.27,1.22-.8,1.62-1.34.6-2.41.6c-.53,0-1.1-.08-1.7-.24Z"></path>
        <path class="cls-11" d="m299.25,270.33c-.41-.43-.62-1.06-.62-1.9v-5.45h-1.36v-.74h1.36v-2.54h.92v2.54h2.19v.74h-2.19v5.49c0,.62.13,1.07.41,1.35.27.28.72.41,1.36.41.29,0,.6-.06.92-.18v.78c-.32.09-.73.14-1.24.14-.75,0-1.33-.21-1.75-.64Z"></path>
        <path class="cls-11" d="m304.05,270.54c-.12-.12-.18-.26-.18-.44,0-.17.06-.31.18-.43.12-.12.26-.18.44-.18.16,0,.31.06.43.18s.19.27.19.43c0,.18-.06.32-.19.44-.12.12-.27.18-.43.18-.18,0-.32-.06-.44-.18Z"></path>
        <path class="cls-11" d="m308.44,269.88h.99l-1.55,3.4h-.83l1.39-3.4Z"></path>
        <path class="cls-11" d="m318.6,258.38h.93v6.03l6.03-6.03h1.18l-6.08,6.08,6.47,6.24h-1.2l-6.4-6.19v6.19h-.93v-12.33Z"></path>
        <path class="cls-11" d="m328.65,270.25c-.59-.48-.89-1.16-.89-2.03s.29-1.59.86-2.06,1.41-.71,2.49-.71c1.33,0,2.45.27,3.35.81v-1.04c0-.85-.23-1.47-.69-1.88-.46-.41-1.19-.61-2.21-.61-.94,0-1.85.18-2.72.55v-.79c.35-.15.78-.28,1.29-.37.5-.09,1-.14,1.48-.14,1.28,0,2.23.29,2.85.86s.93,1.39.93,2.43v5.43h-.86v-1.22c-.74.99-1.9,1.48-3.47,1.48-1.01,0-1.81-.24-2.41-.72Zm4.55-.47c.57-.29.99-.69,1.26-1.19v-1.57c-.52-.28-1.02-.49-1.52-.63-.49-.14-1.06-.2-1.69-.2-.92,0-1.58.17-1.98.5-.41.33-.61.84-.61,1.53s.22,1.14.65,1.48c.43.34,1.09.51,1.98.51.71,0,1.34-.14,1.91-.43Z"></path>
        <path class="cls-11" d="m339.35,270.42c-.69-.37-1.23-.89-1.61-1.57-.39-.68-.58-1.46-.58-2.35s.19-1.68.58-2.36c.39-.68.93-1.21,1.61-1.59.69-.38,1.47-.56,2.35-.56s1.67.19,2.36.56c.69.38,1.23.91,1.62,1.59.39.68.59,1.47.59,2.36s-.19,1.68-.58,2.35c-.39.68-.93,1.2-1.62,1.57-.69.37-1.48.56-2.36.56s-1.67-.19-2.35-.56Zm4.26-.64c.55-.31.98-.74,1.29-1.31.31-.56.46-1.22.46-1.98s-.15-1.41-.46-1.98c-.31-.57-.74-1.01-1.29-1.31-.55-.3-1.19-.46-1.91-.46s-1.35.15-1.9.46c-.55.31-.98.74-1.29,1.31s-.46,1.23-.46,1.98.15,1.41.46,1.98.74,1,1.29,1.31,1.19.46,1.9.46,1.35-.15,1.91-.46Z"></path>
        <path class="cls-11" d="m348.57,257.68h.92v5.98c.45-.6.97-1.03,1.58-1.29.61-.26,1.25-.39,1.93-.39,1.11,0,1.93.29,2.47.86s.81,1.35.81,2.31v5.56h-.93v-5.49c0-.8-.19-1.41-.58-1.84-.39-.43-1.02-.64-1.89-.64-1.41,0-2.54.64-3.39,1.92v6.05h-.92v-13.04Z"></path>
        <path class="cls-11" d="m359.9,270.74c-.61-.16-1.07-.36-1.4-.59v-.79c.44.27.93.49,1.47.64.55.16,1.08.24,1.61.24,1.55,0,2.33-.49,2.33-1.48,0-.34-.07-.62-.21-.84-.14-.22-.39-.41-.76-.59s-.9-.36-1.6-.55c-.69-.19-1.24-.38-1.63-.57-.39-.19-.7-.44-.91-.75-.21-.31-.32-.71-.32-1.2,0-.74.29-1.3.87-1.69.58-.39,1.36-.58,2.34-.58,1.08,0,1.96.18,2.63.53v.79c-.69-.38-1.56-.56-2.59-.56-.75,0-1.33.12-1.74.37-.41.25-.61.63-.61,1.15,0,.35.07.63.21.83.14.2.39.38.75.53.36.15.91.33,1.65.53,1.03.28,1.76.62,2.19,1,.42.39.63.92.63,1.61s-.27,1.22-.8,1.62-1.34.6-2.41.6c-.53,0-1.1-.08-1.7-.24Z"></path>
        <path class="cls-11" d="m367.29,260.05c-.12-.12-.18-.28-.18-.47,0-.18.06-.33.18-.46.12-.13.28-.19.47-.19.18,0,.33.07.46.19.13.13.19.28.19.46,0,.19-.06.34-.19.47-.13.12-.28.19-.46.19-.19,0-.34-.06-.47-.19Zm0,2.2h.92v8.47h-.92v-8.47Z"></path>
        <path class="cls-11" d="m371.85,270.08c-.59-.6-.88-1.39-.88-2.38v-5.45h.92v5.47c0,.8.21,1.42.64,1.86.43.44,1.08.66,1.97.66.69,0,1.3-.15,1.83-.46s1-.79,1.42-1.46v-6.07h.94v8.47h-.92v-1.41c-.79,1.12-1.9,1.68-3.33,1.68-1.13,0-1.99-.3-2.58-.9Z"></path>
        <path class="cls-11" d="m381.33,262.25h.9v1.43c.43-.59.96-1.02,1.58-1.29.62-.27,1.27-.41,1.95-.41,1.11,0,1.93.29,2.47.86s.81,1.35.81,2.31v5.56h-.93v-5.49c0-.8-.19-1.41-.58-1.84-.39-.43-1.02-.64-1.89-.64-1.41,0-2.54.64-3.39,1.92v6.05h-.92v-8.47Z"></path>
        <path class="cls-11" d="m394.25,274.62c-.54-.1-.98-.23-1.33-.4v-.79c.86.4,1.86.6,3,.6,1.21,0,2.11-.29,2.71-.86.59-.57.89-1.43.89-2.58v-1.57c-.37.65-.88,1.13-1.55,1.46s-1.43.49-2.29.49-1.57-.19-2.25-.56-1.21-.9-1.6-1.58c-.39-.68-.58-1.47-.58-2.36s.19-1.68.58-2.36c.39-.68.92-1.21,1.59-1.58s1.42-.56,2.24-.56c.89,0,1.66.16,2.3.48s1.17.81,1.58,1.46v-1.68h.92v8.2c0,2.88-1.51,4.32-4.53,4.32-.58,0-1.13-.05-1.67-.15Zm3.91-5.08c.68-.46,1.13-1.1,1.36-1.91v-2.31c-.25-.81-.71-1.44-1.38-1.9-.68-.45-1.46-.68-2.34-.68-.67,0-1.28.16-1.83.47s-.99.75-1.32,1.31-.49,1.22-.49,1.96.16,1.4.49,1.97.77,1.01,1.32,1.32,1.16.47,1.83.47c.89,0,1.68-.23,2.36-.7Z"></path>
        <path class="cls-11" d="m404.13,269.88h.99l-1.55,3.4h-.83l1.39-3.4Z"></path>
        <path class="cls-11" d="m417.66,259.18h-4.08v-.79h9.08v.79h-4.07v11.54h-.93v-11.54Z"></path>
        <path class="cls-11" d="m423.12,270.25c-.59-.48-.89-1.16-.89-2.03s.29-1.59.86-2.06,1.41-.71,2.49-.71c1.33,0,2.45.27,3.35.81v-1.04c0-.85-.23-1.47-.69-1.88-.46-.41-1.19-.61-2.21-.61-.94,0-1.85.18-2.72.55v-.79c.35-.15.78-.28,1.29-.37.5-.09,1-.14,1.48-.14,1.28,0,2.23.29,2.85.86s.93,1.39.93,2.43v5.43h-.86v-1.22c-.74.99-1.9,1.48-3.47,1.48-1.01,0-1.81-.24-2.41-.72Zm4.55-.47c.57-.29.99-.69,1.26-1.19v-1.57c-.52-.28-1.02-.49-1.52-.63-.49-.14-1.06-.2-1.69-.2-.92,0-1.58.17-1.98.5-.41.33-.61.84-.61,1.53s.22,1.14.65,1.48c.43.34,1.09.51,1.98.51.71,0,1.34-.14,1.91-.43Z"></path>
        <path class="cls-11" d="m432.61,260.05c-.12-.12-.18-.28-.18-.47,0-.18.06-.33.18-.46.12-.13.28-.19.47-.19.18,0,.33.07.46.19.13.13.19.28.19.46,0,.19-.06.34-.19.47-.13.12-.28.19-.46.19-.19,0-.34-.06-.47-.19Zm0,2.2h.92v8.47h-.92v-8.47Z"></path>
        <path class="cls-11" d="m436.02,262.25h.94l2.28,7.37,2.26-7.37h.97l2.26,7.37,2.28-7.37h.95l-2.68,8.47h-.97l-2.31-7.51-2.31,7.51h-.99l-2.66-8.47Z"></path>
        <path class="cls-11" d="m449.98,270.25c-.59-.48-.89-1.16-.89-2.03s.29-1.59.86-2.06,1.41-.71,2.49-.71c1.33,0,2.45.27,3.35.81v-1.04c0-.85-.23-1.47-.69-1.88-.46-.41-1.19-.61-2.21-.61-.94,0-1.85.18-2.72.55v-.79c.35-.15.78-.28,1.29-.37.5-.09,1-.14,1.48-.14,1.28,0,2.23.29,2.85.86s.93,1.39.93,2.43v5.43h-.86v-1.22c-.74.99-1.9,1.48-3.47,1.48-1.01,0-1.81-.24-2.41-.72Zm4.55-.47c.57-.29.99-.69,1.26-1.19v-1.57c-.52-.28-1.02-.49-1.52-.63-.49-.14-1.06-.2-1.69-.2-.92,0-1.58.17-1.98.5-.41.33-.61.84-.61,1.53s.22,1.14.65,1.48c.43.34,1.09.51,1.98.51.71,0,1.34-.14,1.91-.43Z"></path>
        <path class="cls-11" d="m459.29,262.25h.9v1.43c.43-.59.96-1.02,1.58-1.29.62-.27,1.27-.41,1.95-.41,1.11,0,1.93.29,2.47.86s.81,1.35.81,2.31v5.56h-.93v-5.49c0-.8-.19-1.41-.58-1.84-.39-.43-1.02-.64-1.89-.64-1.41,0-2.54.64-3.39,1.92v6.05h-.92v-8.47Z"></path>
      </g>
      <g>
        <path class="cls-11" d="m483.44,270.06c-.73-.61-1.1-1.48-1.1-2.61,0-.86.24-1.57.71-2.12s1.1-.92,1.88-1.08c-.65-.18-1.17-.52-1.56-1.04-.39-.52-.59-1.13-.59-1.85,0-.99.34-1.77,1.01-2.35.68-.58,1.57-.87,2.69-.87s2.01.29,2.69.87c.68.58,1.01,1.37,1.01,2.35,0,.72-.19,1.33-.58,1.85-.39.52-.91.87-1.55,1.04.78.17,1.4.53,1.88,1.08.48.56.71,1.27.71,2.12,0,1.13-.37,2-1.11,2.61-.74.61-1.76.92-3.05.92s-2.31-.31-3.04-.92Zm5.45-.54c.57-.5.86-1.21.86-2.13s-.3-1.57-.9-2.07-1.39-.75-2.36-.75-1.76.25-2.36.75-.9,1.19-.9,2.07.28,1.63.86,2.13c.57.5,1.37.75,2.41.75s1.84-.25,2.41-.75Zm-.36-6.3c.52-.45.78-1.06.78-1.81s-.26-1.38-.77-1.84-1.2-.7-2.05-.7-1.54.23-2.05.7c-.51.46-.76,1.08-.76,1.84s.26,1.36.77,1.81c.51.45,1.19.68,2.04.68s1.53-.23,2.05-.68Z"></path>
        <path class="cls-11" d="m495.36,259.44l-2.77,2.01v-.99l2.84-2.08h.86v12.33h-.93v-11.27Z"></path>
        <path class="cls-11" d="m501.35,259.44l-2.77,2.01v-.99l2.84-2.08h.86v12.33h-.93v-11.27Z"></path>
      </g>
      <g>
        <path class="cls-11" d="m505.98,269.88h.99l-1.55,3.4h-.83l1.39-3.4Z"></path>
        <path class="cls-11" d="m516.14,258.38h4.57c2.49,0,3.74,1.13,3.74,3.39,0,.91-.28,1.66-.83,2.26-.55.6-1.33.95-2.35,1.06l3.16,5.63h-.97l-3.14-5.61h-3.25v5.61h-.93v-12.33Zm4.5,5.93c.91,0,1.61-.22,2.12-.65.51-.43.77-1.06.77-1.89,0-.94-.25-1.61-.75-2-.5-.39-1.21-.59-2.12-.59h-3.58v5.13h3.56Z"></path>
        <path class="cls-11" d="m526.56,270.54c-.12-.12-.18-.26-.18-.44,0-.17.06-.31.18-.43.12-.12.26-.18.44-.18.16,0,.31.06.43.18s.19.27.19.43c0,.18-.06.32-.19.44-.12.12-.27.18-.43.18-.18,0-.32-.06-.44-.18Z"></path>
        <path class="cls-11" d="m532.69,270.18c-.97-.54-1.73-1.29-2.29-2.27-.56-.98-.84-2.09-.84-3.35s.28-2.38.84-3.35c.56-.98,1.32-1.73,2.29-2.28.97-.54,2.06-.81,3.27-.81s2.3.27,3.28.81c.98.54,1.74,1.3,2.3,2.28.56.98.84,2.09.84,3.35s-.28,2.38-.84,3.35c-.56.98-1.33,1.73-2.3,2.27-.98.54-2.07.8-3.28.8s-2.3-.27-3.27-.8Zm6.05-.71c.84-.46,1.5-1.11,1.99-1.96.49-.85.73-1.83.73-2.95s-.24-2.08-.72-2.93c-.48-.85-1.14-1.5-1.97-1.97s-1.75-.7-2.78-.7-1.96.23-2.8.69-1.5,1.11-1.99,1.96-.73,1.83-.73,2.95.24,2.1.73,2.95,1.15,1.5,1.98,1.96c.83.46,1.76.69,2.77.69s1.94-.23,2.78-.69Z"></path>
        <path class="cls-11" d="m544.5,270.54c-.12-.12-.18-.26-.18-.44,0-.17.06-.31.18-.43.12-.12.26-.18.44-.18.16,0,.31.06.43.18s.19.27.19.43c0,.18-.06.32-.19.44-.12.12-.27.18-.43.18-.18,0-.32-.06-.44-.18Z"></path>
        <path class="cls-11" d="m550.62,270.18c-.98-.54-1.74-1.29-2.29-2.26-.55-.97-.83-2.09-.83-3.36s.28-2.39.83-3.37c.55-.98,1.32-1.73,2.29-2.27.98-.53,2.08-.8,3.3-.8,1.69,0,3.1.46,4.22,1.39v.94c-1.07-.99-2.46-1.48-4.16-1.48-1.06,0-2.01.23-2.85.69s-1.5,1.11-1.98,1.96-.72,1.83-.72,2.95.24,2.11.73,2.96,1.16,1.49,2,1.95c.85.46,1.79.69,2.82.69.89,0,1.69-.12,2.4-.36.71-.24,1.35-.64,1.92-1.21v.94c-1.05.98-2.5,1.46-4.38,1.46-1.22,0-2.32-.27-3.3-.8Z"></path>
        <path class="cls-11" d="m560.41,270.54c-.12-.12-.18-.26-.18-.44,0-.17.06-.31.18-.43.12-.12.26-.18.44-.18.16,0,.31.06.43.18s.19.27.19.43c0,.18-.06.32-.19.44-.12.12-.27.18-.43.18-.18,0-.32-.06-.44-.18Z"></path>
      </g>
      <g>
        <path class="cls-11" d="m43.67,282.7h-4.08v-.79h9.08v.79h-4.07v11.54h-.93v-11.54Z"></path>
        <path class="cls-11" d="m49.5,293.32c-.84-.78-1.26-1.88-1.26-3.31s.38-2.49,1.14-3.3c.76-.81,1.84-1.22,3.24-1.22.94,0,1.74.18,2.4.55.66.37,1.16.87,1.49,1.52.33.65.5,1.38.5,2.21v.58h-7.92c.02,1.12.39,1.96,1.11,2.54.72.58,1.69.86,2.91.86.55,0,1.09-.05,1.62-.14s1-.23,1.41-.41v.79c-.34.14-.81.26-1.4.35-.59.09-1.16.14-1.7.14-1.52,0-2.7-.39-3.54-1.17Zm6.66-3.66c-.01-1.05-.31-1.88-.9-2.49s-1.47-.92-2.65-.92-2.03.32-2.62.95c-.59.63-.9,1.45-.91,2.45h7.07Z"></path>
        <path class="cls-11" d="m59.3,281.2h.92v13.04h-.92v-13.04Z"></path>
        <path class="cls-11" d="m62.68,294.06c-.12-.12-.18-.26-.18-.44,0-.17.06-.31.18-.43.12-.12.26-.18.44-.18.16,0,.31.06.43.18s.19.27.19.43c0,.18-.06.32-.19.44-.12.12-.27.18-.43.18-.18,0-.32-.06-.44-.18Z"></path>
        <path class="cls-11" d="m74.76,289.43h-2.21v-.78h2.21v-2.22h.78v2.22h2.22v.78h-2.22v2.21h-.78v-2.21Z"></path>
      </g>
      <g>
        <path class="cls-11" d="m82.83,293.58c-.73-.61-1.1-1.48-1.1-2.61,0-.86.24-1.57.71-2.12s1.1-.92,1.88-1.08c-.65-.18-1.17-.52-1.56-1.04-.39-.52-.59-1.13-.59-1.85,0-.99.34-1.77,1.01-2.35.68-.58,1.57-.87,2.69-.87s2.01.29,2.69.87c.68.58,1.01,1.37,1.01,2.35,0,.72-.19,1.33-.58,1.85-.39.52-.91.87-1.55,1.04.78.17,1.4.53,1.88,1.08.48.56.71,1.27.71,2.12,0,1.13-.37,2-1.11,2.61-.74.61-1.76.92-3.05.92s-2.31-.31-3.04-.92Zm5.45-.54c.57-.5.86-1.21.86-2.13s-.3-1.57-.9-2.07-1.39-.75-2.36-.75-1.76.25-2.36.75-.9,1.19-.9,2.07.28,1.63.86,2.13c.57.5,1.37.75,2.41.75s1.84-.25,2.41-.75Zm-.36-6.3c.52-.45.78-1.06.78-1.81s-.26-1.38-.77-1.84-1.2-.7-2.05-.7-1.54.23-2.05.7c-.51.46-.76,1.08-.76,1.84s.26,1.36.77,1.81c.51.45,1.19.68,2.04.68s1.53-.23,2.05-.68Z"></path>
        <path class="cls-11" d="m93.08,293.58c-.73-.61-1.1-1.48-1.1-2.61,0-.86.24-1.57.71-2.12s1.1-.92,1.88-1.08c-.65-.18-1.17-.52-1.56-1.04-.39-.52-.59-1.13-.59-1.85,0-.99.34-1.77,1.01-2.35.68-.58,1.57-.87,2.69-.87s2.01.29,2.69.87c.68.58,1.01,1.37,1.01,2.35,0,.72-.19,1.33-.58,1.85-.39.52-.91.87-1.55,1.04.78.17,1.4.53,1.88,1.08.48.56.71,1.27.71,2.12,0,1.13-.37,2-1.11,2.61-.74.61-1.76.92-3.05.92s-2.31-.31-3.04-.92Zm5.45-.54c.57-.5.86-1.21.86-2.13s-.3-1.57-.9-2.07-1.39-.75-2.36-.75-1.76.25-2.36.75-.9,1.19-.9,2.07.28,1.63.86,2.13c.57.5,1.37.75,2.41.75s1.84-.25,2.41-.75Zm-.36-6.3c.52-.45.78-1.06.78-1.81s-.26-1.38-.77-1.84-1.2-.7-2.05-.7-1.54.23-2.05.7c-.51.46-.76,1.08-.76,1.84s.26,1.36.77,1.81c.51.45,1.19.68,2.04.68s1.53-.23,2.05-.68Z"></path>
        <path class="cls-11" d="m104.35,293.93c-.65-.38-1.17-.94-1.55-1.69-.38-.75-.57-1.68-.57-2.77,0-5.22,1.85-7.83,5.56-7.83.54,0,1,.05,1.38.14v.83c-.33-.11-.76-.16-1.31-.16-1.54,0-2.68.5-3.41,1.49-.73.99-1.16,2.5-1.28,4.52.31-.64.77-1.13,1.4-1.48.63-.35,1.34-.53,2.14-.53s1.47.17,2.07.5c.61.34,1.08.81,1.41,1.41.33.61.5,1.3.5,2.09s-.17,1.49-.51,2.1c-.34.61-.83,1.09-1.46,1.43s-1.36.51-2.2.51-1.53-.19-2.18-.56Zm4.55-1.11c.59-.59.89-1.38.89-2.36s-.3-1.75-.89-2.33c-.59-.58-1.38-.86-2.37-.86-.6,0-1.15.14-1.65.41-.5.27-.89.65-1.18,1.14-.29.49-.43,1.05-.43,1.68,0,.56.13,1.09.41,1.59.27.49.66.89,1.16,1.18.5.29,1.07.44,1.7.44.99,0,1.78-.29,2.37-.88Z"></path>
      </g>
      <path class="cls-11" d="m112.81,294.06c-.12-.12-.18-.26-.18-.44,0-.17.06-.31.18-.43.12-.12.26-.18.44-.18.16,0,.31.06.43.18s.19.27.19.43c0,.18-.06.32-.19.44-.12.12-.27.18-.43.18-.18,0-.32-.06-.44-.18Z"></path>
      <path class="cls-11" d="m122.76,282.7h-7.13v-.79h8.06v.81l-5.17,11.52h-.92l5.15-11.54Z"></path>
      <path class="cls-11" d="m125.63,294.06c-.12-.12-.18-.26-.18-.44,0-.17.06-.31.18-.43.12-.12.26-.18.44-.18.16,0,.31.06.43.18s.19.27.19.43c0,.18-.06.32-.19.44-.12.12-.27.18-.43.18-.18,0-.32-.06-.44-.18Z"></path>
      <g>
        <path class="cls-11" d="m130.27,294.35c-.62-.1-1.17-.25-1.64-.45v-.88c.51.24,1.06.41,1.68.52.61.11,1.22.17,1.82.17,2.4,0,3.6-.91,3.6-2.73s-1.28-2.61-3.83-2.61h-1.27v-.79h1.25c1.01,0,1.84-.23,2.48-.69.64-.46.96-1.1.96-1.92s-.25-1.43-.74-1.86c-.49-.43-1.23-.64-2.2-.64-.65,0-1.22.07-1.73.22-.51.15-1.05.4-1.64.75v-.85c1.01-.62,2.16-.93,3.44-.93s2.16.29,2.81.88c.65.59.98,1.4.98,2.43,0,.74-.21,1.37-.63,1.88s-1.05.88-1.89,1.1c.92.12,1.63.44,2.15.97s.78,1.22.78,2.06c0,1.08-.36,1.94-1.08,2.58-.72.63-1.85.95-3.39.95-.65,0-1.28-.05-1.91-.15Z"></path>
        <path class="cls-11" d="m140.71,293.93c-.65-.38-1.17-.94-1.55-1.69-.38-.75-.57-1.68-.57-2.77,0-5.22,1.85-7.83,5.56-7.83.54,0,1,.05,1.38.14v.83c-.33-.11-.76-.16-1.31-.16-1.54,0-2.68.5-3.41,1.49-.73.99-1.16,2.5-1.28,4.52.31-.64.77-1.13,1.4-1.48.63-.35,1.34-.53,2.14-.53s1.47.17,2.07.5c.61.34,1.08.81,1.41,1.41.33.61.5,1.3.5,2.09s-.17,1.49-.51,2.1c-.34.61-.83,1.09-1.46,1.43s-1.36.51-2.2.51-1.53-.19-2.18-.56Zm4.55-1.11c.59-.59.89-1.38.89-2.36s-.3-1.75-.89-2.33c-.59-.58-1.38-.86-2.37-.86-.6,0-1.15.14-1.65.41-.5.27-.89.65-1.18,1.14-.29.49-.43,1.05-.43,1.68,0,.56.13,1.09.41,1.59.27.49.66.89,1.16,1.18.5.29,1.07.44,1.7.44.99,0,1.78-.29,2.37-.88Z"></path>
        <path class="cls-11" d="m151.76,282.96l-2.77,2.01v-.99l2.84-2.08h.86v12.33h-.93v-11.27Z"></path>
      </g>
      <path class="cls-11" d="m155.16,294.06c-.12-.12-.18-.26-.18-.44,0-.17.06-.31.18-.43.12-.12.26-.18.44-.18.16,0,.31.06.43.18s.19.27.19.43c0,.18-.06.32-.19.44-.12.12-.27.18-.43.18-.18,0-.32-.06-.44-.18Z"></path>
      <g>
        <path class="cls-11" d="m165.11,282.7h-7.13v-.79h8.06v.81l-5.17,11.52h-.92l5.15-11.54Z"></path>
        <path class="cls-11" d="m170.58,282.96l-2.77,2.01v-.99l2.84-2.08h.86v12.33h-.93v-11.27Z"></path>
        <path class="cls-11" d="m175.45,294.35c-.62-.1-1.17-.25-1.64-.45v-.88c.51.24,1.06.41,1.68.52.61.11,1.22.17,1.82.17,2.4,0,3.6-.91,3.6-2.73s-1.28-2.61-3.83-2.61h-1.27v-.79h1.25c1.01,0,1.84-.23,2.48-.69.64-.46.96-1.1.96-1.92s-.25-1.43-.74-1.86c-.49-.43-1.23-.64-2.2-.64-.65,0-1.22.07-1.73.22-.51.15-1.05.4-1.64.75v-.85c1.01-.62,2.16-.93,3.44-.93s2.16.29,2.81.88c.65.59.98,1.4.98,2.43,0,.74-.21,1.37-.63,1.88s-1.05.88-1.89,1.1c.92.12,1.63.44,2.15.97s.78,1.22.78,2.06c0,1.08-.36,1.94-1.08,2.58-.72.63-1.85.95-3.39.95-.65,0-1.28-.05-1.91-.15Z"></path>
        <path class="cls-11" d="m186.52,282.96l-2.77,2.01v-.99l2.84-2.08h.86v12.33h-.93v-11.27Z"></path>
      </g>
      <g>
        <path class="cls-11" d="m197.89,293.32c-.84-.78-1.26-1.88-1.26-3.31s.38-2.49,1.14-3.3c.76-.81,1.84-1.22,3.24-1.22.94,0,1.74.18,2.4.55.66.37,1.16.87,1.49,1.52.33.65.5,1.38.5,2.21v.58h-7.92c.02,1.12.39,1.96,1.11,2.54.72.58,1.69.86,2.91.86.55,0,1.09-.05,1.62-.14s1-.23,1.41-.41v.79c-.34.14-.81.26-1.4.35-.59.09-1.16.14-1.7.14-1.52,0-2.7-.39-3.54-1.17Zm6.66-3.66c-.01-1.05-.31-1.88-.9-2.49s-1.47-.92-2.65-.92-2.03.32-2.62.95c-.59.63-.9,1.45-.91,2.45h7.07Z"></path>
        <path class="cls-11" d="m210.97,289.77l-3.26-4h1.08l2.72,3.33,2.72-3.33h1.08l-3.26,3.99,3.65,4.48h-1.06l-3.12-3.81-3.12,3.81h-1.04l3.63-4.46Z"></path>
        <path class="cls-11" d="m218.8,293.85c-.41-.43-.62-1.06-.62-1.9v-5.45h-1.36v-.74h1.36v-2.54h.92v2.54h2.19v.74h-2.19v5.49c0,.62.13,1.07.41,1.35.27.28.72.41,1.36.41.29,0,.6-.06.92-.18v.78c-.32.09-.73.14-1.24.14-.75,0-1.33-.21-1.75-.64Z"></path>
        <path class="cls-11" d="m223.6,294.06c-.12-.12-.18-.26-.18-.44,0-.17.06-.31.18-.43.12-.12.26-.18.44-.18.16,0,.31.06.43.18s.19.27.19.43c0,.18-.06.32-.19.44-.12.12-.27.18-.43.18-.18,0-.32-.06-.44-.18Z"></path>
        <path class="cls-11" d="m235.28,290.83h-1.8v-.79h2.03l1.08-3.81h-2.4v-.79h2.61l1.01-3.53h.86l-1.01,3.53h4.46l1-3.53h.88l-1.01,3.53h1.73v.79h-1.94l-1.08,3.81h2.31v.79h-2.54l-.95,3.4h-.88l.95-3.4h-4.46l-.95,3.4h-.86l.95-3.4Zm5.56-.79l1.08-3.81h-4.46l-1.08,3.81h4.46Z"></path>
        <path class="cls-11" d="m248.47,290.83h-1.8v-.79h2.03l1.08-3.81h-2.4v-.79h2.61l1.01-3.53h.86l-1.01,3.53h4.46l1-3.53h.88l-1.01,3.53h1.73v.79h-1.94l-1.08,3.81h2.31v.79h-2.54l-.95,3.4h-.88l.95-3.4h-4.46l-.95,3.4h-.86l.95-3.4Zm5.56-.79l1.08-3.81h-4.46l-1.08,3.81h4.46Z"></path>
        <path class="cls-11" d="m261.66,290.83h-1.8v-.79h2.03l1.08-3.81h-2.4v-.79h2.61l1.01-3.53h.86l-1.01,3.53h4.46l1-3.53h.88l-1.01,3.53h1.73v.79h-1.94l-1.08,3.81h2.31v.79h-2.54l-.95,3.4h-.88l.95-3.4h-4.46l-.95,3.4h-.86l.95-3.4Zm5.56-.79l1.08-3.81h-4.46l-1.08,3.81h4.46Z"></path>
        <path class="cls-11" d="m274.86,290.83h-1.8v-.79h2.03l1.08-3.81h-2.4v-.79h2.61l1.01-3.53h.86l-1.01,3.53h4.46l1-3.53h.88l-1.01,3.53h1.73v.79h-1.94l-1.08,3.81h2.31v.79h-2.54l-.95,3.4h-.88l.95-3.4h-4.46l-.95,3.4h-.86l.95-3.4Zm5.56-.79l1.08-3.81h-4.46l-1.08,3.81h4.46Z"></path>
        <path class="cls-11" d="m288.05,290.83h-1.8v-.79h2.03l1.08-3.81h-2.4v-.79h2.61l1.01-3.53h.86l-1.01,3.53h4.46l1-3.53h.88l-1.01,3.53h1.73v.79h-1.94l-1.08,3.81h2.31v.79h-2.54l-.95,3.4h-.88l.95-3.4h-4.46l-.95,3.4h-.86l.95-3.4Zm5.56-.79l1.08-3.81h-4.46l-1.08,3.81h4.46Z"></path>
      </g>
      <g>
        <path class="cls-11" d="m40.7,317.23c-.62-.52-.93-1.23-.93-2.12,0-.94.3-1.67.89-2.18s1.44-.77,2.53-.77c1.16,0,2.15.24,2.96.71v-.44c0-.67-.2-1.17-.61-1.49-.41-.32-1.04-.49-1.91-.49-.52,0-1.02.05-1.51.15s-.93.24-1.31.41v-1.45c.35-.16.81-.3,1.38-.4s1.11-.15,1.64-.15c1.4,0,2.44.31,3.11.93.68.62,1.01,1.47,1.01,2.57v5.24h-1.68v-.95c-.37.4-.8.7-1.3.91-.5.21-1.11.31-1.83.31-1.02,0-1.84-.26-2.46-.79Zm4.44-.91c.46-.22.8-.54,1.02-.93v-1.15c-.76-.49-1.62-.74-2.56-.74-.68,0-1.19.13-1.53.4s-.5.67-.5,1.21c0,1.03.68,1.55,2.03,1.55.56,0,1.08-.11,1.54-.33Z"></path>
        <path class="cls-11" d="m51.15,317.79c-.66-.15-1.18-.34-1.55-.59v-1.52c.46.27.99.49,1.59.66.6.17,1.18.26,1.75.26.63,0,1.1-.08,1.39-.23.29-.15.44-.4.44-.74,0-.26-.07-.47-.2-.63-.14-.16-.37-.3-.69-.43-.32-.13-.81-.28-1.46-.46-.69-.2-1.24-.4-1.65-.61-.41-.21-.71-.47-.92-.79-.21-.32-.31-.73-.31-1.23,0-.81.32-1.43.96-1.84.64-.42,1.5-.63,2.58-.63.56,0,1.12.05,1.66.16.54.11.98.25,1.31.44v1.48c-.34-.2-.76-.36-1.26-.48s-1.01-.18-1.53-.18c-.62,0-1.1.08-1.43.23-.33.15-.49.42-.49.81,0,.25.07.45.21.6.14.15.37.29.68.4.31.11.81.26,1.49.43,1.07.29,1.81.64,2.23,1.04.42.4.63.95.63,1.66s-.3,1.31-.9,1.75c-.6.43-1.49.65-2.66.65-.59,0-1.21-.07-1.87-.22Z"></path>
        <path class="cls-11" d="m59.5,316.84c-.89-.78-1.33-1.88-1.33-3.31s.4-2.49,1.19-3.3c.79-.81,1.93-1.22,3.4-1.22.98,0,1.8.19,2.49.56.68.37,1.2.88,1.54,1.54.35.65.52,1.4.52,2.23v.88h-7.44c.06.8.4,1.4,1.01,1.79.62.39,1.46.59,2.51.59.54,0,1.09-.05,1.64-.15.55-.1,1.04-.23,1.46-.4v1.43c-.38.15-.87.28-1.49.38-.62.1-1.23.15-1.83.15-1.56,0-2.79-.39-3.68-1.17Zm6.13-3.87c-.02-.8-.29-1.42-.79-1.86-.5-.44-1.21-.66-2.12-.66s-1.59.23-2.08.69c-.49.46-.75,1.07-.78,1.83h5.77Z"></path>
        <path class="cls-11" d="m71.99,321.67c-.55-.09-1.01-.23-1.38-.41v-1.46c.88.4,1.91.6,3.07.6,1.09,0,1.89-.24,2.39-.71.5-.48.75-1.2.75-2.16v-.9c-.78.93-1.92,1.39-3.42,1.39-.86,0-1.63-.19-2.31-.56-.68-.38-1.22-.91-1.61-1.59-.39-.68-.58-1.46-.58-2.35s.19-1.68.57-2.35c.38-.68.91-1.2,1.59-1.58.68-.38,1.44-.56,2.28-.56.79,0,1.46.12,2,.34.55.23,1.05.61,1.53,1.14v-1.22h1.73v8.04c0,1.45-.4,2.55-1.21,3.32-.81.77-2.04,1.16-3.71,1.16-.58,0-1.14-.05-1.68-.14Zm3.69-5.64c.56-.39.94-.91,1.14-1.55v-1.9c-.22-.66-.61-1.18-1.16-1.55-.55-.38-1.19-.56-1.91-.56-.58,0-1.1.13-1.56.38-.46.25-.83.61-1.09,1.08-.26.47-.4,1.01-.4,1.61s.13,1.15.4,1.61c.26.46.63.83,1.09,1.08.46.26.99.39,1.56.39.73,0,1.37-.19,1.93-.58Z"></path>
        <path class="cls-11" d="m80.88,304.72h1.78v13.04h-1.78v-13.04Z"></path>
        <path class="cls-11" d="m86.91,317.48c-.72-.36-1.29-.88-1.69-1.55-.41-.68-.61-1.47-.61-2.39s.2-1.7.6-2.38c.4-.68.96-1.21,1.69-1.58.73-.37,1.57-.56,2.52-.56s1.79.19,2.52.56c.73.37,1.3.9,1.7,1.58.41.68.61,1.48.61,2.38s-.2,1.71-.61,2.39c-.41.68-.97,1.19-1.7,1.55-.73.36-1.57.54-2.52.54s-1.79-.18-2.51-.54Zm4.7-1.72c.54-.56.81-1.31.81-2.22s-.27-1.71-.81-2.26c-.54-.55-1.27-.83-2.19-.83s-1.65.28-2.19.83-.81,1.31-.81,2.26.27,1.66.81,2.22,1.27.85,2.19.85,1.65-.28,2.19-.85Z"></path>
        <path class="cls-11" d="m99.2,317.65c-.56-.24-1.07-.62-1.54-1.14v1.23h-1.73v-13.04h1.78v5.7c.39-.46.89-.81,1.5-1.04.61-.23,1.27-.35,1.98-.35.85,0,1.61.19,2.28.57.68.38,1.21.92,1.59,1.6s.57,1.46.57,2.35-.19,1.68-.57,2.35c-.38.68-.91,1.2-1.59,1.57-.68.37-1.44.56-2.28.56-.76,0-1.43-.12-1.98-.36Zm3.14-1.43c.46-.25.83-.61,1.09-1.08.26-.47.4-1.01.4-1.61s-.13-1.13-.4-1.61c-.26-.47-.63-.83-1.09-1.09-.46-.26-.99-.39-1.56-.39-.72,0-1.36.19-1.92.58-.56.39-.95.91-1.15,1.55v1.9c.22.65.61,1.16,1.16,1.54s1.18.57,1.91.57c.58,0,1.1-.13,1.56-.38Z"></path>
        <path class="cls-11" d="m107.7,317.23c-.62-.52-.93-1.23-.93-2.12,0-.94.3-1.67.89-2.18s1.44-.77,2.53-.77c1.16,0,2.15.24,2.96.71v-.44c0-.67-.2-1.17-.61-1.49-.41-.32-1.04-.49-1.91-.49-.52,0-1.02.05-1.51.15s-.93.24-1.31.41v-1.45c.35-.16.81-.3,1.38-.4s1.11-.15,1.64-.15c1.4,0,2.44.31,3.11.93.68.62,1.01,1.47,1.01,2.57v5.24h-1.68v-.95c-.37.4-.8.7-1.3.91-.5.21-1.11.31-1.83.31-1.02,0-1.84-.26-2.46-.79Zm4.44-.91c.46-.22.8-.54,1.02-.93v-1.15c-.76-.49-1.62-.74-2.56-.74-.68,0-1.19.13-1.53.4s-.5.67-.5,1.21c0,1.03.68,1.55,2.03,1.55.56,0,1.08-.11,1.54-.33Z"></path>
        <path class="cls-11" d="m117.17,304.72h1.78v13.04h-1.78v-13.04Z"></path>
        <path class="cls-11" d="m121.13,317.51c-.16-.16-.24-.36-.24-.59s.08-.43.24-.6c.16-.17.36-.25.59-.25s.43.08.6.25c.16.17.25.36.25.6s-.08.43-.25.59c-.17.16-.37.24-.6.24s-.43-.08-.59-.24Z"></path>
        <path class="cls-11" d="m126.46,317.49c-.73-.35-1.3-.87-1.7-1.54-.41-.68-.61-1.48-.61-2.41s.2-1.73.61-2.41c.41-.68.98-1.2,1.71-1.56.73-.36,1.58-.55,2.53-.55,1.29,0,2.33.25,3.1.76v1.46c-.76-.53-1.74-.79-2.93-.79-.96,0-1.74.26-2.34.79s-.89,1.29-.89,2.3.29,1.78.88,2.29,1.36.78,2.31.78c1.19,0,2.21-.28,3.07-.85v1.45c-.41.28-.88.49-1.4.62-.52.13-1.14.19-1.84.19-.94,0-1.78-.18-2.5-.53Z"></path>
        <path class="cls-11" d="m135.84,317.48c-.72-.36-1.29-.88-1.69-1.55-.41-.68-.61-1.47-.61-2.39s.2-1.7.6-2.38c.4-.68.96-1.21,1.69-1.58.73-.37,1.57-.56,2.52-.56s1.79.19,2.52.56c.73.37,1.3.9,1.7,1.58.41.68.61,1.48.61,2.38s-.2,1.71-.61,2.39c-.41.68-.97,1.19-1.7,1.55-.73.36-1.57.54-2.52.54s-1.79-.18-2.51-.54Zm4.7-1.72c.54-.56.81-1.31.81-2.22s-.27-1.71-.81-2.26c-.54-.55-1.27-.83-2.19-.83s-1.65.28-2.19.83-.81,1.31-.81,2.26.27,1.66.81,2.22,1.27.85,2.19.85,1.65-.28,2.19-.85Z"></path>
        <path class="cls-11" d="m145.12,309.28h1.69v1.22c.4-.49.85-.86,1.36-1.11.5-.25,1.03-.37,1.57-.37.68,0,1.22.12,1.62.34.4.23.69.58.88,1.05.38-.46.84-.81,1.38-1.04.55-.23,1.1-.35,1.65-.35,1.03,0,1.78.26,2.24.79.46.52.69,1.3.69,2.32v5.63h-1.73v-5.4c0-.69-.13-1.18-.39-1.47-.26-.29-.7-.43-1.32-.43-.89,0-1.62.39-2.19,1.16.02.18.04.46.04.86v5.27h-1.73v-5.4c0-.69-.12-1.18-.35-1.47s-.66-.43-1.27-.43c-.89,0-1.69.51-2.4,1.52v5.79h-1.75v-8.47Z"></path>
      </g>
    </g>
  </g>
</svg>
