<?xml version="1.0" encoding="UTF-8"?>
<svg xmlns="http://www.w3.org/2000/svg" xmlns:xlink="http://www.w3.org/1999/xlink" width="600" height="360" viewBox="0 0 600 360">
  <defs>
    <clipPath id="a">
      <rect width="600" height="360" transform="translate(0 0)" fill="none"></rect>
    </clipPath>
    <clipPath id="b">
      <rect width="613.333" height="20" transform="translate(-6.525 346.667)" fill="none"></rect>
    </clipPath>
    <linearGradient id="c" x1="1" y1="0.5" x2="0" y2="0.5" gradientUnits="objectBoundingBox">
      <stop offset="0" stop-color="#ea664a"></stop>
      <stop offset="0.185" stop-color="#b3584c"></stop>
      <stop offset="0.388" stop-color="#7e4a4e"></stop>
      <stop offset="0.579" stop-color="#543f50"></stop>
      <stop offset="0.75" stop-color="#353851"></stop>
      <stop offset="0.896" stop-color="#233352"></stop>
      <stop offset="1" stop-color="#1d3253"></stop>
    </linearGradient>
  </defs>
  <rect width="600" height="360" transform="translate(0 0)" fill="#fff"></rect>
  <g clip-path="url(#a)">
    <path d="M52,47.221a.847.847,0,1,1-.8,1.13H-6.808v-.566H51.2a.853.853,0,0,1,.8-.564m8.569,7.53a.845.845,0,1,1-.8,1.127l-66.579.015v-.564l66.579-.015A.846.846,0,0,1,60.568,54.751ZM-6.808,14.476H60.447L94.323,48.351h226.57l22.586-22.585H459.395L510.888,77.26a.822.822,0,0,0,.16.958.846.846,0,0,0,1.2-1.2.819.819,0,0,0-.957-.16L459.628,25.2H343.246L320.661,47.785H94.555L60.679,13.91H-6.808Zm0,7.527H57.325l33.53,33.876H324.3L346.6,33.294H456.273l49.29,49.291a.821.821,0,0,0,.16.958.846.846,0,1,0,1.2-1.2.818.818,0,0,0-.957-.16L456.505,32.729H346.365l-22.3,22.585H91.09L57.559,21.438H-6.808Zm0,7.529H54.2L87.739,63.406H326.927L349.72,40.823H453.152l46.937,46.936a.821.821,0,0,0,.16.958.846.846,0,0,0,1.2-1.2.818.818,0,0,0-.957-.16l-47.1-47.1h-103.9L326.694,62.843H87.975L54.439,28.967H-6.808Zm0,7.529H51.629l33.7,33.875q122.692-.693,245.506-.693l21.892-21.892h97.418l44.826,44.825a.82.82,0,0,0,.16.957.846.846,0,0,0,1.2-1.2.819.819,0,0,0-.957-.16L450.377,47.785H352.495L330.6,69.679l-245.039.692-33.7-33.876H-6.808Zm613.332,26-87.194.015L450.7-4.907H352.281L318.406,28.968H121.171L108.522,41.617v1.892a.848.848,0,1,0,.565,0v-1.66L121.4,29.533H318.638L352.513-4.341h97.958L519.1,63.642l87.427-.015Zm0,7.308H516.087L447.7,2.621H355.288L321.413,36.5H124.178l-7.486,7.485a.818.818,0,0,0-.957.16.846.846,0,1,0,1.2,1.2.821.821,0,0,0,.16-.958l7.319-7.317H321.645L355.52,3.187h91.943l68.392,67.749h90.669ZM320.563-5.471a.849.849,0,0,1,.847.847.849.849,0,0,1-.847.847.854.854,0,0,1-.8-.564H114.684l-7.812,7.812a.818.818,0,0,1-.16.957.846.846,0,0,1-1.2-1.2.818.818,0,0,1,.957-.16l7.979-7.979H319.764A.853.853,0,0,1,320.563-5.471Zm-7.476,7.477a.846.846,0,1,1-.8,1.127l-194.6.053-5.748,5.747a.821.821,0,0,1-.16.958.846.846,0,1,1-1.2-1.2.817.817,0,0,1,.957-.16l5.914-5.913,194.832-.053A.851.851,0,0,1,313.087,2.006ZM-6.808-4.341H59L69.961,6.62a.818.818,0,0,0,.16.957.846.846,0,0,0,1.2-1.2.821.821,0,0,0-.958-.16L59.229-4.907H-6.808Zm0,7.528h62.8l8.7,8.7a.819.819,0,0,0,.16.957.846.846,0,0,0,1.2-1.2.818.818,0,0,0-.957-.16L56.223,2.621H-6.808Zm523.9,6.65a.846.846,0,0,1,1.2-1.2.821.821,0,0,1,.162.952l11.838,11.845h76.231V22H530.061L518.054,10A.823.823,0,0,1,517.1,9.837Zm10.256-.279a.846.846,0,0,1,1.2-1.2.824.824,0,0,1,.162.952l4.589,4.6h73.224v.566H533.068L528.31,9.718A.82.82,0,0,1,527.353,9.558ZM506.18,8.79A.847.847,0,0,1,507.4,7.615a.828.828,0,0,1,.145.964l19.633,20.388h79.347v.565H526.937l-19.8-20.557A.863.863,0,0,1,506.18,8.79ZM495.935,9.973a.846.846,0,1,1,1.2-1.2.828.828,0,0,1,.162.952l26.759,26.766h82.472v.566h-82.7L496.892,10.133A.823.823,0,0,1,495.935,9.973ZM-6.808,158.259H119.851l22.306-22.586H251.828l43.7,43.7a.818.818,0,0,0,.16.957.845.845,0,0,0,1.2-1.2.819.819,0,0,0-.957-.16L252.06,135.107H141.921l-22.306,22.586H-6.808Zm0,7.526H122.483L145.275,143.2H248.707l36.173,36.173a.818.818,0,0,0,.16.957.846.846,0,0,0,1.2-1.2.82.82,0,0,0-.957-.16l-36.34-36.339h-103.9l-22.794,22.586H-6.808Zm467.7-16.185a.847.847,0,1,1-.8,1.13H320.659l-68.18-67.541H141.618l-33.666,33.666H-6.808v-.565H107.72l33.666-33.666H252.711l68.18,67.541h139.2A.854.854,0,0,1,460.889,149.6Zm8.568,7.529a.846.846,0,1,1-.8,1.128l-151.092.031L249.147,90.509h-104.2l-33.874,33.874H-6.808v-.565H110.841l33.874-33.875H249.379L317.8,157.724l150.858-.031A.848.848,0,0,1,469.457,157.129Zm4.414,7.53a.845.845,0,1,1-.8,1.128l-158.423.234L246.026,98.038H148.068l-33.875,33.874h-121v-.565H113.961l33.875-33.875h98.422l68.627,67.985,158.19-.234A.849.849,0,0,1,473.871,164.659Zm7.79,7.526a.848.848,0,1,1-.8,1.13H311.411l-68.392-67.749H151.075L117.2,139.441H-6.808v-.566H116.969L150.843,105h92.408l68.392,67.749h169.22A.854.854,0,0,1,481.661,172.185ZM116.119,96.907a.847.847,0,1,1-.8,1.131H-6.808v-.566H115.32A.854.854,0,0,1,116.119,96.907Zm7.528-7.528a.847.847,0,1,1-.8,1.13H-6.809v-.566H122.849A.853.853,0,0,1,123.647,89.379ZM606.524,116.29H523.819l-21.465,21.465v4.356a.848.848,0,1,0,.565,0v-4.124l21.132-21.132h82.473Zm0,7.528H526.939l-17.056,17.057v5.013a.848.848,0,1,0,.565,0v-4.781l16.723-16.724h79.353Zm0,7.529H530.06L517.411,144v1.892a.848.848,0,1,0,.565,0v-1.66l12.316-12.316h76.232Zm0,7.528H533.067l-7.486,7.485a.82.82,0,0,0-.957.16.846.846,0,0,0,1.2,1.2.819.819,0,0,0,.16-.957l7.319-7.318h73.225Zm0-56.46H517.1L504.629,94.886a.818.818,0,0,0-.957.16.846.846,0,0,0,1.2,1.2.819.819,0,0,0,.16-.957l12.3-12.3h89.192Zm0,15.057H523.341l-7.978,7.979a.818.818,0,0,0-.958.16.846.846,0,0,0,1.2,1.2.818.818,0,0,0,.16-.958l7.812-7.811h82.951Zm0,7.529H526.349l-5.914,5.912a.821.821,0,0,0-.958.16.846.846,0,1,0,1.2,1.2.818.818,0,0,0,.16-.957l5.748-5.746h79.943Zm0-15.058h-86.3l-9.832,9.832a.821.821,0,0,0-.958.16.846.846,0,0,0,1.2,1.2.817.817,0,0,0,.16-.957l9.666-9.665h86.071Zm-339.873-6.55a.847.847,0,1,1,.8-1.13H474.21l15.823,15.829a.918.918,0,0,1,.968.172.846.846,0,1,1-1.2,1.2.83.83,0,0,1-.16-.957L473.977,82.829H267.45A.853.853,0,0,1,266.651,83.393ZM279.624,98.6a.847.847,0,1,1,.8-1.13h187.7L479.248,108.6a.817.817,0,0,1,.957.16.846.846,0,0,1-1.2,1.2.821.821,0,0,1-.16-.958L467.887,98.038H280.423A.857.857,0,0,1,279.624,98.6Zm6.68,7.529a.847.847,0,1,1,.8-1.13H465.111l8.87,8.868a.82.82,0,0,1,.958.16.846.846,0,0,1-1.2,1.2.82.82,0,0,1-.16-.958l-8.7-8.7H287.1A.856.856,0,0,1,286.3,106.131Zm-13-15.058a.847.847,0,1,1,.8-1.13H471.24l13.333,13.334a.818.818,0,0,1,.958.16.846.846,0,0,1-1.2,1.2.818.818,0,0,1-.16-.958L471.008,90.509H274.1A.853.853,0,0,1,273.3,91.073Zm39.349,21.142a.846.846,0,1,1,1.2-1.2.828.828,0,0,1,.162.953l11.839,11.845h140.6l33.53,33.876H606.524v.566H499.745l-33.531-33.876h-140.6l-12.008-12.008A.82.82,0,0,1,312.652,112.215Zm10.256-.278a.846.846,0,0,1,1.2-1.2.824.824,0,0,1,.163.952l4.588,4.6H469.568l33.875,33.876H606.524v.565H503.211l-33.875-33.876H328.623l-4.758-4.757A.823.823,0,0,1,322.908,111.937Zm-21.172-.768A.846.846,0,0,1,302.955,110a.828.828,0,0,1,.145.964l19.632,20.386h140.6l33.535,33.876H606.524v.565H496.629l-33.536-33.875h-140.6l-19.8-20.556A.865.865,0,0,1,301.736,111.169Zm-10.246,1.182a.846.846,0,0,1,1.2-1.2.828.828,0,0,1,.162.953l26.759,26.766H460.753l33.011,33.183h112.76v.565H493.529l-33.01-33.183H319.375l-26.928-26.928A.82.82,0,0,1,291.49,112.351ZM484.068-3.777a.849.849,0,0,1-.847-.847.848.848,0,0,1,.847-.847.854.854,0,0,1,.8.564H606.524v.566H484.867A.855.855,0,0,1,484.068-3.777Zm6.681,7.528a.847.847,0,1,1,.8-1.13H606.524v.566H491.547A.853.853,0,0,1,490.749,3.751Zm-359.626,78.1a.847.847,0,1,1-.8,1.13H-6.808v-.566H130.324A.853.853,0,0,1,131.123,81.851ZM64.982,62.505a.845.845,0,1,1-.8,1.127l-70.994-.005v-.564l70.994.005A.85.85,0,0,1,64.982,62.505Zm43.66,41.88a.845.845,0,1,1-.8,1.128l-114.654.052V105l114.654-.052A.853.853,0,0,1,108.642,104.385ZM-6.808,150.73H116.4l22.63-22.585H254.95l51.493,51.493a.82.82,0,0,0,.16.957.846.846,0,0,0,1.2-1.2.819.819,0,0,0-.957-.16l-51.659-51.658H138.8l-22.63,22.584H-6.808Zm0,21.975,133.2-.376,22.208-21.6h97.419l28.645,28.644a.82.82,0,0,0,.16.957.846.846,0,0,0,1.2-1.2.819.819,0,0,0-.957-.16l-28.812-28.81H148.367l-22.208,21.6-132.968.376Zm0,58.575H50.505L102,282.774a.818.818,0,0,0,.16.957.846.846,0,1,0,1.2-1.2.821.821,0,0,0-.958-.16L50.739,230.717H-6.808Zm0,7.528H47.383L96.674,288.1a.821.821,0,0,0,.16.958.846.846,0,1,0,1.2-1.2.818.818,0,0,0-.957-.16L47.615,238.243H-6.808Zm0,7.529H44.263L91.2,293.273a.821.821,0,0,0,.16.958.846.846,0,1,0,1.2-1.2.818.818,0,0,0-.957-.16l-47.1-47.1h-51.3Zm0,7.528H41.256L86.082,298.69a.82.82,0,0,0,.16.957.846.846,0,1,0,1.2-1.2.819.819,0,0,0-.957-.16L41.488,253.3h-48.3Zm263.252-1.13a.847.847,0,1,1-.8,1.13H116.215l-68.181-67.54H-6.808v-.566H48.266l68.181,67.54h139.2A.855.855,0,0,1,256.444,252.735Zm8.569,7.529a.845.845,0,1,1-.8,1.127l-151.093.032L44.7,193.644H-6.808v-.565H44.934l68.423,67.78,150.859-.032A.846.846,0,0,1,265.013,260.264Zm4.414,7.763a.847.847,0,1,1-.8,1.13H110.208L41.581,201.173H-6.808v-.566H41.813l68.627,67.984H268.629A.853.853,0,0,1,269.427,268.027Zm7.79,7.293a.848.848,0,1,1-.8,1.13H106.967L38.575,208.7H-6.808v-.566H38.807l68.392,67.75H276.418A.854.854,0,0,1,277.217,275.32Zm329.307-89.561H550.275l-33.666,33.666H319.374l-21.465,21.464v4.358a.847.847,0,1,0,.566,0v-4.126l21.131-21.131H516.841l33.666-33.665h56.017Zm-.018,7.32H553.6L519.73,226.953H322.495L305.438,244.01v5.013a.848.848,0,1,0,.565,0v-4.781l16.724-16.723H519.962l33.875-33.875h52.669Zm.018,7.528h-49.8l-33.874,33.875H325.615l-12.648,12.649v1.892a.847.847,0,1,0,.565,0v-1.66l12.315-12.316H523.083l33.874-33.874h49.567Zm0,7.528H559.732L525.857,242.01H328.622l-7.485,7.485a.82.82,0,0,0-.958.16.846.846,0,0,0,1.2,1.2.82.82,0,0,0,.16-.958l7.32-7.318H526.089L559.964,208.7h46.56Zm-66.512-23.1a.846.846,0,1,1-.8,1.127l-226.327-.052-12.3,12.3a.819.819,0,0,1-.16.957.846.846,0,1,1-1.2-1.2.821.821,0,0,1,.958-.16l12.47-12.47,226.56.052A.847.847,0,0,1,540.012,185.04Zm-15.005,15a.847.847,0,1,1-.8,1.13H319.129l-7.812,7.812a.82.82,0,0,1-.16.957.846.846,0,0,1-1.2-1.2.818.818,0,0,1,.957-.16l7.979-7.979H524.209A.853.853,0,0,1,525.007,200.043Zm-7.475,7.477a.845.845,0,1,1-.8,1.127l-194.6.053-5.748,5.747a.821.821,0,0,1-.16.958.846.846,0,0,1-1.2-1.2.817.817,0,0,1,.957-.16l5.913-5.913,194.832-.053A.853.853,0,0,1,517.532,207.52Zm15-15.006a.847.847,0,1,1-.8,1.13H316.009l-9.666,9.665a.819.819,0,0,1-.16.957.846.846,0,1,1-1.2-1.2.818.818,0,0,1,.957-.16l9.833-9.831h215.96A.856.856,0,0,1,532.536,192.514ZM62.142,186.68a.847.847,0,1,1,.8-1.13H269.917l15.671,15.677a.92.92,0,0,1,.969.172.846.846,0,0,1-1.2,1.2.833.833,0,0,1-.16-.957l-15.516-15.523H62.941A.856.856,0,0,1,62.142,186.68Zm13.037,15.057a.847.847,0,1,1,.8-1.13h187.7l11.13,11.128a.82.82,0,0,1,.957.16.846.846,0,1,1-1.2,1.2.821.821,0,0,1-.16-.958l-10.963-10.961H75.978A.853.853,0,0,1,75.179,201.737Zm6.68,7.528a.847.847,0,1,1,.8-1.13H260.667l8.87,8.869a.82.82,0,0,1,.957.16.846.846,0,1,1-1.2,1.2.819.819,0,0,1-.16-.957l-8.7-8.7H82.658A.853.853,0,0,1,81.859,209.265Zm-13-15.056a.847.847,0,1,1,.8-1.13H266.8l13.334,13.333a.818.818,0,0,1,.957.16.846.846,0,1,1-1.2,1.2.818.818,0,0,1-.16-.957l-13.167-13.167H69.657A.856.856,0,0,1,68.858,194.209Zm39.349,21.142a.846.846,0,1,1,1.2-1.2.82.82,0,0,1,.163.952L121.4,226.952H262l33.531,33.876H528.5l22.306-22.585h55.714v.565H551.046l-22.3,22.585H295.3l-33.531-33.876h-140.6l-12.007-12.006A.825.825,0,0,1,108.207,215.351Zm10.256-.279a.846.846,0,1,1,1.2-1.2.824.824,0,0,1,.163.952l4.588,4.6H265.123L299,253.3H525.106l22.585-22.584h58.833v.566h-58.6l-22.585,22.584H298.767l-33.876-33.876H124.179l-4.758-4.757A.821.821,0,0,1,118.463,215.072ZM97.291,214.3a.847.847,0,1,1,1.219-1.175.828.828,0,0,1,.145.964l19.632,20.388h140.6l33.536,33.875h238.72l22.793-22.586h52.592v.566H554.165l-22.793,22.584H292.183l-33.534-33.874h-140.6L98.252,214.489A.861.861,0,0,1,97.291,214.3Zm-10.246,1.183a.846.846,0,1,1,1.2-1.2.826.826,0,0,1,.162.952l26.76,26.766H256.308l33.769,33.876H535.044L556.937,253.3h49.587v.566H557.175L535.283,276.45H289.844l-33.769-33.875H114.931L88,215.647A.824.824,0,0,1,87.045,215.487ZM52,355.114a.847.847,0,1,1-.8,1.13H-6.808v-.565H51.2A.854.854,0,0,1,52,355.114Zm8.569,7.53a.845.845,0,1,1-.8,1.127l-66.579.015v-.564l66.579-.015A.847.847,0,0,1,60.568,362.644Zm545.956-6.965H525.336l-68.181-67.541H345.831L312.165,321.8H114.929L93.465,343.269v4.357a.848.848,0,1,0,.565,0V343.5l21.131-21.132H312.4L346.063,288.7h110.86L525.1,356.244h81.42Zm0,7.558H522.245l-68.422-67.78H349.16l-33.875,33.876H118.05l-17.057,17.056V351.4a.848.848,0,1,0,.565,0v-4.781L118.282,329.9H315.517l33.875-33.875h104.2l68.422,67.78h84.511ZM335.567,287.573a.848.848,0,1,1-.8,1.13H108.234l-12.1,12.1a.82.82,0,0,1-.16.957.846.846,0,0,1-1.2-1.2.818.818,0,0,1,.957-.16L108,288.138H334.769A.854.854,0,0,1,335.567,287.573Zm-15,14.848a.848.848,0,1,1-.8,1.13H114.684l-7.812,7.812a.82.82,0,0,1-.16.958.846.846,0,0,1-1.2-1.2.817.817,0,0,1,.957-.16l7.979-7.979H319.764A.854.854,0,0,1,320.563,302.421Zm-7.476,7.478a.846.846,0,1,1-.8,1.128l-194.6.052-5.748,5.747a.821.821,0,0,1-.16.957.846.846,0,1,1-1.2-1.2.819.819,0,0,1,.957-.16l5.914-5.912,194.832-.052A.851.851,0,0,1,313.087,309.9Zm15.005-15.006a.847.847,0,1,1-.8,1.13H111.564l-9.666,9.665a.819.819,0,0,1-.16.957.846.846,0,0,1-1.2-1.2.818.818,0,0,1,.957-.159l9.833-9.833H327.293A.855.855,0,0,1,328.092,294.893Zm-334.9,8.658H59l10.964,10.962a.82.82,0,0,0,.16.958.846.846,0,1,0,1.2-1.2.818.818,0,0,0-.958-.16l-11.13-11.129H-6.808Zm0,7.529h62.8l8.7,8.7a.821.821,0,0,0,.16.958.846.846,0,1,0,1.2-1.2.82.82,0,0,0-.957-.16l-8.869-8.868H-6.808Zm0-15.057H62.119l13.166,13.166a.821.821,0,0,0,.16.958.846.846,0,1,0,1.2-1.2.817.817,0,0,0-.957-.16L62.351,295.457H-6.809ZM517.1,317.729a.846.846,0,1,1,1.358-.243l11.838,11.845h76.231v.566H530.061l-12.007-12.008A.82.82,0,0,1,517.1,317.729Zm10.256-.278a.845.845,0,1,1,1.36-.234L533.3,321.8h73.224v.565H533.068l-4.753-4.752A.85.85,0,0,1,527.353,317.451Zm-21.173-.768a.846.846,0,0,1,1.219-1.174.828.828,0,0,1,.145.964l19.633,20.387h79.347v.565H526.937l-19.8-20.556A.865.865,0,0,1,506.18,316.683Zm-10.245,1.182a.846.846,0,1,1,1.358-.243l26.759,26.766h82.472v.565h-82.7l-26.928-26.928A.82.82,0,0,1,495.935,317.865Zm-24.9-28.806a.847.847,0,1,1,.8-1.13H606.524v.566H471.83A.853.853,0,0,1,471.031,289.059Zm13.037,15.057a.848.848,0,1,1,.8-1.13H606.524v.565H484.867A.856.856,0,0,1,484.068,304.116Zm6.681,7.529a.847.847,0,1,1,.8-1.13H606.524v.565H491.547A.854.854,0,0,1,490.749,311.645Zm-13-15.058a.847.847,0,1,1,.8-1.13H606.524v.566H478.546A.853.853,0,0,1,477.747,296.587ZM-6.808,288.495H65.239l15.516,15.522a.831.831,0,0,0,.16.958.846.846,0,0,0,1.2-1.2.916.916,0,0,0-.969-.172l-15.67-15.678H-6.808Zm80.835,78.172h-.8l-21.6-21.714H-6.808v-.565H51.864Zm9.92,0h-.794L54.2,337.425H-6.808v-.565H54.439Zm377.418,0h-.8l-10.422-10.423H352.727L342.3,366.667h-.8l10.988-10.988h97.882Zm10.536,0h-.8l-17.951-17.952H349.72L331.6,366.667h-.8l18.687-18.517h103.9Zm10.648,0h-.8l-25.479-25.48H346.6L324.3,363.773H90.855L57.325,329.9H-6.808v-.566H57.559L91.09,363.207H324.06l22.3-22.586h110.14Zm10.65,0h-.8L459.395,333.66H343.479l-22.586,22.585H94.323L60.447,322.368H-6.808V321.8H60.679l33.876,33.876H320.661L343.246,333.1H459.628Zm11.181,0h-.8L447.463,311.08H355.52l-33.875,33.875H124.41l-7.319,7.318a.819.819,0,0,1-.16.957.846.846,0,1,1-1.2-1.2.82.82,0,0,1,.957-.16l7.486-7.485H321.413l33.875-33.874H447.7Zm10.6,0h-.8l-63.712-63.116H352.513l-33.875,33.875H121.4l-12.316,12.316v1.66a.847.847,0,1,1-.565,0V349.51l12.649-12.649H318.406l33.875-33.875H450.7ZM469.565-6.667h.8l54.969,54.452h81.188v.566H525.1Zm-10.721,0h.8l62.6,62.012h84.279v.565H522.013Zm-115.453,0h.8L315.517,22H118.282L101.558,38.728v4.781a.846.846,0,1,1-.565,0V38.5L118.05,21.439H315.285Zm-10.648,0h.8L312.4,14.476H115.161L94.03,35.607v4.126a.847.847,0,1,1-.565,0V35.375l21.464-21.464H312.165Zm-227.18,0h.8L101.9-2.2a.819.819,0,0,1-.16.957.838.838,0,0,1-1.2,0,.838.838,0,0,1,0-1.2.818.818,0,0,1,.957-.16Zm-11.028,0h1.692a.993.993,0,0,1-.248.53.837.837,0,0,1-1.2,0A.986.986,0,0,1,94.535-6.667Zm-16.57,0h.8l2.378,2.38a.918.918,0,0,1,.969.172.863.863,0,0,1,0,1.2.862.862,0,0,1-1.2,0,.83.83,0,0,1-.16-.957Zm-10.643,0h.8L75.684.9a.818.818,0,0,1,.957.16.846.846,0,0,1-1.2,1.2.82.82,0,0,1-.16-.957Z" fill="#dfe2ea" opacity="0.5"></path>
    <g clip-path="url(#b)">
      <rect width="613.333" height="20" transform="translate(-6.525 346.667)" fill="url(#c)"></rect>
    </g>
    <path d="M64.217,160.508l-5.049-13.591q-.16-.456-.323-.456c-.107,0-.224.152-.348.456l-5.05,13.591Zm30.067,15.149a72.1,72.1,0,0,1-13.4-1.289v-6.285a82.351,82.351,0,0,0,13.43,1.262q8.271,0,8.273-4.539,0-1.369-1.827-2.418a40.8,40.8,0,0,0-7.749-2.7,27.191,27.191,0,0,1-9.187-4.15,8.293,8.293,0,0,1-3.263-6.984,9.167,9.167,0,0,1,3.854-7.654q3.855-2.928,11.187-2.929a66.333,66.333,0,0,1,12.088,1.289v6.259a78.812,78.812,0,0,0-12.114-1.236q-4.352,0-6.044,1.155a3.57,3.57,0,0,0-1.692,3.09,3.2,3.2,0,0,0,1.72,2.578q1.718,1.155,7.748,2.82a29.335,29.335,0,0,1,9.295,4.03,7.934,7.934,0,0,1,3.263,6.849,9.422,9.422,0,0,1-3.989,7.789Q101.885,175.658,94.284,175.657Zm45.572-.242h-17.19a9.289,9.289,0,0,1-6.272-2.041,7.427,7.427,0,0,1-2.378-5.963v-29.2h25.84v6.339H121.3v9.079H139.05v6.339H121.3v7.44q0,1.667,2.417,1.666h16.143Zm-62.074,0H69.938L66.5,166.552H51.164L47.7,175.415H39.856L53.93,140.981q1.261-3.009,5.05-3.009a4.872,4.872,0,0,1,4.834,3.2Z" fill="#1d3253"></path>
    <path d="M59.273,85.8c.166.061.332.124.494.182l-.494-.187Zm6.955,2.6-1.163-.436Z" fill="#fedf58"></path>
    <path d="M98.592,65.458a3.314,3.314,0,1,1-3.313-3.313,3.313,3.313,0,0,1,3.313,3.313m38.1,14.328c-6.829,2.606-13.546,5.164-20.381,7.769,4.126,5.871,8.2,11.669,12.373,17.605a.983.983,0,0,1-.975,1.532c-7.136-1.272-14.127-2.523-21.238-3.789,1.162,6.15,2.3,12.192,3.468,18.374a.981.981,0,0,1-1.5,1c-6.217-4.057-12.3-8.038-18.5-12.083-2.252,4.937-4.484,9.826-6.783,14.87a.982.982,0,0,1-1.827-.109c-1.78-5.573-3.509-10.976-5.257-16.452-4.516,2.8-8.969,5.564-13.583,8.428a.983.983,0,0,1-1.474-1.058c1.319-5.62,2.6-11.092,3.908-16.665-5.387.643-10.712,1.282-16.2,1.935a.982.982,0,0,1-.872-1.6c3.82-4.63,7.531-9.123,11.315-13.711l.051-.068L69.181,89.5c.311.334,7.4,7.76,17.024,7.76.342,0,.695-.01,1.043-.026a18.189,18.189,0,0,0,2.655-.352V91.908c3.832-1.109,7.462-3.937,10.826-8.442l3.876,2.895c-4.386,5.872-9.338,9.4-14.7,10.524v9.256c.031,0,.057,0,.089,0,.415-.032.829-.069,1.245-.114.218-.026.442-.052.66-.083s.436-.063.653-.1c.442-.073.882-.151,1.319-.244.42-.09.834-.187,1.245-.3.5-.13.991-.27,1.479-.43.327-.1.648-.208.972-.328.611-.223,1.218-.462,1.81-.727q.294-.125.582-.265c.446-.206.887-.43,1.318-.658.13-.068.255-.14.383-.213.395-.217.785-.447,1.169-.685l.468-.3a28.155,28.155,0,0,0,3.378-2.57c.114-.1.232-.207.348-.31.5-.458.974-.929,1.438-1.418.128-.14.258-.275.388-.414a27.983,27.983,0,0,0,2.025-2.508c.113-.156.223-.306.326-.466.088-.12.166-.244.249-.364s.166-.249.25-.379a28.331,28.331,0,0,0,1.572-2.787q.141-.288.276-.575c.1-.208.192-.416.284-.629.068-.166.142-.327.208-.494.047-.124.1-.244.152-.367.066-.173.13-.343.2-.52.073-.2.146-.4.213-.6.083-.234.161-.466.234-.7.052-.171.109-.343.156-.513.057-.194.113-.386.165-.582.074-.265.14-.53.207-.8.037-.161.073-.321.111-.482.045-.208.092-.421.132-.633q.189-.95.313-1.926c.025-.2.051-.41.073-.612.026-.234.047-.463.062-.695s.037-.437.046-.66c.01-.177.022-.359.027-.535,0,0,.466-22.312-26.013-31.478-.052-.02-.109-.036-.166-.057l.166-.1,2.356-1.385L94.92,44.7c5-2.917,9.959-5.813,15.055-8.782a.984.984,0,0,1,1.474.95c-.653,6.1-1.3,12.072-1.95,18.2l19.555-2.216a.982.982,0,0,1,.9,1.558c-3.929,5.356-7.764,10.588-11.646,15.887,6.144,2.563,12.217,5.091,18.41,7.671A.98.98,0,0,1,136.688,79.786Z" fill="#1d3253"></path>
    <path d="M98.592,65.458a3.314,3.314,0,1,1-3.313-3.313,3.313,3.313,0,0,1,3.313,3.313m17.532,13.7s.469-22.406-26.175-31.534L81.216,79.162Z" fill="#ea664a"></path>
    <path d="M81.753,65.458a3.313,3.313,0,1,1-3.314-3.313,3.313,3.313,0,0,1,3.314,3.313m8.15,13.7V91.907a13.385,13.385,0,0,1-2.894.5c-.267.017-.531.023-.793.023-7.51,0-13.449-6.17-13.51-6.235L69.183,89.5c.308.328,7.4,7.758,17.021,7.758.345,0,.694-.01,1.044-.03a18.267,18.267,0,0,0,2.655-.349V91.908c3.832-1.109,7.462-3.937,10.826-8.442l3.876,2.895c-4.386,5.872-9.339,9.4-14.7,10.524v9.256a28.119,28.119,0,0,0,26.221-26.979Z" fill="#fedf58"></path>
    <path d="M81.753,65.458a3.313,3.313,0,1,1-3.314-3.313,3.313,3.313,0,0,1,3.314,3.313m4.119,26.959c.114,0,.228.01.343.01.264,0,.528-.008.794-.025a13.4,13.4,0,0,0,2.894-.5V79.162H81.217l8.732-31.534L94.918,44.7c-2.816-4.434-5.584-8.794-8.4-13.236a.983.983,0,0,0-1.675.027L76.466,45.643l-14.2-5.3a.983.983,0,0,0-1.3,1.136c1.128,4.991,2.228,9.861,3.345,14.806l-16.034.307a.982.982,0,0,0-.756,1.584l9.839,12.652L42.939,77.891a.982.982,0,0,0,.082,1.8C48.46,81.757,69.184,89.5,69.184,89.5l3.522-3.315C72.766,86.253,78.526,92.233,85.872,92.417Z" fill="#058247"></path>
    <path d="M365.375,53.581h3.88l5.562,12.107L380.4,53.581h3.855V71.665h-3.751V61.394l-4.786,10.271h-1.811l-4.761-10.271V71.665h-3.776Z" fill="#54565a"></path>
    <path d="M387.895,70.9a3.812,3.812,0,0,1-1.436-3.143,3.973,3.973,0,0,1,1.371-3.221,5.87,5.87,0,0,1,3.88-1.151,9.427,9.427,0,0,1,2.122.233,7.218,7.218,0,0,1,1.785.647v-.311a1.894,1.894,0,0,0-.828-1.707,4.7,4.7,0,0,0-2.535-.543,10.17,10.17,0,0,0-4.191.853V59.712a10.128,10.128,0,0,1,2.147-.608,14.457,14.457,0,0,1,2.639-.245,7.689,7.689,0,0,1,5.018,1.384,4.764,4.764,0,0,1,1.656,3.867v7.555H395.85V70.526a5.845,5.845,0,0,1-4.244,1.527A5.751,5.751,0,0,1,387.895,70.9Zm6.506-1.8a2.938,2.938,0,0,0,1.216-1.01V66.853a5.12,5.12,0,0,0-2.9-.88,2.666,2.666,0,0,0-1.669.453,1.585,1.585,0,0,0-.582,1.332,1.5,1.5,0,0,0,.569,1.268,2.619,2.619,0,0,0,1.63.439A4.053,4.053,0,0,0,394.4,69.1Z" fill="#54565a"></path>
    <path d="M404.012,70.85a4.711,4.711,0,0,1-1.126-3.35V62.066h-1.811V59.247h1.811V55.521h3.906v3.726h2.924v2.819h-2.924v4.916a2.383,2.383,0,0,0,.414,1.565,1.877,1.877,0,0,0,1.475.479,3.419,3.419,0,0,0,1.63-.414v2.923a7.555,7.555,0,0,1-3,.518A4.3,4.3,0,0,1,404.012,70.85Z" fill="#54565a"></path>
    <path d="M414.023,70.85A4.711,4.711,0,0,1,412.9,67.5V62.066h-1.81V59.247h1.81V55.521H416.8v3.726h2.924v2.819H416.8v4.916a2.377,2.377,0,0,0,.414,1.565,1.874,1.874,0,0,0,1.474.479,3.413,3.413,0,0,0,1.63-.414v2.923a7.555,7.555,0,0,1-3,.518A4.3,4.3,0,0,1,414.023,70.85Z" fill="#54565a"></path>
    <path d="M422.134,52.546h3.906v8.123a5.8,5.8,0,0,1,1.992-1.357,6.244,6.244,0,0,1,2.38-.453,4.917,4.917,0,0,1,3.79,1.358,5.186,5.186,0,0,1,1.255,3.66v7.788H431.55V64.317q0-2.406-2.225-2.405a3.7,3.7,0,0,0-1.837.478,4.107,4.107,0,0,0-1.448,1.41v7.865h-3.906Z" fill="#54565a"></path>
    <path d="M439.57,70.332a5.958,5.958,0,0,1-2.044-4.825,6.492,6.492,0,0,1,1.824-4.863,7.143,7.143,0,0,1,5.213-1.785,7.937,7.937,0,0,1,3.777.828,5.64,5.64,0,0,1,2.354,2.289,6.74,6.74,0,0,1,.8,3.3v1.579H441.251q.414,2.379,4.45,2.38a15.261,15.261,0,0,0,2.458-.207,10.993,10.993,0,0,0,2.2-.569V71.2a10.145,10.145,0,0,1-2.328.621,17.611,17.611,0,0,1-2.845.233A8.449,8.449,0,0,1,439.57,70.332Zm8.227-6.015a2.549,2.549,0,0,0-.932-1.927,3.662,3.662,0,0,0-2.354-.685,3.573,3.573,0,0,0-2.328.7,2.565,2.565,0,0,0-.932,1.914Z" fill="#54565a"></path>
    <path d="M453.151,59.247h3.907l2.276,7.761,2.225-7.761h3.259l2.251,7.761,2.251-7.761h3.907l-4.114,12.418h-3.544l-2.381-7.71-2.379,7.71h-3.544Z" fill="#54565a"></path>
    <path d="M483.963,53.581H488.1l3.234,11.693,3.182-11.693h3.027l3.078,11.693,3.234-11.693h4.114L502.9,71.665h-3.7L495.967,60.2l-3.208,11.461h-3.726Z" fill="#54565a"></path>
    <path d="M511.088,70.9a3.812,3.812,0,0,1-1.436-3.143,3.973,3.973,0,0,1,1.371-3.221,5.872,5.872,0,0,1,3.88-1.151,9.414,9.414,0,0,1,2.122.233,7.24,7.24,0,0,1,1.786.647v-.311a1.9,1.9,0,0,0-.829-1.707,4.7,4.7,0,0,0-2.535-.543,10.173,10.173,0,0,0-4.191.853V59.712A10.145,10.145,0,0,1,513.4,59.1a14.457,14.457,0,0,1,2.639-.245,7.694,7.694,0,0,1,5.019,1.384,4.767,4.767,0,0,1,1.656,3.867v7.555h-3.674V70.526a5.844,5.844,0,0,1-4.243,1.527A5.752,5.752,0,0,1,511.088,70.9Zm6.507-1.8a2.944,2.944,0,0,0,1.216-1.01V66.853a5.121,5.121,0,0,0-2.9-.88,2.668,2.668,0,0,0-1.669.453,1.585,1.585,0,0,0-.582,1.332,1.507,1.507,0,0,0,.569,1.268,2.619,2.619,0,0,0,1.63.439A4.061,4.061,0,0,0,517.595,69.1Z" fill="#54565a"></path>
    <path d="M525.3,59.247h3.776v1.526a5.437,5.437,0,0,1,2.031-1.436,6.517,6.517,0,0,1,2.471-.478,4.919,4.919,0,0,1,3.79,1.358,5.186,5.186,0,0,1,1.255,3.66v7.788H534.72V64.317q0-2.406-2.225-2.405a3.7,3.7,0,0,0-1.837.478,4.1,4.1,0,0,0-1.448,1.41v7.865H525.3Z" fill="#54565a"></path>
    <path d="M545.392,77.382a9.176,9.176,0,0,1-2.109-.621V73.889a11.3,11.3,0,0,0,4.6.88,4.3,4.3,0,0,0,3-.854,3.36,3.36,0,0,0,.905-2.561v-.776a5.3,5.3,0,0,1-1.966,1.1,8.047,8.047,0,0,1-2.483.376,6.943,6.943,0,0,1-3.428-.841,6.061,6.061,0,0,1-2.367-2.341,6.774,6.774,0,0,1-.854-3.415,6.977,6.977,0,0,1,.841-3.467,5.833,5.833,0,0,1,2.328-2.315,6.954,6.954,0,0,1,3.4-.815,7.34,7.34,0,0,1,2.56.413,6.4,6.4,0,0,1,2.1,1.32V59.247H555.7V70.863a6.436,6.436,0,0,1-1.915,4.992q-1.914,1.759-5.9,1.76A13.675,13.675,0,0,1,545.392,77.382Zm5.07-9.016a3.345,3.345,0,0,0,1.332-1.746V64.292a3.606,3.606,0,0,0-1.357-1.734,3.735,3.735,0,0,0-2.161-.646,3.559,3.559,0,0,0-2.574.957,3.387,3.387,0,0,0-1,2.561,3.4,3.4,0,0,0,3.57,3.6A3.8,3.8,0,0,0,550.462,68.366Z" fill="#54565a"></path>
    <path d="M476.248,91.361h8.674v1.618h-6.755v4.158h5.043v1.6h-5.043v4.177h6.755v1.6h-8.674Z" fill="#54565a"></path>
    <path d="M486.9,95.481h1.844v1.3a3.868,3.868,0,0,1,1.572-1.195,5.061,5.061,0,0,1,1.947-.385,3.488,3.488,0,0,1,2.69.959,3.654,3.654,0,0,1,.885,2.578v5.776h-1.9V98.924q0-2.2-2.108-2.2a3.478,3.478,0,0,0-1.683.423,3.755,3.755,0,0,0-1.346,1.289v6.077h-1.9Z" fill="#54565a"></path>
    <path d="M501.112,108.689a5.849,5.849,0,0,1-1.476-.433v-1.561a7.863,7.863,0,0,0,3.273.639,3.6,3.6,0,0,0,2.55-.762,3.042,3.042,0,0,0,.8-2.3v-.96a4.487,4.487,0,0,1-3.651,1.486,5,5,0,0,1-2.464-.6,4.348,4.348,0,0,1-1.712-1.693,4.969,4.969,0,0,1-.621-2.5,5.025,5.025,0,0,1,.611-2.512,4.33,4.33,0,0,1,1.693-1.684,4.93,4.93,0,0,1,2.437-.6,5.522,5.522,0,0,1,2.136.367,4.549,4.549,0,0,1,1.626,1.213v-1.3h1.844v8.58a4.675,4.675,0,0,1-1.288,3.546,5.55,5.55,0,0,1-3.961,1.233A10.519,10.519,0,0,1,501.112,108.689Zm3.933-6.021a3.068,3.068,0,0,0,1.214-1.655V98.98a3.2,3.2,0,0,0-1.233-1.655,3.518,3.518,0,0,0-2.042-.6,3.433,3.433,0,0,0-1.665.4,2.925,2.925,0,0,0-1.166,1.158,3.686,3.686,0,0,0,0,3.433,3,3,0,0,0,1.166,1.157,3.363,3.363,0,0,0,1.665.414A3.516,3.516,0,0,0,505.045,102.668Z" fill="#54565a"></path>
    <path d="M510.925,93.393a1.111,1.111,0,0,1,.79-1.9,1.129,1.129,0,0,1,.818.32,1.114,1.114,0,0,1,0,1.581,1.129,1.129,0,0,1-.818.319A1.072,1.072,0,0,1,510.925,93.393Zm-.17,2.088h1.938v9.031h-1.938Z" fill="#54565a"></path>
    <path d="M515.309,95.481h1.843v1.3a3.874,3.874,0,0,1,1.572-1.195,5.061,5.061,0,0,1,1.947-.385,3.488,3.488,0,0,1,2.69.959,3.654,3.654,0,0,1,.885,2.578v5.776h-1.9V98.924q0-2.2-2.108-2.2a3.478,3.478,0,0,0-1.683.423,3.756,3.756,0,0,0-1.346,1.289v6.077h-1.9Z" fill="#54565a"></path>
    <path d="M527.643,103.543a4.449,4.449,0,0,1-1.421-3.527,4.451,4.451,0,0,1,4.891-4.817,5.488,5.488,0,0,1,2.654.593,3.946,3.946,0,0,1,1.646,1.636,5.01,5.01,0,0,1,.555,2.381v.94h-7.94a2.33,2.33,0,0,0,1.081,1.91,4.953,4.953,0,0,0,2.682.63,9.8,9.8,0,0,0,1.75-.16,8.462,8.462,0,0,0,1.562-.423v1.524a7.537,7.537,0,0,1-1.59.4,12.137,12.137,0,0,1-1.948.16A5.727,5.727,0,0,1,527.643,103.543Zm6.538-4.129a2.625,2.625,0,0,0-.838-1.986,3.317,3.317,0,0,0-2.267-.705,3.139,3.139,0,0,0-2.221.734,2.662,2.662,0,0,0-.827,1.957Z" fill="#54565a"></path>
    <path d="M539.082,103.543a4.453,4.453,0,0,1-1.421-3.527,4.453,4.453,0,0,1,4.892-4.817,5.48,5.48,0,0,1,2.653.593,3.949,3.949,0,0,1,1.647,1.636,5.01,5.01,0,0,1,.554,2.381v.94h-7.939a2.328,2.328,0,0,0,1.081,1.91,4.949,4.949,0,0,0,2.681.63,9.779,9.779,0,0,0,1.75-.16,8.439,8.439,0,0,0,1.562-.423v1.524a7.52,7.52,0,0,1-1.59.4,12.125,12.125,0,0,1-1.947.16A5.73,5.73,0,0,1,539.082,103.543Zm6.538-4.129a2.621,2.621,0,0,0-.838-1.986,3.315,3.315,0,0,0-2.266-.705,3.138,3.138,0,0,0-2.221.734,2.659,2.659,0,0,0-.827,1.957Z" fill="#54565a"></path>
    <path d="M549.477,95.481h1.843V97.1a3.309,3.309,0,0,1,1.59-1.223,6.612,6.612,0,0,1,2.381-.395v1.486a5.977,5.977,0,0,0-2.484.471,2.639,2.639,0,0,0-1.43,1.486v5.588h-1.9Z" fill="#54565a"></path>
    <path d="M439.69,116.055h5.288a4.68,4.68,0,0,1,3.236,1.016,3.793,3.793,0,0,1,1.129,2.973,3.912,3.912,0,0,1-.772,2.455,3.828,3.828,0,0,1-2.182,1.364l2.9,5.344h-1.994l-2.8-5.193h-2.879v5.193H439.69Zm4.968,6.341a3.128,3.128,0,0,0,2-.593,2.115,2.115,0,0,0,.743-1.759,2.142,2.142,0,0,0-.724-1.825,3.3,3.3,0,0,0-2.023-.546h-3.049V122.4Z" fill="#54565a"></path>
    <path d="M452.354,128.558a3.027,3.027,0,0,1-1.318-2.625,3.412,3.412,0,0,1,.7-2.164,7.643,7.643,0,0,1,2.268-1.788,7.764,7.764,0,0,1-1.373-1.57,2.944,2.944,0,0,1-.433-1.572,2.829,2.829,0,0,1,.949-2.229,3.694,3.694,0,0,1,2.532-.837,3.816,3.816,0,0,1,1.777.4,3.044,3.044,0,0,1,1.214,1.1,2.9,2.9,0,0,1,.432,1.561,2.845,2.845,0,0,1-.554,1.769,7.685,7.685,0,0,1-1.91,1.618l3.575,3.387a3.515,3.515,0,0,0,.461-1.289,11.471,11.471,0,0,0,.122-1.816h1.675a10.906,10.906,0,0,1-.226,2.418,6.377,6.377,0,0,1-.79,1.891l2.52,2.39h-2.294l-1.336-1.28a5.188,5.188,0,0,1-1.976,1.185,8.2,8.2,0,0,1-2.6.377A5.8,5.8,0,0,1,452.354,128.558Zm5.38-.809a3.929,3.929,0,0,0,1.449-.932l-3.913-3.782a5.647,5.647,0,0,0-1.826,1.289,2.413,2.413,0,0,0-.564,1.609,1.8,1.8,0,0,0,.818,1.589,3.656,3.656,0,0,0,2.1.556A5.422,5.422,0,0,0,457.734,127.749Zm-.753-7.621a1.786,1.786,0,0,0,.453-1.213,1.649,1.649,0,0,0-.471-1.232,1.746,1.746,0,0,0-1.279-.461,1.8,1.8,0,0,0-1.3.451,1.639,1.639,0,0,0-.47,1.242,1.807,1.807,0,0,0,.357,1.091,10.036,10.036,0,0,0,1.2,1.28A6.528,6.528,0,0,0,456.981,120.128Z" fill="#54565a"></path>
    <path d="M465.956,116.055h4.233a8.07,8.07,0,0,1,3.688.79,5.61,5.61,0,0,1,2.4,2.258,6.872,6.872,0,0,1,.837,3.462,6.291,6.291,0,0,1-1.89,4.957,7.688,7.688,0,0,1-5.3,1.685h-3.971Zm3.951,11.552a5.416,5.416,0,0,0,3.951-1.3,5.026,5.026,0,0,0,1.318-3.744,4.519,4.519,0,0,0-4.967-4.892h-2.334v9.934Z" fill="#54565a"></path>
    <path d="M486.144,116.055h4.233a8.066,8.066,0,0,1,3.687.79,5.617,5.617,0,0,1,2.4,2.258,6.882,6.882,0,0,1,.837,3.462,6.288,6.288,0,0,1-1.891,4.957,7.686,7.686,0,0,1-5.3,1.685h-3.97Zm3.951,11.552a5.416,5.416,0,0,0,3.951-1.3,5.026,5.026,0,0,0,1.317-3.744,4.519,4.519,0,0,0-4.967-4.892h-2.333v9.934Z" fill="#54565a"></path>
    <path d="M499.69,118.087a1.11,1.11,0,0,1,.79-1.9,1.129,1.129,0,0,1,.819.319,1.114,1.114,0,0,1,0,1.581,1.13,1.13,0,0,1-.819.32A1.075,1.075,0,0,1,499.69,118.087Zm-.169,2.088h1.938v9.032h-1.938Z" fill="#54565a"></path>
    <path d="M503.7,120.175h2.013l2.653,6.492,2.654-6.492h2.012l-3.838,9.032h-1.656Z" fill="#54565a"></path>
    <path d="M515.42,118.087a1.11,1.11,0,0,1,.79-1.9,1.127,1.127,0,0,1,.818.319,1.114,1.114,0,0,1,0,1.581,1.128,1.128,0,0,1-.818.32A1.073,1.073,0,0,1,515.42,118.087Zm-.17,2.088h1.938v9.032H515.25Z" fill="#54565a"></path>
    <path d="M521.14,129.253a5.027,5.027,0,0,1-1.656-.63V127a7.194,7.194,0,0,0,1.694.706,6.784,6.784,0,0,0,1.862.272,3.385,3.385,0,0,0,1.486-.244.826.826,0,0,0,.471-.79.991.991,0,0,0-.217-.668,1.857,1.857,0,0,0-.733-.461,15.415,15.415,0,0,0-1.553-.489,10.359,10.359,0,0,1-1.759-.649,2.459,2.459,0,0,1-.978-.838,2.376,2.376,0,0,1-.329-1.317,2.2,2.2,0,0,1,1.025-1.966,5,5,0,0,1,2.757-.668,9.193,9.193,0,0,1,1.769.17,4.6,4.6,0,0,1,1.391.47v1.58a4.863,4.863,0,0,0-1.345-.508,7.109,7.109,0,0,0-1.628-.188,3.732,3.732,0,0,0-1.523.245.874.874,0,0,0-.527.865.907.907,0,0,0,.225.64,1.816,1.816,0,0,0,.725.423q.5.179,1.59.461a5.734,5.734,0,0,1,2.38,1.11,2.335,2.335,0,0,1,.668,1.769,2.186,2.186,0,0,1-.959,1.862,4.821,4.821,0,0,1-2.842.7A9.153,9.153,0,0,1,521.14,129.253Z" fill="#54565a"></path>
    <path d="M529.324,118.087a1.11,1.11,0,0,1,.79-1.9,1.131,1.131,0,0,1,.819.319,1.114,1.114,0,0,1,0,1.581,1.132,1.132,0,0,1-.819.32A1.075,1.075,0,0,1,529.324,118.087Zm-.17,2.088h1.939v9.032h-1.939Z" fill="#54565a"></path>
    <path d="M535.787,128.915a4.28,4.28,0,0,1-1.806-1.656,4.867,4.867,0,0,1-.649-2.549,4.923,4.923,0,0,1,.64-2.54,4.293,4.293,0,0,1,1.806-1.684,6.4,6.4,0,0,1,5.381,0,4.36,4.36,0,0,1,1.816,1.684,5.312,5.312,0,0,1,0,5.089,4.265,4.265,0,0,1-1.816,1.656,6.571,6.571,0,0,1-5.372,0Zm5.015-1.834a3.734,3.734,0,0,0,0-4.78,3.521,3.521,0,0,0-4.666,0,3.731,3.731,0,0,0,0,4.78,3.468,3.468,0,0,0,4.666,0Z" fill="#54565a"></path>
    <path d="M545.693,120.175h1.844v1.3a3.863,3.863,0,0,1,1.571-1.195,5.048,5.048,0,0,1,1.948-.386,3.484,3.484,0,0,1,2.69.96,3.653,3.653,0,0,1,.885,2.577v5.777h-1.9v-5.588q0-2.2-2.107-2.2a3.482,3.482,0,0,0-1.684.423,3.778,3.778,0,0,0-1.345,1.289v6.078h-1.9Z" fill="#54565a"></path>
    <path d="M269.27,140.75h1.918L275.874,151l4.685-10.253h1.919V153.9h-1.863V144.55l-4.271,9.351H275.4l-4.29-9.351V153.9H269.27Z" fill="#54565a"></path>
    <path d="M285.534,153.346a2.818,2.818,0,0,1-.987-2.267,2.9,2.9,0,0,1,.95-2.324,4.011,4.011,0,0,1,2.7-.818,6.211,6.211,0,0,1,3.16.752v-.47a1.909,1.909,0,0,0-.648-1.59,3.266,3.266,0,0,0-2.042-.518,8.031,8.031,0,0,0-1.608.16,6.593,6.593,0,0,0-1.4.442v-1.542a5.95,5.95,0,0,1,1.467-.423,10.013,10.013,0,0,1,1.75-.161,4.8,4.8,0,0,1,3.321.988,3.523,3.523,0,0,1,1.082,2.738V153.9h-1.788v-1.016a3.788,3.788,0,0,1-1.383.969,5.126,5.126,0,0,1-1.947.329A3.926,3.926,0,0,1,285.534,153.346Zm4.733-.969a2.416,2.416,0,0,0,1.09-1v-1.223a4.915,4.915,0,0,0-2.727-.79,2.6,2.6,0,0,0-1.628.423,1.543,1.543,0,0,0-.536,1.289q0,1.656,2.164,1.655A3.7,3.7,0,0,0,290.267,152.377Z" fill="#54565a"></path>
    <path d="M296.992,153.393a3.145,3.145,0,0,1-.743-2.239v-4.817h-1.373V144.87h1.373v-2.709h1.919v2.709h2.221v1.467h-2.221v4.685a1.865,1.865,0,0,0,.349,1.28,1.693,1.693,0,0,0,1.269.376,2.637,2.637,0,0,0,1.092-.245v1.505a5.5,5.5,0,0,1-1.769.245A2.764,2.764,0,0,1,296.992,153.393Z" fill="#54565a"></path>
    <path d="M304.028,153.393a3.145,3.145,0,0,1-.743-2.239v-4.817h-1.373V144.87h1.373v-2.709H305.2v2.709h2.221v1.467H305.2v4.685a1.865,1.865,0,0,0,.349,1.28,1.693,1.693,0,0,0,1.269.376,2.634,2.634,0,0,0,1.092-.245v1.505a5.491,5.491,0,0,1-1.768.245A2.765,2.765,0,0,1,304.028,153.393Z" fill="#54565a"></path>
    <path d="M309.7,140h1.9v6.114a4.321,4.321,0,0,1,3.462-1.524,3.484,3.484,0,0,1,2.69.96,3.654,3.654,0,0,1,.885,2.578V153.9h-1.9v-5.588q0-2.2-2.107-2.2a3.472,3.472,0,0,0-1.684.424,3.761,3.761,0,0,0-1.345,1.289V153.9h-1.9Z" fill="#54565a"></path>
    <path d="M322.034,152.932a4.453,4.453,0,0,1-1.421-3.528,4.454,4.454,0,0,1,4.892-4.817,5.492,5.492,0,0,1,2.653.593,3.945,3.945,0,0,1,1.647,1.637,5,5,0,0,1,.554,2.38v.941H322.42a2.33,2.33,0,0,0,1.081,1.91,4.951,4.951,0,0,0,2.682.63,9.8,9.8,0,0,0,1.75-.16,8.451,8.451,0,0,0,1.561-.423v1.524a7.5,7.5,0,0,1-1.59.4,12.24,12.24,0,0,1-1.947.16A5.73,5.73,0,0,1,322.034,152.932Zm6.538-4.13a2.615,2.615,0,0,0-.838-1.985,3.316,3.316,0,0,0-2.266-.706,3.142,3.142,0,0,0-2.221.734,2.66,2.66,0,0,0-.827,1.957Z" fill="#54565a"></path>
    <path d="M332.053,144.87h1.937l2.032,6.7,2.014-6.7h1.712l2.013,6.7,2.032-6.7h1.957l-2.936,9.031H340.99l-2.089-6.736-2.088,6.736h-1.844Z" fill="#54565a"></path>
    <path d="M347.443,153.9h7.47v1.656h-7.47Z" fill="#54565a"></path>
    <path d="M356.606,140.75h2l2.935,9.99,2.9-9.99h1.5l2.879,9.99,2.935-9.99h1.995L369.908,153.9h-1.825l-2.916-9.934-2.9,9.934h-1.826Z" fill="#54565a"></path>
    <path d="M376.427,153.346a2.819,2.819,0,0,1-.988-2.267,2.9,2.9,0,0,1,.951-2.324,4.01,4.01,0,0,1,2.7-.818,6.211,6.211,0,0,1,3.16.752v-.47a1.912,1.912,0,0,0-.648-1.59,3.268,3.268,0,0,0-2.042-.518,8.048,8.048,0,0,0-1.609.16,6.6,6.6,0,0,0-1.4.442v-1.542a5.951,5.951,0,0,1,1.467-.423,10,10,0,0,1,1.75-.161,4.8,4.8,0,0,1,3.321.988,3.523,3.523,0,0,1,1.082,2.738V153.9h-1.788v-1.016a3.8,3.8,0,0,1-1.383.969,5.13,5.13,0,0,1-1.947.329A3.926,3.926,0,0,1,376.427,153.346Zm4.732-.969a2.419,2.419,0,0,0,1.091-1v-1.223a4.919,4.919,0,0,0-2.728-.79,2.6,2.6,0,0,0-1.627.423,1.541,1.541,0,0,0-.537,1.289q0,1.656,2.164,1.655A3.692,3.692,0,0,0,381.159,152.377Z" fill="#54565a"></path>
    <path d="M386.521,144.87h1.843v1.3a3.858,3.858,0,0,1,1.572-1.195,5.043,5.043,0,0,1,1.947-.386,3.484,3.484,0,0,1,2.69.96,3.654,3.654,0,0,1,.885,2.578V153.9h-1.9v-5.588q0-2.2-2.108-2.2a3.468,3.468,0,0,0-1.683.424,3.756,3.756,0,0,0-1.346,1.289V153.9h-1.9Z" fill="#54565a"></path>
    <path d="M400.735,158.078a5.849,5.849,0,0,1-1.476-.433v-1.562a7.847,7.847,0,0,0,3.273.64,3.6,3.6,0,0,0,2.55-.762,3.043,3.043,0,0,0,.8-2.3V152.7a4.487,4.487,0,0,1-3.651,1.486,5.015,5.015,0,0,1-2.464-.6,4.355,4.355,0,0,1-1.712-1.693,5.409,5.409,0,0,1-.01-5.014,4.326,4.326,0,0,1,1.693-1.685,4.941,4.941,0,0,1,2.437-.6,5.518,5.518,0,0,1,2.136.368,4.54,4.54,0,0,1,1.627,1.213v-1.3h1.843v8.579A4.679,4.679,0,0,1,406.493,157a5.554,5.554,0,0,1-3.961,1.233A10.622,10.622,0,0,1,400.735,158.078Zm3.933-6.021a3.07,3.07,0,0,0,1.214-1.656v-2.032a3.207,3.207,0,0,0-1.233-1.656,3.525,3.525,0,0,0-2.042-.6,3.436,3.436,0,0,0-1.665.405,2.929,2.929,0,0,0-1.166,1.157,3.7,3.7,0,0,0,0,3.434,3,3,0,0,0,1.166,1.157,3.366,3.366,0,0,0,1.665.414A3.524,3.524,0,0,0,404.668,152.057Z" fill="#54565a"></path>
    <path d="M413.464,154.56a5.937,5.937,0,0,1-2.662-2.287,6.777,6.777,0,0,1-.95-3.678,8.71,8.71,0,0,1,1.006-4.224,7.067,7.067,0,0,1,2.878-2.878,8.883,8.883,0,0,1,4.337-1.026,7.736,7.736,0,0,1,5.307,1.684,6.041,6.041,0,0,1,1.9,4.769,6.553,6.553,0,0,1-.874,3.528,2.761,2.761,0,0,1-2.474,1.4,2.4,2.4,0,0,1-1.289-.367,1.727,1.727,0,0,1-.781-.987A2.817,2.817,0,0,1,418.7,151.5a3.711,3.711,0,0,1-1.628.348,3.028,3.028,0,0,1-3.236-3.33,4.958,4.958,0,0,1,.517-2.277,3.974,3.974,0,0,1,1.478-1.608,4.166,4.166,0,0,1,2.238-.593,7.609,7.609,0,0,1,1.534.16,5.842,5.842,0,0,1,1.364.442l-.244,4.365a1.539,1.539,0,0,0,.282,1.1,1.086,1.086,0,0,0,.884.386,1.312,1.312,0,0,0,1.28-.932,7.337,7.337,0,0,0,.376-2.644,4.8,4.8,0,0,0-1.355-3.734,5.959,5.959,0,0,0-4.121-1.232,7.05,7.05,0,0,0-3.424.8,5.513,5.513,0,0,0-2.267,2.3,7.436,7.436,0,0,0-.8,3.537,5.015,5.015,0,0,0,1.506,3.932,6.344,6.344,0,0,0,4.384,1.355,11.121,11.121,0,0,0,3.574-.546v1.393a9.9,9.9,0,0,1-3.574.6A9.683,9.683,0,0,1,413.464,154.56Zm5.23-4.62a1.861,1.861,0,0,0,.546-1.251l.189-3.01a3.51,3.51,0,0,0-1.393-.245,2.194,2.194,0,0,0-1.787.828,3.245,3.245,0,0,0-.678,2.126,2.379,2.379,0,0,0,.433,1.543,1.538,1.538,0,0,0,1.261.527A1.908,1.908,0,0,0,418.694,149.94Z" fill="#54565a"></path>
    <path d="M427.96,153.346a2.818,2.818,0,0,1-.987-2.267,2.9,2.9,0,0,1,.95-2.324,4.011,4.011,0,0,1,2.7-.818,6.211,6.211,0,0,1,3.16.752v-.47a1.912,1.912,0,0,0-.648-1.59,3.268,3.268,0,0,0-2.042-.518,8.048,8.048,0,0,0-1.609.16,6.6,6.6,0,0,0-1.4.442v-1.542a5.951,5.951,0,0,1,1.467-.423,10,10,0,0,1,1.75-.161,4.8,4.8,0,0,1,3.321.988,3.522,3.522,0,0,1,1.082,2.738V153.9h-1.788v-1.016a3.805,3.805,0,0,1-1.383.969,5.126,5.126,0,0,1-1.947.329A3.926,3.926,0,0,1,427.96,153.346Zm4.732-.969a2.414,2.414,0,0,0,1.091-1v-1.223a4.915,4.915,0,0,0-2.727-.79,2.6,2.6,0,0,0-1.628.423,1.54,1.54,0,0,0-.536,1.289q0,1.656,2.164,1.655A3.691,3.691,0,0,0,432.692,152.377Z" fill="#54565a"></path>
    <path d="M439.39,153.948a5.048,5.048,0,0,1-1.656-.631V151.7a7.192,7.192,0,0,0,1.694.705,6.785,6.785,0,0,0,1.862.273,3.368,3.368,0,0,0,1.486-.245.826.826,0,0,0,.471-.79.992.992,0,0,0-.217-.668,1.868,1.868,0,0,0-.733-.461,15.415,15.415,0,0,0-1.553-.489,10.273,10.273,0,0,1-1.759-.649,2.457,2.457,0,0,1-.978-.837,2.381,2.381,0,0,1-.329-1.317,2.2,2.2,0,0,1,1.025-1.967,5.008,5.008,0,0,1,2.757-.668,9.193,9.193,0,0,1,1.769.17,4.63,4.63,0,0,1,1.391.47v1.581a4.832,4.832,0,0,0-1.345-.508,7.054,7.054,0,0,0-1.628-.189,3.732,3.732,0,0,0-1.523.245.876.876,0,0,0-.527.866.906.906,0,0,0,.225.639,1.817,1.817,0,0,0,.725.424q.5.179,1.59.461a5.722,5.722,0,0,1,2.38,1.109,2.337,2.337,0,0,1,.668,1.77,2.189,2.189,0,0,1-.959,1.862,4.821,4.821,0,0,1-2.842.7A9.21,9.21,0,0,1,439.39,153.948Z" fill="#54565a"></path>
    <path d="M448.3,152.932a4.453,4.453,0,0,1-1.421-3.528,4.453,4.453,0,0,1,4.892-4.817,5.5,5.5,0,0,1,2.653.593,3.948,3.948,0,0,1,1.646,1.637,5.006,5.006,0,0,1,.555,2.38v.941h-7.939a2.328,2.328,0,0,0,1.081,1.91,4.947,4.947,0,0,0,2.681.63,9.8,9.8,0,0,0,1.75-.16,8.44,8.44,0,0,0,1.562-.423v1.524a7.536,7.536,0,0,1-1.59.4,12.249,12.249,0,0,1-1.947.16A5.73,5.73,0,0,1,448.3,152.932Zm6.538-4.13a2.619,2.619,0,0,0-.838-1.985,3.317,3.317,0,0,0-2.267-.706,3.14,3.14,0,0,0-2.22.734,2.657,2.657,0,0,0-.827,1.957Z" fill="#54565a"></path>
    <path d="M461.619,158.078a5.849,5.849,0,0,1-1.476-.433v-1.562a7.847,7.847,0,0,0,3.273.64,3.6,3.6,0,0,0,2.55-.762,3.043,3.043,0,0,0,.8-2.3V152.7a4.487,4.487,0,0,1-3.651,1.486,5.022,5.022,0,0,1-2.465-.6,4.368,4.368,0,0,1-1.712-1.693,5.406,5.406,0,0,1-.009-5.014,4.32,4.32,0,0,1,1.693-1.685,4.941,4.941,0,0,1,2.437-.6,5.516,5.516,0,0,1,2.135.368,4.541,4.541,0,0,1,1.627,1.213v-1.3h1.844v8.579A4.683,4.683,0,0,1,467.377,157a5.554,5.554,0,0,1-3.961,1.233A10.621,10.621,0,0,1,461.619,158.078Zm3.933-6.021a3.075,3.075,0,0,0,1.214-1.656v-2.032a3.212,3.212,0,0,0-1.233-1.656,3.525,3.525,0,0,0-2.042-.6,3.433,3.433,0,0,0-1.665.405,2.923,2.923,0,0,0-1.166,1.157,3.688,3.688,0,0,0,0,3.434,3,3,0,0,0,1.166,1.157,3.363,3.363,0,0,0,1.665.414A3.524,3.524,0,0,0,465.552,152.057Z" fill="#54565a"></path>
    <path d="M471.111,140h1.9v13.9h-1.9Z" fill="#54565a"></path>
    <path d="M477.536,153.609a4.271,4.271,0,0,1-1.806-1.655,4.873,4.873,0,0,1-.649-2.55,4.926,4.926,0,0,1,.64-2.54,4.3,4.3,0,0,1,1.806-1.684,6.4,6.4,0,0,1,5.381,0,4.366,4.366,0,0,1,1.816,1.684,5.315,5.315,0,0,1,0,5.09,4.257,4.257,0,0,1-1.816,1.655,6.571,6.571,0,0,1-5.372,0Zm5.015-1.834a3.733,3.733,0,0,0,0-4.779,3.518,3.518,0,0,0-4.666,0,3.729,3.729,0,0,0,0,4.779,3.465,3.465,0,0,0,4.666,0Z" fill="#54565a"></path>
    <path d="M490.933,153.8a4.791,4.791,0,0,1-1.647-1.213V153.9h-1.844V140h1.9v6.077a3.873,3.873,0,0,1,1.6-1.11,5.823,5.823,0,0,1,2.108-.377,4.872,4.872,0,0,1,2.436.612,4.387,4.387,0,0,1,1.694,1.7,5.449,5.449,0,0,1,0,5.014,4.275,4.275,0,0,1-1.694,1.674,4.988,4.988,0,0,1-2.436.593A5.314,5.314,0,0,1,490.933,153.8Zm3.349-1.524a2.911,2.911,0,0,0,1.166-1.157,3.668,3.668,0,0,0,0-3.424,2.987,2.987,0,0,0-1.166-1.167,3.376,3.376,0,0,0-1.665-.414,3.534,3.534,0,0,0-2.051.621,3.052,3.052,0,0,0-1.223,1.656v2.032a3.244,3.244,0,0,0,1.232,1.646,3.472,3.472,0,0,0,2.042.612A3.425,3.425,0,0,0,494.282,152.273Z" fill="#54565a"></path>
    <path d="M500.472,153.346a2.816,2.816,0,0,1-.988-2.267,2.9,2.9,0,0,1,.951-2.324,4.01,4.01,0,0,1,2.7-.818,6.211,6.211,0,0,1,3.16.752v-.47a1.91,1.91,0,0,0-.649-1.59,3.264,3.264,0,0,0-2.042-.518,8.046,8.046,0,0,0-1.608.16,6.6,6.6,0,0,0-1.4.442v-1.542a5.951,5.951,0,0,1,1.467-.423,10,10,0,0,1,1.75-.161,4.8,4.8,0,0,1,3.321.988,3.522,3.522,0,0,1,1.082,2.738V153.9h-1.788v-1.016a3.805,3.805,0,0,1-1.383.969,5.13,5.13,0,0,1-1.947.329A3.926,3.926,0,0,1,500.472,153.346Zm4.732-.969a2.419,2.419,0,0,0,1.091-1v-1.223a4.921,4.921,0,0,0-2.728-.79,2.607,2.607,0,0,0-1.628.423,1.543,1.543,0,0,0-.536,1.289q0,1.656,2.164,1.655A3.692,3.692,0,0,0,505.2,152.377Z" fill="#54565a"></path>
    <path d="M510.565,140h1.9v13.9h-1.9Z" fill="#54565a"></path>
    <path d="M514.789,153.647a.856.856,0,0,1-.254-.63.89.89,0,0,1,.254-.64.839.839,0,0,1,.631-.264.9.9,0,0,1,.9.9.844.844,0,0,1-.262.63.892.892,0,0,1-.64.254A.856.856,0,0,1,514.789,153.647Z" fill="#54565a"></path>
    <path d="M520.48,153.619a4.2,4.2,0,0,1-1.815-1.647,5.405,5.405,0,0,1,0-5.136,4.312,4.312,0,0,1,1.825-1.665,6.877,6.877,0,0,1,6.011.225v1.562a5.369,5.369,0,0,0-3.123-.847,3.636,3.636,0,0,0-2.493.838,3.65,3.65,0,0,0-.01,4.9,3.6,3.6,0,0,0,2.465.828,5.825,5.825,0,0,0,3.274-.9v1.542a4.533,4.533,0,0,1-1.5.659,8.26,8.26,0,0,1-1.966.207A6.065,6.065,0,0,1,520.48,153.619Z" fill="#54565a"></path>
    <path d="M530.763,153.609a4.266,4.266,0,0,1-1.806-1.655,4.864,4.864,0,0,1-.649-2.55,4.935,4.935,0,0,1,.639-2.54,4.308,4.308,0,0,1,1.807-1.684,6.4,6.4,0,0,1,5.381,0,4.364,4.364,0,0,1,1.815,1.684,5.308,5.308,0,0,1,0,5.09,4.254,4.254,0,0,1-1.815,1.655,6.021,6.021,0,0,1-2.691.574A5.953,5.953,0,0,1,530.763,153.609Zm5.014-1.834a3.729,3.729,0,0,0,0-4.779,3.517,3.517,0,0,0-4.666,0,3.729,3.729,0,0,0,0,4.779,3.465,3.465,0,0,0,4.666,0Z" fill="#54565a"></path>
    <path d="M540.669,144.87h1.807v1.3a4.283,4.283,0,0,1,1.448-1.186,3.776,3.776,0,0,1,1.675-.395,3.478,3.478,0,0,1,1.731.368,2.173,2.173,0,0,1,.941,1.119,3.851,3.851,0,0,1,1.476-1.11,4.422,4.422,0,0,1,1.76-.377,3.028,3.028,0,0,1,2.389.838,3.655,3.655,0,0,1,.734,2.474v6h-1.844v-5.757a2.357,2.357,0,0,0-.414-1.572,1.826,1.826,0,0,0-1.411-.461,2.765,2.765,0,0,0-2.333,1.243,7.839,7.839,0,0,1,.038.921V153.9h-1.845v-5.757a2.524,2.524,0,0,0-.376-1.572,1.671,1.671,0,0,0-1.354-.461,3.164,3.164,0,0,0-2.559,1.618V153.9h-1.863Z" fill="#54565a"></path>
    <path d="M45.946,231.578h3.329L55.509,247.2H52.046l-1.341-3.4H44.517l-1.341,3.4H39.69Zm3.866,9.518L47.6,235.152,45.388,241.1Z" fill="#54565a"></path>
    <path d="M59.24,247.263a8.972,8.972,0,0,1-2.3-.715v-2.994a11.281,11.281,0,0,0,2.458.871,10.993,10.993,0,0,0,2.436.29,3.566,3.566,0,0,0,1.966-.446,1.423,1.423,0,0,0,.67-1.251,1.489,1.489,0,0,0-.335-.984,3.041,3.041,0,0,0-.972-.726q-.637-.322-1.955-.86a8.5,8.5,0,0,1-3.173-2,4.243,4.243,0,0,1-.267-5.072,4.626,4.626,0,0,1,2.01-1.575,7.515,7.515,0,0,1,2.994-.558,12.135,12.135,0,0,1,2.458.223,9.92,9.92,0,0,1,2.1.693v2.9a8.732,8.732,0,0,0-3.932-.983,3.775,3.775,0,0,0-1.966.436,1.373,1.373,0,0,0-.715,1.24,1.4,1.4,0,0,0,.335.961,2.926,2.926,0,0,0,.938.67q.6.291,1.966.849a14.368,14.368,0,0,1,2.481,1.285,3.924,3.924,0,0,1,1.317,1.452,4.541,4.541,0,0,1,.425,2.067,3.943,3.943,0,0,1-1.531,3.307,7.393,7.393,0,0,1-4.569,1.183A15.2,15.2,0,0,1,59.24,247.263Z" fill="#54565a"></path>
    <path d="M70.076,231.578H80.912v2.837h-7.44v3.62h5.474v2.726H73.472v3.6h7.44V247.2H70.076Z" fill="#54565a"></path>
    <path d="M90.385,231.578H93.78V247.2H90.385Z" fill="#54565a"></path>
    <path d="M96.127,236.471h3.262v1.318a4.688,4.688,0,0,1,1.754-1.24,5.6,5.6,0,0,1,2.133-.413,4.243,4.243,0,0,1,3.274,1.173,4.482,4.482,0,0,1,1.083,3.161V247.2H104.26V240.85q0-2.078-1.922-2.078a3.182,3.182,0,0,0-1.586.414A3.543,3.543,0,0,0,99.5,240.4V247.2H96.127Z" fill="#54565a"></path>
    <path d="M111.141,246.045a5.234,5.234,0,0,1-1.721-4.19,5.29,5.29,0,0,1,1.731-4.211,6.817,6.817,0,0,1,4.637-1.508,7.831,7.831,0,0,1,4.2.983v2.658a4.982,4.982,0,0,0-1.665-.759,7.945,7.945,0,0,0-2-.246,3.857,3.857,0,0,0-2.5.76,3.346,3.346,0,0,0-.01,4.636,3.849,3.849,0,0,0,2.491.748,6.972,6.972,0,0,0,3.82-1.05V246.5a8.167,8.167,0,0,1-4.356,1.027A6.833,6.833,0,0,1,111.141,246.045Z" fill="#54565a"></path>
    <path d="M121.921,246.838a1.192,1.192,0,0,1-.369-.894,1.25,1.25,0,0,1,.38-.916,1.221,1.221,0,0,1,.893-.38,1.3,1.3,0,0,1,1.3,1.3,1.177,1.177,0,0,1-.38.894,1.288,1.288,0,0,1-.916.357A1.249,1.249,0,0,1,121.921,246.838Z" fill="#54565a"></path>
    <path d="M40.3,258.385h.882l7.355,10.706V258.385h.935v12.329h-.865l-7.373-10.725v10.725H40.3Z" fill="#54565a"></path>
    <path d="M53.96,270.423a4.024,4.024,0,0,1-1.614-1.57,5.072,5.072,0,0,1,0-4.718,4.075,4.075,0,0,1,1.614-1.588,5.19,5.19,0,0,1,4.71,0,4.15,4.15,0,0,1,1.623,1.588,5.037,5.037,0,0,1,.009,4.718,4.022,4.022,0,0,1-1.623,1.57,4.951,4.951,0,0,1-2.365.556A4.893,4.893,0,0,1,53.96,270.423Zm4.26-.644a3.212,3.212,0,0,0,1.288-1.3,4.1,4.1,0,0,0,.458-1.976,4.144,4.144,0,0,0-.458-1.984A3.207,3.207,0,0,0,58.22,263.2a4.191,4.191,0,0,0-3.81,0,3.194,3.194,0,0,0-1.288,1.315,4.133,4.133,0,0,0-.458,1.984,4.084,4.084,0,0,0,.458,1.976,3.2,3.2,0,0,0,1.288,1.3,4.191,4.191,0,0,0,3.81,0Z" fill="#54565a"></path>
    <path d="M63,270.537a.6.6,0,0,1-.177-.44.612.612,0,0,1,.177-.433.585.585,0,0,1,.441-.185.634.634,0,0,1,.618.618.582.582,0,0,1-.186.44.606.606,0,0,1-.432.177A.6.6,0,0,1,63,270.537Z" fill="#54565a"></path>
    <path d="M66,270.044l3.122-3.193.618-.618q1.058-1.057,1.658-1.746a6.889,6.889,0,0,0,.979-1.446,3.468,3.468,0,0,0,.379-1.57,2.407,2.407,0,0,0-.732-1.869,3.15,3.15,0,0,0-2.2-.671,5.037,5.037,0,0,0-1.623.264,5.669,5.669,0,0,0-1.569.865v-.935a5.413,5.413,0,0,1,1.508-.759,5.982,5.982,0,0,1,1.79-.246,3.941,3.941,0,0,1,2.752.9,3.151,3.151,0,0,1,.987,2.451,3.9,3.9,0,0,1-.4,1.719,8.031,8.031,0,0,1-1.112,1.676q-.705.838-1.94,2.109l-2.875,2.945h6.844v.794H66Z" fill="#54565a"></path>
    <path d="M78.249,270.414a3.965,3.965,0,0,1-1.553-1.693,6.072,6.072,0,0,1-.573-2.77q0-7.831,5.557-7.831a5.767,5.767,0,0,1,1.376.141v.829a4.379,4.379,0,0,0-1.306-.159,3.965,3.965,0,0,0-3.413,1.491,8.458,8.458,0,0,0-1.278,4.524,3.308,3.308,0,0,1,1.4-1.482,4.3,4.3,0,0,1,2.143-.528,4.215,4.215,0,0,1,2.073.5,3.548,3.548,0,0,1,1.411,1.411,4.58,4.58,0,0,1-.01,4.189,3.589,3.589,0,0,1-1.455,1.429,4.536,4.536,0,0,1-2.195.512A4.285,4.285,0,0,1,78.249,270.414ZM82.8,269.3a3.176,3.176,0,0,0,.89-2.364,3.1,3.1,0,0,0-.89-2.329,3.267,3.267,0,0,0-2.372-.864,3.411,3.411,0,0,0-1.65.406A3.012,3.012,0,0,0,77.6,265.29a3.4,3.4,0,0,0-.027,3.272,3.051,3.051,0,0,0,1.156,1.182,3.288,3.288,0,0,0,1.7.441A3.225,3.225,0,0,0,82.8,269.3Z" fill="#54565a"></path>
    <path d="M87.924,269.885h.988l-1.553,3.4H86.53Z" fill="#54565a"></path>
    <path d="M100.853,270.176a5.79,5.79,0,0,1-2.293-2.258,7.236,7.236,0,0,1,0-6.73,5.784,5.784,0,0,1,2.293-2.266,6.759,6.759,0,0,1,3.3-.8,6.37,6.37,0,0,1,4.216,1.393v.935a6.454,6.454,0,0,0-7.012-.794,5.021,5.021,0,0,0-1.984,1.958,5.85,5.85,0,0,0-.723,2.946,5.783,5.783,0,0,0,.732,2.955,5.063,5.063,0,0,0,2,1.949,5.837,5.837,0,0,0,2.822.687,7.412,7.412,0,0,0,2.4-.361,5.081,5.081,0,0,0,1.922-1.209v.936a6.173,6.173,0,0,1-4.375,1.464A6.749,6.749,0,0,1,100.853,270.176Z" fill="#54565a"></path>
    <path d="M110.819,257.679h.917v5.979a3.868,3.868,0,0,1,1.578-1.287,4.868,4.868,0,0,1,1.932-.389,2.923,2.923,0,0,1,3.281,3.175v5.557h-.934v-5.485a2.662,2.662,0,0,0-.582-1.844,2.438,2.438,0,0,0-1.888-.644,3.888,3.888,0,0,0-3.387,1.923v6.05h-.917Z" fill="#54565a"></path>
    <path d="M121.27,260.051a.631.631,0,0,1-.185-.467.641.641,0,0,1,.185-.459.62.62,0,0,1,.467-.194.663.663,0,0,1,.653.653.62.62,0,0,1-.194.467.641.641,0,0,1-.459.185A.632.632,0,0,1,121.27,260.051Zm.008,2.2h.918v8.467h-.918Z" fill="#54565a"></path>
    <path d="M125.036,262.247h.9v1.429a3.877,3.877,0,0,1,1.578-1.287,4.8,4.8,0,0,1,1.949-.407,2.923,2.923,0,0,1,3.281,3.175v5.557h-.934v-5.485a2.662,2.662,0,0,0-.582-1.844,2.438,2.438,0,0,0-1.888-.644,3.888,3.888,0,0,0-3.387,1.923v6.05h-.917Z" fill="#54565a"></path>
    <path d="M143.468,270.828a7.021,7.021,0,0,1-1.641-.449V269.5a6.977,6.977,0,0,0,1.676.521,10.161,10.161,0,0,0,1.817.167q3.6,0,3.6-2.735,0-2.609-3.827-2.61H143.82v-.794h1.253a4.162,4.162,0,0,0,2.479-.688,2.231,2.231,0,0,0,.961-1.922,2.328,2.328,0,0,0-.742-1.861,3.276,3.276,0,0,0-2.2-.644,6.228,6.228,0,0,0-1.728.22,7.163,7.163,0,0,0-1.641.75v-.846a6.422,6.422,0,0,1,3.44-.935,4.066,4.066,0,0,1,2.813.882,3.108,3.108,0,0,1,.979,2.434,2.848,2.848,0,0,1-.635,1.878,3.559,3.559,0,0,1-1.888,1.1,3.526,3.526,0,0,1,2.153.97,2.827,2.827,0,0,1,.776,2.063,3.268,3.268,0,0,1-1.076,2.576,5.024,5.024,0,0,1-3.387.953A11.9,11.9,0,0,1,143.468,270.828Z" fill="#54565a"></path>
    <path d="M152.129,262.247h.9v1.8q1.058-1.8,3.951-1.8v.759q-3.123,0-3.933,2.258v5.45h-.917Z" fill="#54565a"></path>
    <path d="M160.736,270.432a4.021,4.021,0,0,1-1.588-1.562,5.088,5.088,0,0,1,0-4.726,4.111,4.111,0,0,1,1.588-1.6,4.5,4.5,0,0,1,2.241-.565,5.249,5.249,0,0,1,2.3.495,3.4,3.4,0,0,1,1.562,1.463v-6.261h.934v13.035h-.917v-1.693a4.255,4.255,0,0,1-3.88,1.958A4.618,4.618,0,0,1,160.736,270.432Zm4.719-.873a3.513,3.513,0,0,0,1.385-1.9v-2.31a3.315,3.315,0,0,0-1.35-1.914,4.093,4.093,0,0,0-2.373-.7,3.716,3.716,0,0,0-1.843.468,3.41,3.41,0,0,0-1.323,1.322,3.926,3.926,0,0,0-.484,1.967,3.871,3.871,0,0,0,.484,1.958,3.425,3.425,0,0,0,1.323,1.315,3.726,3.726,0,0,0,1.843.466A4.05,4.05,0,0,0,165.455,269.559Z" fill="#54565a"></path>
    <path d="M177.3,258.385h4.568q3.738,0,3.739,3.386a3.2,3.2,0,0,1-.829,2.257,3.558,3.558,0,0,1-2.345,1.059l3.157,5.627h-.971l-3.139-5.61h-3.246v5.61H177.3Zm4.5,5.926a3.175,3.175,0,0,0,2.125-.653,2.337,2.337,0,0,0,.767-1.887,2.4,2.4,0,0,0-.75-2,3.361,3.361,0,0,0-2.125-.591h-3.581v5.133Z" fill="#54565a"></path>
    <path d="M189.716,270.432a4.021,4.021,0,0,1-1.588-1.562,5.088,5.088,0,0,1,0-4.726,4.111,4.111,0,0,1,1.588-1.6,4.5,4.5,0,0,1,2.24-.565,5.254,5.254,0,0,1,2.3.495,3.4,3.4,0,0,1,1.561,1.463v-6.261h.935v13.035h-.917v-1.693a4.255,4.255,0,0,1-3.881,1.958A4.617,4.617,0,0,1,189.716,270.432Zm4.719-.873a3.507,3.507,0,0,0,1.384-1.9v-2.31a3.309,3.309,0,0,0-1.349-1.914,4.093,4.093,0,0,0-2.373-.7,3.716,3.716,0,0,0-1.843.468,3.4,3.4,0,0,0-1.323,1.322,3.916,3.916,0,0,0-.485,1.967,3.861,3.861,0,0,0,.485,1.958,3.419,3.419,0,0,0,1.323,1.315,3.726,3.726,0,0,0,1.843.466A4.052,4.052,0,0,0,194.435,269.559Z" fill="#54565a"></path>
    <path d="M199.223,270.537a.6.6,0,0,1-.177-.44.608.608,0,0,1,.177-.433.583.583,0,0,1,.441-.185.632.632,0,0,1,.617.618.581.581,0,0,1-.185.44.606.606,0,0,1-.432.177A.6.6,0,0,1,199.223,270.537Z" fill="#54565a"></path>
    <path d="M203.614,269.885h.989l-1.553,3.4h-.829Z" fill="#54565a"></path>
    <path d="M213.774,258.385h.882l7.356,10.706V258.385h.934v12.329h-.864l-7.373-10.725v10.725h-.935Z" fill="#54565a"></path>
    <path d="M226.131,270.255a2.463,2.463,0,0,1-.892-2.028,2.508,2.508,0,0,1,.865-2.064,3.84,3.84,0,0,1,2.487-.706,6.438,6.438,0,0,1,3.351.812v-1.04a2.382,2.382,0,0,0-.687-1.879,3.283,3.283,0,0,0-2.205-.609,6.97,6.97,0,0,0-2.717.547v-.794a6.114,6.114,0,0,1,1.288-.37,8.005,8.005,0,0,1,1.482-.142,4.057,4.057,0,0,1,2.848.865,3.166,3.166,0,0,1,.926,2.434v5.433h-.864V269.5a4.063,4.063,0,0,1-3.475,1.482A3.705,3.705,0,0,1,226.131,270.255Zm4.551-.467a2.818,2.818,0,0,0,1.26-1.19v-1.571a7.091,7.091,0,0,0-1.516-.626,6.442,6.442,0,0,0-1.694-.2,3.116,3.116,0,0,0-1.984.5,1.864,1.864,0,0,0-.608,1.526,1.765,1.765,0,0,0,.652,1.481,3.169,3.169,0,0,0,1.976.512A4.193,4.193,0,0,0,230.682,269.788Z" fill="#54565a"></path>
    <path d="M235.436,262.247h.9v1.429a3.89,3.89,0,0,1,1.578-1.287,4.8,4.8,0,0,1,1.949-.407,2.924,2.924,0,0,1,3.282,3.175v5.557h-.935v-5.485a2.657,2.657,0,0,0-.582-1.844,2.438,2.438,0,0,0-1.888-.644,3.885,3.885,0,0,0-3.386,1.923v6.05h-.917Z" fill="#54565a"></path>
    <path d="M245.348,270.044l5.274-7.056h-5.168v-.741h6.262v.689l-5.275,7.037h5.469v.741h-6.562Z" fill="#54565a"></path>
    <path d="M254.388,260.051a.635.635,0,0,1-.185-.467.645.645,0,0,1,.185-.459.62.62,0,0,1,.467-.194.663.663,0,0,1,.653.653.62.62,0,0,1-.194.467.639.639,0,0,1-.459.185A.632.632,0,0,1,254.388,260.051Zm.008,2.2h.918v8.467H254.4Z" fill="#54565a"></path>
    <path d="M258.154,257.679h.917v5.979a3.868,3.868,0,0,1,1.578-1.287,4.868,4.868,0,0,1,1.932-.389,2.923,2.923,0,0,1,3.281,3.175v5.557h-.934v-5.485a2.662,2.662,0,0,0-.582-1.844,2.438,2.438,0,0,0-1.888-.644,3.888,3.888,0,0,0-3.387,1.923v6.05h-.917Z" fill="#54565a"></path>
    <path d="M275.3,258.385h3.651a7.363,7.363,0,0,1,3.413.74,5.126,5.126,0,0,1,2.2,2.117,6.626,6.626,0,0,1,.758,3.245,5.942,5.942,0,0,1-1.746,4.657,7.166,7.166,0,0,1-4.957,1.57H275.3Zm3.175,11.535q5.926,0,5.926-5.433a5.243,5.243,0,0,0-1.42-3.907,5.6,5.6,0,0,0-4.1-1.4h-2.646V269.92Z" fill="#54565a"></path>
    <path d="M287.8,260.051a.635.635,0,0,1-.185-.467.645.645,0,0,1,.185-.459.621.621,0,0,1,.468-.194.661.661,0,0,1,.652.653.619.619,0,0,1-.193.467.642.642,0,0,1-.459.185A.632.632,0,0,1,287.8,260.051Zm.009,2.2h.918v8.467H287.8Z" fill="#54565a"></path>
    <path d="M292.628,270.74a4.28,4.28,0,0,1-1.4-.591v-.794A5.828,5.828,0,0,0,292.7,270a5.763,5.763,0,0,0,1.614.238q2.328,0,2.329-1.481a1.525,1.525,0,0,0-.212-.838,1.836,1.836,0,0,0-.759-.591,9.531,9.531,0,0,0-1.6-.547,9.247,9.247,0,0,1-1.631-.573,2.3,2.3,0,0,1-.909-.75,2.062,2.062,0,0,1-.318-1.2,1.91,1.91,0,0,1,.874-1.694,4.161,4.161,0,0,1,2.337-.582,5.64,5.64,0,0,1,2.628.53v.794a5.394,5.394,0,0,0-2.593-.565,3.358,3.358,0,0,0-1.737.37,1.248,1.248,0,0,0-.609,1.147,1.426,1.426,0,0,0,.211.829,1.721,1.721,0,0,0,.75.529,13.532,13.532,0,0,0,1.65.53,5.446,5.446,0,0,1,2.187,1,2.073,2.073,0,0,1,.635,1.606,1.921,1.921,0,0,1-.8,1.623,4.009,4.009,0,0,1-2.408.6A6.725,6.725,0,0,1,292.628,270.74Z" fill="#54565a"></path>
    <path d="M301.1,270.335a2.64,2.64,0,0,1-.618-1.9v-5.45h-1.358v-.741h1.358v-2.54h.917v2.54h2.188v.741H301.4v5.486a1.872,1.872,0,0,0,.407,1.349,1.841,1.841,0,0,0,1.357.414,2.65,2.65,0,0,0,.918-.175v.775a4.418,4.418,0,0,1-1.235.142A2.307,2.307,0,0,1,301.1,270.335Z" fill="#54565a"></path>
    <path d="M305.9,270.537a.6.6,0,0,1-.176-.44.611.611,0,0,1,.176-.433.607.607,0,0,1,.873,0,.593.593,0,0,1,.186.433.582.582,0,0,1-.186.44.627.627,0,0,1-.873,0Z" fill="#54565a"></path>
    <path d="M310.293,269.885h.988l-1.552,3.4h-.83Z" fill="#54565a"></path>
    <path d="M320.453,258.385h.935v6.032l6.032-6.032H328.6l-6.085,6.085,6.473,6.244h-1.2l-6.4-6.192v6.192h-.935Z" fill="#54565a"></path>
    <path d="M331.645,270.255a2.463,2.463,0,0,1-.892-2.028,2.51,2.51,0,0,1,.864-2.064,3.84,3.84,0,0,1,2.487-.706,6.439,6.439,0,0,1,3.352.812v-1.04a2.382,2.382,0,0,0-.687-1.879,3.286,3.286,0,0,0-2.206-.609,6.969,6.969,0,0,0-2.716.547v-.794a6.1,6.1,0,0,1,1.288-.37,8,8,0,0,1,1.481-.142,4.06,4.06,0,0,1,2.849.865,3.166,3.166,0,0,1,.926,2.434v5.433h-.865V269.5a4.06,4.06,0,0,1-3.474,1.482A3.7,3.7,0,0,1,331.645,270.255Zm4.55-.467a2.816,2.816,0,0,0,1.261-1.19v-1.571a7.1,7.1,0,0,0-1.517-.626,6.434,6.434,0,0,0-1.693-.2,3.116,3.116,0,0,0-1.984.5,1.861,1.861,0,0,0-.609,1.526,1.766,1.766,0,0,0,.653,1.481,3.164,3.164,0,0,0,1.975.512A4.19,4.19,0,0,0,336.2,269.788Z" fill="#54565a"></path>
    <path d="M342.792,270.423a4.024,4.024,0,0,1-1.614-1.57,5.072,5.072,0,0,1,0-4.718,4.075,4.075,0,0,1,1.614-1.588,5.191,5.191,0,0,1,4.71,0,4.15,4.15,0,0,1,1.623,1.588,5.037,5.037,0,0,1,.009,4.718,4.022,4.022,0,0,1-1.623,1.57,4.951,4.951,0,0,1-2.365.556A4.893,4.893,0,0,1,342.792,270.423Zm4.26-.644a3.212,3.212,0,0,0,1.288-1.3,4.084,4.084,0,0,0,.458-1.976,4.133,4.133,0,0,0-.458-1.984,3.207,3.207,0,0,0-1.288-1.315,4.191,4.191,0,0,0-3.81,0,3.194,3.194,0,0,0-1.288,1.315,4.133,4.133,0,0,0-.458,1.984,4.084,4.084,0,0,0,.458,1.976,3.2,3.2,0,0,0,1.288,1.3,4.191,4.191,0,0,0,3.81,0Z" fill="#54565a"></path>
    <path d="M352.009,257.679h.917v5.979a3.855,3.855,0,0,1,1.578-1.287,4.864,4.864,0,0,1,1.932-.389,2.924,2.924,0,0,1,3.281,3.175v5.557h-.935v-5.485a2.657,2.657,0,0,0-.582-1.844,2.434,2.434,0,0,0-1.887-.644,3.886,3.886,0,0,0-3.387,1.923v6.05h-.917Z" fill="#54565a"></path>
    <path d="M363.341,270.74a4.3,4.3,0,0,1-1.4-.591v-.794a5.852,5.852,0,0,0,1.474.644,5.762,5.762,0,0,0,1.613.238q2.33,0,2.329-1.481a1.525,1.525,0,0,0-.211-.838,1.836,1.836,0,0,0-.759-.591,9.532,9.532,0,0,0-1.605-.547,9.29,9.29,0,0,1-1.632-.573,2.3,2.3,0,0,1-.908-.75,2.062,2.062,0,0,1-.318-1.2,1.911,1.911,0,0,1,.874-1.694,4.161,4.161,0,0,1,2.337-.582,5.64,5.64,0,0,1,2.628.53v.794a5.4,5.4,0,0,0-2.593-.565,3.358,3.358,0,0,0-1.737.37,1.246,1.246,0,0,0-.609,1.147,1.426,1.426,0,0,0,.211.829,1.721,1.721,0,0,0,.75.529,13.471,13.471,0,0,0,1.65.53,5.446,5.446,0,0,1,2.187,1,2.073,2.073,0,0,1,.635,1.606,1.921,1.921,0,0,1-.8,1.623,4.009,4.009,0,0,1-2.408.6A6.725,6.725,0,0,1,363.341,270.74Z" fill="#54565a"></path>
    <path d="M370.731,260.051a.635.635,0,0,1-.184-.467.644.644,0,0,1,.184-.459.622.622,0,0,1,.468-.194.663.663,0,0,1,.653.653.62.62,0,0,1-.194.467.641.641,0,0,1-.459.185A.634.634,0,0,1,370.731,260.051Zm.009,2.2h.918v8.467h-.918Z" fill="#54565a"></path>
    <path d="M375.291,270.079a3.255,3.255,0,0,1-.882-2.382v-5.45h.918v5.468a2.553,2.553,0,0,0,.644,1.861,2.627,2.627,0,0,0,1.967.661,3.551,3.551,0,0,0,1.825-.458,4.3,4.3,0,0,0,1.42-1.464v-6.068h.935v8.467H381.2V269.3a3.841,3.841,0,0,1-3.333,1.676A3.449,3.449,0,0,1,375.291,270.079Z" fill="#54565a"></path>
    <path d="M384.764,262.247h.9v1.429a3.89,3.89,0,0,1,1.578-1.287,4.8,4.8,0,0,1,1.949-.407,2.924,2.924,0,0,1,3.282,3.175v5.557h-.935v-5.485a2.657,2.657,0,0,0-.582-1.844,2.436,2.436,0,0,0-1.888-.644,3.885,3.885,0,0,0-3.386,1.923v6.05h-.917Z" fill="#54565a"></path>
    <path d="M397.684,274.621a5.6,5.6,0,0,1-1.332-.4v-.793a7.047,7.047,0,0,0,3,.6,3.778,3.778,0,0,0,2.707-.855,3.432,3.432,0,0,0,.891-2.584v-1.57a3.532,3.532,0,0,1-1.553,1.463,5.131,5.131,0,0,1-2.292.495,4.609,4.609,0,0,1-2.25-.556,4.045,4.045,0,0,1-1.6-1.579,5.09,5.09,0,0,1,0-4.727,4.065,4.065,0,0,1,1.588-1.579,4.557,4.557,0,0,1,2.24-.556,5.146,5.146,0,0,1,2.3.477,3.889,3.889,0,0,1,1.579,1.464v-1.676h.917v8.2q0,4.321-4.533,4.322A9.051,9.051,0,0,1,397.684,274.621Zm3.907-5.08a3.307,3.307,0,0,0,1.358-1.914v-2.311a3.4,3.4,0,0,0-1.385-1.9,4.107,4.107,0,0,0-2.337-.679,3.664,3.664,0,0,0-1.834.468,3.505,3.505,0,0,0-1.324,1.313,3.818,3.818,0,0,0-.493,1.958,3.861,3.861,0,0,0,.493,1.967,3.485,3.485,0,0,0,1.324,1.324,3.673,3.673,0,0,0,1.834.466A4.1,4.1,0,0,0,401.591,269.541Z" fill="#54565a"></path>
    <path d="M407.569,269.885h.989l-1.553,3.4h-.829Z" fill="#54565a"></path>
    <path d="M421.1,259.178h-4.076v-.793h9.084v.793h-4.074v11.536H421.1Z" fill="#54565a"></path>
    <path d="M428.586,270.255a2.463,2.463,0,0,1-.892-2.028,2.508,2.508,0,0,1,.865-2.064,3.84,3.84,0,0,1,2.487-.706,6.438,6.438,0,0,1,3.351.812v-1.04a2.382,2.382,0,0,0-.687-1.879,3.282,3.282,0,0,0-2.2-.609,6.97,6.97,0,0,0-2.717.547v-.794a6.114,6.114,0,0,1,1.288-.37,8.006,8.006,0,0,1,1.482-.142,4.057,4.057,0,0,1,2.848.865,3.166,3.166,0,0,1,.926,2.434v5.433h-.864V269.5a4.062,4.062,0,0,1-3.475,1.482A3.705,3.705,0,0,1,428.586,270.255Zm4.551-.467a2.818,2.818,0,0,0,1.26-1.19v-1.571a7.092,7.092,0,0,0-1.516-.626,6.44,6.44,0,0,0-1.693-.2,3.12,3.12,0,0,0-1.985.5,1.864,1.864,0,0,0-.608,1.526,1.768,1.768,0,0,0,.652,1.481,3.169,3.169,0,0,0,1.976.512A4.193,4.193,0,0,0,433.137,269.788Z" fill="#54565a"></path>
    <path d="M438.075,260.051a.635.635,0,0,1-.184-.467.644.644,0,0,1,.184-.459.621.621,0,0,1,.468-.194.661.661,0,0,1,.652.653.619.619,0,0,1-.193.467.641.641,0,0,1-.459.185A.632.632,0,0,1,438.075,260.051Zm.009,2.2H439v8.467h-.918Z" fill="#54565a"></path>
    <path d="M441.488,262.247h.936l2.275,7.373,2.258-7.373h.97l2.258,7.373,2.275-7.373h.952l-2.681,8.467h-.969L447.45,263.2l-2.31,7.515h-.988Z" fill="#54565a"></path>
    <path d="M456.244,270.255a2.462,2.462,0,0,1-.891-2.028,2.51,2.51,0,0,1,.864-2.064,3.84,3.84,0,0,1,2.487-.706,6.444,6.444,0,0,1,3.352.812v-1.04a2.383,2.383,0,0,0-.688-1.879,3.283,3.283,0,0,0-2.205-.609,6.974,6.974,0,0,0-2.717.547v-.794a6.13,6.13,0,0,1,1.288-.37,8.005,8.005,0,0,1,1.482-.142,4.057,4.057,0,0,1,2.848.865,3.163,3.163,0,0,1,.926,2.434v5.433h-.864V269.5a4.06,4.06,0,0,1-3.475,1.482A3.707,3.707,0,0,1,456.244,270.255Zm4.551-.467a2.826,2.826,0,0,0,1.261-1.19v-1.571a7.119,7.119,0,0,0-1.517-.626,6.44,6.44,0,0,0-1.693-.2,3.122,3.122,0,0,0-1.985.5,1.864,1.864,0,0,0-.608,1.526,1.768,1.768,0,0,0,.652,1.481,3.169,3.169,0,0,0,1.976.512A4.19,4.19,0,0,0,460.8,269.788Z" fill="#54565a"></path>
    <path d="M465.549,262.247h.9v1.429a3.89,3.89,0,0,1,1.578-1.287,4.808,4.808,0,0,1,1.95-.407,2.924,2.924,0,0,1,3.281,3.175v5.557h-.935v-5.485a2.657,2.657,0,0,0-.582-1.844,2.434,2.434,0,0,0-1.887-.644,3.887,3.887,0,0,0-3.387,1.923v6.05h-.917Z" fill="#54565a"></path>
    <path d="M483.442,270.062a3.211,3.211,0,0,1-1.1-2.612,3.16,3.16,0,0,1,.715-2.125,3.288,3.288,0,0,1,1.879-1.085,2.835,2.835,0,0,1-1.562-1.041,3.22,3.22,0,0,1,.424-4.206,4.581,4.581,0,0,1,5.38,0,2.946,2.946,0,0,1,1.013,2.355,2.994,2.994,0,0,1-.582,1.851,2.791,2.791,0,0,1-1.551,1.041,3.291,3.291,0,0,1,1.878,1.085,3.164,3.164,0,0,1,.714,2.125,3.2,3.2,0,0,1-1.111,2.612,5.522,5.522,0,0,1-6.1,0Zm5.452-.539a2.68,2.68,0,0,0,.855-2.126,2.554,2.554,0,0,0-.9-2.072,4.1,4.1,0,0,0-4.727,0,2.551,2.551,0,0,0-.9,2.072,2.673,2.673,0,0,0,.855,2.126,4.245,4.245,0,0,0,4.816,0Zm-.363-6.3a2.285,2.285,0,0,0,.777-1.809,2.37,2.37,0,0,0-.768-1.843,2.938,2.938,0,0,0-2.055-.7,2.9,2.9,0,0,0-2.046.7,2.386,2.386,0,0,0-.758,1.843,2.3,2.3,0,0,0,.767,1.809,2.965,2.965,0,0,0,2.037.678A3,3,0,0,0,488.531,263.227Z" fill="#54565a"></path>
    <path d="M495.357,259.442l-2.769,2.011v-.987l2.84-2.081h.864v12.329h-.935Z" fill="#54565a"></path>
    <path d="M501.354,259.442l-2.769,2.011v-.987l2.84-2.081h.864v12.329h-.935Z" fill="#54565a"></path>
    <path d="M505.976,269.885h.988l-1.553,3.4h-.829Z" fill="#54565a"></path>
    <path d="M516.136,258.385H520.7q3.738,0,3.739,3.386a3.2,3.2,0,0,1-.829,2.257,3.558,3.558,0,0,1-2.345,1.059l3.157,5.627h-.971l-3.14-5.61H517.07v5.61h-.934Zm4.5,5.926a3.175,3.175,0,0,0,2.125-.653,2.337,2.337,0,0,0,.767-1.887,2.4,2.4,0,0,0-.75-2,3.361,3.361,0,0,0-2.125-.591H517.07v5.133Z" fill="#54565a"></path>
    <path d="M526.56,270.537a.6.6,0,0,1-.177-.44.608.608,0,0,1,.177-.433.583.583,0,0,1,.441-.185.632.632,0,0,1,.617.618.581.581,0,0,1-.185.44.606.606,0,0,1-.432.177A.6.6,0,0,1,526.56,270.537Z" fill="#54565a"></path>
    <path d="M532.688,270.176a5.855,5.855,0,0,1-2.292-2.267,7.121,7.121,0,0,1,0-6.7,5.923,5.923,0,0,1,2.292-2.275,7.026,7.026,0,0,1,6.554,0,5.908,5.908,0,0,1,2.3,2.275,7.121,7.121,0,0,1,0,6.7,5.841,5.841,0,0,1-2.3,2.267,7.088,7.088,0,0,1-6.554,0Zm6.051-.714a5.062,5.062,0,0,0,1.993-1.958,6.292,6.292,0,0,0,.009-5.874,5.094,5.094,0,0,0-1.967-1.967,5.576,5.576,0,0,0-2.778-.7,5.742,5.742,0,0,0-2.8.687,5.069,5.069,0,0,0-1.993,1.958,6.3,6.3,0,0,0,0,5.892,5.08,5.08,0,0,0,1.984,1.958,5.944,5.944,0,0,0,5.548,0Z" fill="#54565a"></path>
    <path d="M544.5,270.537a.6.6,0,0,1-.177-.44.612.612,0,0,1,.177-.433.585.585,0,0,1,.441-.185.634.634,0,0,1,.618.618.582.582,0,0,1-.186.44.6.6,0,0,1-.432.177A.6.6,0,0,1,544.5,270.537Z" fill="#54565a"></path>
    <path d="M550.618,270.176a5.8,5.8,0,0,1-2.293-2.258,7.244,7.244,0,0,1,0-6.73,5.8,5.8,0,0,1,2.293-2.266,6.763,6.763,0,0,1,3.3-.8,6.372,6.372,0,0,1,4.216,1.393v.935a6.454,6.454,0,0,0-7.012-.794,5.008,5.008,0,0,0-1.984,1.958,5.84,5.84,0,0,0-.723,2.946,5.773,5.773,0,0,0,.732,2.955,5.067,5.067,0,0,0,2,1.949,5.841,5.841,0,0,0,2.823.687,7.406,7.406,0,0,0,2.4-.361,5.085,5.085,0,0,0,1.923-1.209v.936a6.173,6.173,0,0,1-4.375,1.464A6.753,6.753,0,0,1,550.618,270.176Z" fill="#54565a"></path>
    <path d="M560.408,270.537a.6.6,0,0,1-.177-.44.612.612,0,0,1,.177-.433.586.586,0,0,1,.442-.185.634.634,0,0,1,.617.618.581.581,0,0,1-.186.44.627.627,0,0,1-.873,0Z" fill="#54565a"></path>
    <path d="M43.668,282.7H39.593V281.9h9.084v.793H44.6v11.536h-.935Z" fill="#54565a"></path>
    <path d="M51.525,293.324a4.3,4.3,0,0,1-1.261-3.307,4.644,4.644,0,0,1,1.137-3.3,4.218,4.218,0,0,1,3.238-1.217,4.891,4.891,0,0,1,2.4.547,3.607,3.607,0,0,1,1.491,1.516,4.732,4.732,0,0,1,.5,2.206v.582H51.11a3.16,3.16,0,0,0,1.112,2.54,4.517,4.517,0,0,0,2.911.864,9.254,9.254,0,0,0,1.622-.141,6.4,6.4,0,0,0,1.411-.406V294a6.325,6.325,0,0,1-1.4.352,10.781,10.781,0,0,1-1.7.142A5,5,0,0,1,51.525,293.324Zm6.659-3.66a3.163,3.163,0,0,0-3.545-3.4,3.411,3.411,0,0,0-2.619.952,3.508,3.508,0,0,0-.91,2.452Z" fill="#54565a"></path>
    <path d="M61.324,281.2h.917v13.035h-.917Z" fill="#54565a"></path>
    <path d="M64.71,294.056a.6.6,0,0,1-.177-.441.61.61,0,0,1,.177-.432.585.585,0,0,1,.441-.185.634.634,0,0,1,.618.617.584.584,0,0,1-.186.441.6.6,0,0,1-.432.176A.6.6,0,0,1,64.71,294.056Z" fill="#54565a"></path>
    <path d="M76.792,289.435H74.587v-.777h2.205v-2.222h.776v2.222h2.223v.777H77.568v2.205h-.776Z" fill="#54565a"></path>
    <path d="M82.833,293.58a3.209,3.209,0,0,1-1.1-2.611,3.161,3.161,0,0,1,.715-2.125,3.289,3.289,0,0,1,1.879-1.085,2.838,2.838,0,0,1-1.561-1.041,3.22,3.22,0,0,1,.424-4.206,4.579,4.579,0,0,1,5.379,0,2.946,2.946,0,0,1,1.014,2.354A3,3,0,0,1,89,286.718a2.8,2.8,0,0,1-1.552,1.041,3.28,3.28,0,0,1,1.878,1.085,3.156,3.156,0,0,1,.715,2.125,3.2,3.2,0,0,1-1.111,2.611,5.522,5.522,0,0,1-6.1,0Zm5.451-.538a2.677,2.677,0,0,0,.856-2.126,2.551,2.551,0,0,0-.9-2.072,4.1,4.1,0,0,0-4.726,0,2.55,2.55,0,0,0-.9,2.072,2.671,2.671,0,0,0,.856,2.126,4.244,4.244,0,0,0,4.815,0Zm-.362-6.3a2.286,2.286,0,0,0,.776-1.808,2.372,2.372,0,0,0-.767-1.843,2.94,2.94,0,0,0-2.055-.7,2.9,2.9,0,0,0-2.046.7,2.383,2.383,0,0,0-.759,1.843,2.3,2.3,0,0,0,.768,1.808,2.964,2.964,0,0,0,2.037.679A3,3,0,0,0,87.922,286.745Z" fill="#54565a"></path>
    <path d="M93.081,293.58a3.208,3.208,0,0,1-1.1-2.611,3.161,3.161,0,0,1,.714-2.125,3.289,3.289,0,0,1,1.879-1.085,2.838,2.838,0,0,1-1.561-1.041,3.22,3.22,0,0,1,.424-4.206,4.579,4.579,0,0,1,5.379,0,2.946,2.946,0,0,1,1.014,2.354,3,3,0,0,1-.582,1.852,2.8,2.8,0,0,1-1.552,1.041,3.28,3.28,0,0,1,1.878,1.085,3.156,3.156,0,0,1,.715,2.125,3.2,3.2,0,0,1-1.111,2.611,5.522,5.522,0,0,1-6.1,0Zm5.451-.538a2.677,2.677,0,0,0,.856-2.126,2.551,2.551,0,0,0-.9-2.072,4.1,4.1,0,0,0-4.726,0,2.55,2.55,0,0,0-.9,2.072,2.674,2.674,0,0,0,.856,2.126,4.244,4.244,0,0,0,4.815,0Zm-.362-6.3a2.282,2.282,0,0,0,.776-1.808,2.372,2.372,0,0,0-.767-1.843,2.94,2.94,0,0,0-2.055-.7,2.9,2.9,0,0,0-2.046.7,2.383,2.383,0,0,0-.759,1.843,2.3,2.3,0,0,0,.768,1.808,2.964,2.964,0,0,0,2.037.679A3,3,0,0,0,98.17,286.745Z" fill="#54565a"></path>
    <path d="M104.353,293.933a3.961,3.961,0,0,1-1.553-1.694,6.07,6.07,0,0,1-.573-2.769q0-7.832,5.556-7.831a5.824,5.824,0,0,1,1.376.14v.829a4.4,4.4,0,0,0-1.305-.159,3.967,3.967,0,0,0-3.414,1.491,8.461,8.461,0,0,0-1.278,4.525,3.321,3.321,0,0,1,1.4-1.483,4.312,4.312,0,0,1,2.143-.528,4.213,4.213,0,0,1,2.073.5,3.554,3.554,0,0,1,1.411,1.411,4.586,4.586,0,0,1-.009,4.19,3.586,3.586,0,0,1-1.455,1.428,4.54,4.54,0,0,1-2.2.512A4.281,4.281,0,0,1,104.353,293.933Zm4.55-1.112a3.176,3.176,0,0,0,.891-2.363,3.1,3.1,0,0,0-.891-2.329,3.264,3.264,0,0,0-2.372-.864,3.4,3.4,0,0,0-1.649.406,3,3,0,0,0-1.182,1.138,3.4,3.4,0,0,0-.026,3.271,3.044,3.044,0,0,0,1.155,1.183,3.29,3.29,0,0,0,1.7.44A3.222,3.222,0,0,0,108.9,292.821Z" fill="#54565a"></path>
    <path d="M112.811,294.056a.6.6,0,0,1-.177-.441.606.606,0,0,1,.177-.432.583.583,0,0,1,.441-.185.632.632,0,0,1,.617.617.583.583,0,0,1-.185.441.6.6,0,0,1-.432.176A.6.6,0,0,1,112.811,294.056Z" fill="#54565a"></path>
    <path d="M122.759,282.7h-7.126V281.9h8.06v.811l-5.168,11.518h-.917Z" fill="#54565a"></path>
    <path d="M125.634,294.056a.6.6,0,0,1-.177-.441.61.61,0,0,1,.177-.432.583.583,0,0,1,.441-.185.632.632,0,0,1,.617.617.583.583,0,0,1-.185.441.6.6,0,0,1-.432.176A.6.6,0,0,1,125.634,294.056Z" fill="#54565a"></path>
    <path d="M130.272,294.347a7.011,7.011,0,0,1-1.64-.45v-.881a6.916,6.916,0,0,0,1.676.52,10.153,10.153,0,0,0,1.817.167q3.6,0,3.6-2.734,0-2.61-3.827-2.611h-1.271v-.794h1.253a4.157,4.157,0,0,0,2.478-.687,2.23,2.23,0,0,0,.961-1.923,2.329,2.329,0,0,0-.741-1.86,3.271,3.271,0,0,0-2.2-.645,6.184,6.184,0,0,0-1.728.221,7.075,7.075,0,0,0-1.641.75v-.847a6.42,6.42,0,0,1,3.439-.934,4.067,4.067,0,0,1,2.814.882,3.108,3.108,0,0,1,.978,2.433,2.857,2.857,0,0,1-.634,1.879,3.56,3.56,0,0,1-1.888,1.1,3.525,3.525,0,0,1,2.152.969,2.828,2.828,0,0,1,.777,2.064,3.27,3.27,0,0,1-1.077,2.576,5.02,5.02,0,0,1-3.386.952A12.023,12.023,0,0,1,130.272,294.347Z" fill="#54565a"></path>
    <path d="M140.706,293.933a3.967,3.967,0,0,1-1.553-1.694,6.07,6.07,0,0,1-.573-2.769q0-7.832,5.557-7.831a5.824,5.824,0,0,1,1.376.14v.829a4.411,4.411,0,0,0-1.306-.159,3.965,3.965,0,0,0-3.413,1.491,8.461,8.461,0,0,0-1.278,4.525,3.31,3.31,0,0,1,1.4-1.483,4.312,4.312,0,0,1,2.143-.528,4.215,4.215,0,0,1,2.073.5,3.56,3.56,0,0,1,1.411,1.411,4.582,4.582,0,0,1-.01,4.19,3.58,3.58,0,0,1-1.455,1.428,4.536,4.536,0,0,1-2.2.512A4.285,4.285,0,0,1,140.706,293.933Zm4.551-1.112a3.175,3.175,0,0,0,.89-2.363,3.1,3.1,0,0,0-.89-2.329,3.267,3.267,0,0,0-2.372-.864,3.4,3.4,0,0,0-1.65.406,3,3,0,0,0-1.181,1.138,3.4,3.4,0,0,0-.027,3.271,3.054,3.054,0,0,0,1.156,1.183,3.288,3.288,0,0,0,1.7.44A3.225,3.225,0,0,0,145.257,292.821Z" fill="#54565a"></path>
    <path d="M151.757,282.961l-2.77,2.011v-.988l2.84-2.081h.864v12.329h-.934Z" fill="#54565a"></path>
    <path d="M155.161,294.056a.6.6,0,0,1-.177-.441.61.61,0,0,1,.177-.432A.586.586,0,0,1,155.6,293a.634.634,0,0,1,.617.617.584.584,0,0,1-.186.441.629.629,0,0,1-.873,0Z" fill="#54565a"></path>
    <path d="M165.109,282.7h-7.126V281.9h8.061v.811l-5.168,11.518h-.917Z" fill="#54565a"></path>
    <path d="M170.577,282.961l-2.769,2.011v-.988l2.839-2.081h.865v12.329h-.935Z" fill="#54565a"></path>
    <path d="M175.445,294.347a7,7,0,0,1-1.64-.45v-.881a6.922,6.922,0,0,0,1.675.52,10.172,10.172,0,0,0,1.818.167q3.6,0,3.6-2.734,0-2.61-3.828-2.611H175.8v-.794h1.253a4.157,4.157,0,0,0,2.478-.687,2.23,2.23,0,0,0,.961-1.923,2.329,2.329,0,0,0-.741-1.86,3.271,3.271,0,0,0-2.2-.645,6.191,6.191,0,0,0-1.729.221,7.089,7.089,0,0,0-1.64.75v-.847a6.42,6.42,0,0,1,3.439-.934,4.069,4.069,0,0,1,2.814.882,3.108,3.108,0,0,1,.978,2.433,2.853,2.853,0,0,1-.635,1.879,3.552,3.552,0,0,1-1.887,1.1,3.525,3.525,0,0,1,2.152.969,2.827,2.827,0,0,1,.776,2.064,3.269,3.269,0,0,1-1.076,2.576,5.02,5.02,0,0,1-3.386.952A12.013,12.013,0,0,1,175.445,294.347Z" fill="#54565a"></path>
    <path d="M186.522,282.961l-2.769,2.011v-.988l2.84-2.081h.864v12.329h-.935Z" fill="#54565a"></path>
    <path d="M197.891,293.324a4.294,4.294,0,0,1-1.262-3.307,4.64,4.64,0,0,1,1.138-3.3A4.214,4.214,0,0,1,201,285.5a4.891,4.891,0,0,1,2.4.547,3.6,3.6,0,0,1,1.492,1.516,4.732,4.732,0,0,1,.5,2.206v.582h-7.92a3.157,3.157,0,0,0,1.111,2.54,4.519,4.519,0,0,0,2.911.864,9.254,9.254,0,0,0,1.622-.141,6.4,6.4,0,0,0,1.411-.406V294a6.31,6.31,0,0,1-1.4.352,10.781,10.781,0,0,1-1.7.142A4.993,4.993,0,0,1,197.891,293.324Zm6.658-3.66a3.163,3.163,0,0,0-3.545-3.4,3.414,3.414,0,0,0-2.619.952,3.5,3.5,0,0,0-.909,2.452Z" fill="#54565a"></path>
    <path d="M210.97,289.77l-3.263-4h1.076L211.5,289.1l2.717-3.334h1.075l-3.263,3.986,3.652,4.48h-1.059l-3.122-3.809-3.122,3.809h-1.041Z" fill="#54565a"></path>
    <path d="M219.242,293.854a2.644,2.644,0,0,1-.617-1.9v-5.45h-1.358v-.741h1.358v-2.54h.917v2.54h2.187v.741h-2.187v5.485a1.881,1.881,0,0,0,.406,1.35,1.849,1.849,0,0,0,1.358.414,2.655,2.655,0,0,0,.918-.176v.775a4.426,4.426,0,0,1-1.236.142A2.311,2.311,0,0,1,219.242,293.854Z" fill="#54565a"></path>
    <path d="M224.04,294.056a.6.6,0,0,1-.177-.441.61.61,0,0,1,.177-.432.585.585,0,0,1,.441-.185.634.634,0,0,1,.618.617.584.584,0,0,1-.186.441.6.6,0,0,1-.432.176A.6.6,0,0,1,224.04,294.056Z" fill="#54565a"></path>
    <path d="M235.717,290.828h-1.8v-.794h2.029l1.075-3.809h-2.4v-.794h2.61l1.006-3.528h.865l-1.006,3.528h4.463l1-3.528h.883l-1.006,3.528h1.729v.794H243.23l-1.076,3.809h2.312v.794h-2.54l-.953,3.4h-.882l.953-3.4h-4.463l-.953,3.4h-.864Zm5.555-.794,1.077-3.809h-4.463l-1.075,3.809Z" fill="#54565a"></path>
    <path d="M248.91,290.828h-1.8v-.794h2.03l1.075-3.809h-2.4v-.794h2.611l1.006-3.528h.864l-1.006,3.528h4.463l1.005-3.528h.883l-1.006,3.528h1.728v.794h-1.94l-1.076,3.809h2.311v.794h-2.54l-.953,3.4h-.882l.953-3.4h-4.463l-.953,3.4h-.864Zm5.556-.794,1.076-3.809h-4.463L250,290.034Z" fill="#54565a"></path>
    <path d="M262.1,290.828h-1.8v-.794h2.029l1.075-3.809h-2.4v-.794h2.61l1.006-3.528h.864l-1.006,3.528h4.463l1.005-3.528h.883l-1.006,3.528h1.729v.794h-1.941l-1.076,3.809h2.312v.794h-2.54l-.954,3.4h-.881l.953-3.4h-4.463l-.953,3.4h-.865Zm5.555-.794,1.076-3.809h-4.463l-1.075,3.809Z" fill="#54565a"></path>
    <path d="M275.3,290.828h-1.8v-.794h2.029l1.076-3.809h-2.4v-.794h2.61l1.006-3.528h.865l-1.006,3.528h4.463l1.005-3.528h.882l-1.006,3.528h1.729v.794h-1.94l-1.077,3.809h2.312v.794h-2.54l-.953,3.4h-.882l.953-3.4h-4.463l-.953,3.4h-.864Zm5.556-.794,1.076-3.809h-4.463l-1.075,3.809Z" fill="#54565a"></path>
    <path d="M288.49,290.828h-1.8v-.794h2.03l1.075-3.809h-2.4v-.794h2.611l1.006-3.528h.864l-1.006,3.528h4.463l1-3.528h.883l-1.006,3.528h1.728v.794H296l-1.076,3.809h2.311v.794H294.7l-.953,3.4h-.882l.953-3.4h-4.463l-.953,3.4h-.864Zm5.556-.794,1.076-3.809h-4.463l-1.075,3.809Z" fill="#54565a"></path>
    <path d="M40.837,317.292a2.461,2.461,0,0,1-.892-2.028,2.508,2.508,0,0,1,.865-2.064,3.84,3.84,0,0,1,2.487-.706,6.438,6.438,0,0,1,3.351.812v-1.04a2.382,2.382,0,0,0-.687-1.879,3.283,3.283,0,0,0-2.2-.609,6.97,6.97,0,0,0-2.717.547v-.794a6.111,6.111,0,0,1,1.288-.37,8,8,0,0,1,1.482-.141,4.057,4.057,0,0,1,2.848.864,3.166,3.166,0,0,1,.926,2.434v5.433h-.864v-1.217a4.062,4.062,0,0,1-3.475,1.482A3.705,3.705,0,0,1,40.837,317.292Zm4.551-.467a2.819,2.819,0,0,0,1.26-1.19v-1.571a7.093,7.093,0,0,0-1.516-.626,6.444,6.444,0,0,0-1.694-.2,3.116,3.116,0,0,0-1.984.5,1.864,1.864,0,0,0-.608,1.526,1.768,1.768,0,0,0,.652,1.481,3.169,3.169,0,0,0,1.976.512A4.193,4.193,0,0,0,45.388,316.825Z" fill="#54565a"></path>
    <path d="M51.208,317.777a4.314,4.314,0,0,1-1.4-.59v-.794a5.864,5.864,0,0,0,1.473.643,5.763,5.763,0,0,0,1.614.238q2.328,0,2.329-1.481a1.525,1.525,0,0,0-.212-.838,1.835,1.835,0,0,0-.759-.591,9.591,9.591,0,0,0-1.6-.547,9.244,9.244,0,0,1-1.631-.573,2.3,2.3,0,0,1-.909-.75,2.07,2.07,0,0,1-.318-1.2,1.908,1.908,0,0,1,.874-1.693A4.153,4.153,0,0,1,53,309.02a5.64,5.64,0,0,1,2.628.529v.794a5.4,5.4,0,0,0-2.593-.565,3.358,3.358,0,0,0-1.737.37,1.249,1.249,0,0,0-.609,1.147,1.426,1.426,0,0,0,.211.829,1.721,1.721,0,0,0,.75.529,13.537,13.537,0,0,0,1.65.53,5.424,5.424,0,0,1,2.187,1,2.07,2.07,0,0,1,.635,1.605,1.916,1.916,0,0,1-.8,1.623,4.009,4.009,0,0,1-2.408.6A6.68,6.68,0,0,1,51.208,317.777Z" fill="#54565a"></path>
    <path d="M59.322,316.843a4.294,4.294,0,0,1-1.261-3.308,4.641,4.641,0,0,1,1.137-3.3,4.221,4.221,0,0,1,3.238-1.216,4.891,4.891,0,0,1,2.4.546,3.615,3.615,0,0,1,1.491,1.517,4.728,4.728,0,0,1,.5,2.2v.582h-7.92a3.159,3.159,0,0,0,1.112,2.54,4.517,4.517,0,0,0,2.911.864,9.274,9.274,0,0,0,1.622-.14,6.456,6.456,0,0,0,1.411-.406v.793a6.373,6.373,0,0,1-1.4.353,10.793,10.793,0,0,1-1.7.142A5,5,0,0,1,59.322,316.843Zm6.658-3.66a3.161,3.161,0,0,0-3.544-3.4,3.419,3.419,0,0,0-2.62.952,3.514,3.514,0,0,0-.909,2.453Z" fill="#54565a"></path>
    <path d="M71.775,321.658a5.63,5.63,0,0,1-1.332-.4v-.793a7.053,7.053,0,0,0,3,.6,3.777,3.777,0,0,0,2.707-.855,3.428,3.428,0,0,0,.892-2.584v-1.57a3.532,3.532,0,0,1-1.553,1.463,5.122,5.122,0,0,1-2.293.495,4.608,4.608,0,0,1-2.249-.556,4.045,4.045,0,0,1-1.6-1.579,5.09,5.09,0,0,1,0-4.727,4.064,4.064,0,0,1,1.588-1.579,4.55,4.55,0,0,1,2.24-.555,5.139,5.139,0,0,1,2.3.476,3.892,3.892,0,0,1,1.58,1.464v-1.676h.917v8.2q0,4.322-4.534,4.322A9.067,9.067,0,0,1,71.775,321.658Zm3.908-5.08a3.308,3.308,0,0,0,1.358-1.914v-2.31a3.4,3.4,0,0,0-1.385-1.9,4.11,4.11,0,0,0-2.338-.679,3.677,3.677,0,0,0-1.834.468,3.506,3.506,0,0,0-1.323,1.314,3.812,3.812,0,0,0-.493,1.958,3.86,3.86,0,0,0,.493,1.966,3.49,3.49,0,0,0,1.323,1.324,3.676,3.676,0,0,0,1.834.466A4.1,4.1,0,0,0,75.683,316.578Z" fill="#54565a"></path>
    <path d="M80.621,304.716h.917v13.035h-.917Z" fill="#54565a"></path>
    <path d="M86.026,317.46a4.037,4.037,0,0,1-1.614-1.57,4.647,4.647,0,0,1-.582-2.355,4.7,4.7,0,0,1,.582-2.363,4.087,4.087,0,0,1,1.614-1.588,5.2,5.2,0,0,1,4.71,0,4.136,4.136,0,0,1,1.623,1.588,5.038,5.038,0,0,1,.009,4.718,4.022,4.022,0,0,1-1.623,1.57,5.285,5.285,0,0,1-4.719,0Zm4.26-.644a3.2,3.2,0,0,0,1.288-1.305,4.084,4.084,0,0,0,.458-1.976,4.133,4.133,0,0,0-.458-1.984,3.2,3.2,0,0,0-1.288-1.315,4.189,4.189,0,0,0-3.809,0,3.2,3.2,0,0,0-1.289,1.315,4.144,4.144,0,0,0-.458,1.984,4.1,4.1,0,0,0,.458,1.976,3.2,3.2,0,0,0,1.289,1.305,4.189,4.189,0,0,0,3.809,0Z" fill="#54565a"></path>
    <path d="M96.143,316.058v1.693h-.9V304.716h.917v6.262a3.451,3.451,0,0,1,1.588-1.456,5.249,5.249,0,0,1,2.275-.5,4.542,4.542,0,0,1,2.248.564,4.08,4.08,0,0,1,1.6,1.6,5.088,5.088,0,0,1,0,4.726,3.992,3.992,0,0,1-1.6,1.562,4.662,4.662,0,0,1-2.248.547A4.3,4.3,0,0,1,96.143,316.058Zm5.583.75a3.43,3.43,0,0,0,1.322-1.315,3.871,3.871,0,0,0,.485-1.958,3.927,3.927,0,0,0-.485-1.967,3.414,3.414,0,0,0-1.322-1.322,3.734,3.734,0,0,0-1.844-.468,4.072,4.072,0,0,0-2.346.7,3.383,3.383,0,0,0-1.376,1.914v2.31a3.553,3.553,0,0,0,1.385,1.888,4.007,4.007,0,0,0,2.337.687A3.732,3.732,0,0,0,101.726,316.808Z" fill="#54565a"></path>
    <path d="M107.281,317.292a2.463,2.463,0,0,1-.891-2.028,2.51,2.51,0,0,1,.864-2.064,3.84,3.84,0,0,1,2.487-.706,6.441,6.441,0,0,1,3.352.812v-1.04a2.383,2.383,0,0,0-.688-1.879,3.283,3.283,0,0,0-2.205-.609,6.977,6.977,0,0,0-2.717.547v-.794a6.129,6.129,0,0,1,1.288-.37,8.011,8.011,0,0,1,1.482-.141,4.061,4.061,0,0,1,2.849.864,3.166,3.166,0,0,1,.925,2.434v5.433h-.864v-1.217a4.06,4.06,0,0,1-3.475,1.482A3.707,3.707,0,0,1,107.281,317.292Zm4.551-.467a2.826,2.826,0,0,0,1.261-1.19v-1.571a7.121,7.121,0,0,0-1.517-.626,6.436,6.436,0,0,0-1.693-.2,3.122,3.122,0,0,0-1.985.5,1.864,1.864,0,0,0-.608,1.526,1.768,1.768,0,0,0,.652,1.481,3.169,3.169,0,0,0,1.976.512A4.19,4.19,0,0,0,111.832,316.825Z" fill="#54565a"></path>
    <path d="M116.586,304.716h.917v13.035h-.917Z" fill="#54565a"></path>
    <path d="M119.972,317.574a.6.6,0,0,1-.177-.44.608.608,0,0,1,.177-.433.583.583,0,0,1,.441-.184.63.63,0,0,1,.617.617.579.579,0,0,1-.185.44.606.606,0,0,1-.432.177A.6.6,0,0,1,119.972,317.574Z" fill="#54565a"></path>
    <path d="M125.2,317.478a4.016,4.016,0,0,1-1.631-1.561,5.008,5.008,0,0,1,0-4.754,4.084,4.084,0,0,1,1.649-1.588,4.958,4.958,0,0,1,2.355-.555,7.035,7.035,0,0,1,1.667.176,3.863,3.863,0,0,1,1.3.582v.794a4,4,0,0,0-1.305-.608,6.308,6.308,0,0,0-1.6-.186,4.046,4.046,0,0,0-1.914.45,3.334,3.334,0,0,0-1.35,1.3,3.926,3.926,0,0,0-.493,2.011,3.981,3.981,0,0,0,.484,2.011,3.235,3.235,0,0,0,1.333,1.288,4.02,4.02,0,0,0,1.887.44,6.087,6.087,0,0,0,1.685-.211,5.152,5.152,0,0,0,1.4-.653v.794a4.076,4.076,0,0,1-1.367.617,7.321,7.321,0,0,1-1.791.195A4.914,4.914,0,0,1,125.2,317.478Z" fill="#54565a"></path>
    <path d="M134.8,317.46a4.024,4.024,0,0,1-1.614-1.57,4.647,4.647,0,0,1-.582-2.355,4.7,4.7,0,0,1,.582-2.363,4.075,4.075,0,0,1,1.614-1.588,5.2,5.2,0,0,1,4.71,0,4.149,4.149,0,0,1,1.623,1.588,5.038,5.038,0,0,1,.009,4.718,4.022,4.022,0,0,1-1.623,1.57,4.951,4.951,0,0,1-2.365.556A4.893,4.893,0,0,1,134.8,317.46Zm4.26-.644a3.212,3.212,0,0,0,1.288-1.305,4.1,4.1,0,0,0,.458-1.976,4.144,4.144,0,0,0-.458-1.984,3.207,3.207,0,0,0-1.288-1.315,4.191,4.191,0,0,0-3.81,0,3.2,3.2,0,0,0-1.288,1.315,4.133,4.133,0,0,0-.458,1.984,4.084,4.084,0,0,0,.458,1.976,3.2,3.2,0,0,0,1.288,1.305,4.191,4.191,0,0,0,3.81,0Z" fill="#54565a"></path>
    <path d="M144.014,309.284h.9v1.429a4.157,4.157,0,0,1,1.438-1.305,3.635,3.635,0,0,1,1.667-.388,3.153,3.153,0,0,1,1.711.388,2.017,2.017,0,0,1,.829,1.182,3.408,3.408,0,0,1,1.411-1.2,4.269,4.269,0,0,1,1.763-.371,2.727,2.727,0,0,1,2.17.758,3.444,3.444,0,0,1,.653,2.293v5.68h-.917v-5.592a2.917,2.917,0,0,0-.45-1.834,2.027,2.027,0,0,0-1.632-.547,3.306,3.306,0,0,0-2.8,1.552,4.6,4.6,0,0,1,.071.882v5.539H149.9v-5.539a3.12,3.12,0,0,0-.431-1.878,1.952,1.952,0,0,0-1.615-.556,2.862,2.862,0,0,0-1.56.441,4.927,4.927,0,0,0-1.367,1.428v6.1h-.917Z" fill="#54565a"></path>
  </g>
</svg>
