<?xml version="1.0" encoding="UTF-8"?>
<svg xmlns="http://www.w3.org/2000/svg" xmlns:xlink="http://www.w3.org/1999/xlink" width="600" height="342.857" viewBox="0 0 600 342.857">
  <defs>
    <clipPath id="a">
      <rect width="600" height="342.857" transform="translate(290.524 92.521)" fill="none"></rect>
    </clipPath>
    <clipPath id="b">
      <rect width="600" height="8.928" transform="translate(290.523 426.45)" fill="none"></rect>
    </clipPath>
    <linearGradient id="c" x1="1.011" y1="0.5" x2="-0.011" y2="0.5" gradientUnits="objectBoundingBox">
      <stop offset="0" stop-color="#e96b45"></stop>
      <stop offset="0.046" stop-color="#d96646"></stop>
      <stop offset="0.246" stop-color="#97564a"></stop>
      <stop offset="0.436" stop-color="#61484e"></stop>
      <stop offset="0.612" stop-color="#373e51"></stop>
      <stop offset="0.77" stop-color="#193654"></stop>
      <stop offset="0.905" stop-color="#063155"></stop>
      <stop offset="1" stop-color="#003056"></stop>
    </linearGradient>
  </defs>
  <g transform="translate(-290.523 -92.521)">
    <rect width="600" height="342.857" transform="translate(290.524 92.521)" fill="#fff"></rect>
    <g opacity="0.5">
      <g clip-path="url(#a)">
        <path d="M603.612,94.432a.806.806,0,1,1,0,1.611.844.844,0,0,1-.8-.538l-194.6.05-5.749,5.474a.75.75,0,0,1-.16.912.864.864,0,0,1-1.194,0,.771.771,0,0,1,0-1.139.844.844,0,0,1,.957-.152l5.913-5.63,194.832-.052a.846.846,0,0,1,.8-.536m-46.437,77.511a.807.807,0,1,1,0-1.613.852.852,0,0,1,.8.537H764.735l15.821,15.075a.955.955,0,0,1,.969.163.794.794,0,0,1,0,1.14.9.9,0,0,1-1.2,0,.763.763,0,0,1-.16-.911L764.5,171.4H557.974A.852.852,0,0,1,557.175,171.943Zm12.972,14.485a.808.808,0,1,1,0-1.615.858.858,0,0,1,.8.538h187.7l11.131,10.6a.854.854,0,0,1,.957.153.774.774,0,0,1,0,1.14.87.87,0,0,1-1.2,0,.753.753,0,0,1-.16-.912l-10.962-10.44H570.947A.854.854,0,0,1,570.147,186.428Zm6.68,7.17a.808.808,0,1,1,0-1.615.853.853,0,0,1,.8.539h178.01l8.869,8.445a.849.849,0,0,1,.957.152.773.773,0,0,1,0,1.14.868.868,0,0,1-1.195,0,.751.751,0,0,1-.16-.911l-8.7-8.288H577.626A.852.852,0,0,1,576.827,193.6Zm-13-14.34a.808.808,0,1,1,0-1.615.857.857,0,0,1,.8.538H761.765l13.332,12.7a.843.843,0,0,1,.957.152.769.769,0,0,1,0,1.138.868.868,0,0,1-1.2,0,.757.757,0,0,1-.159-.912L761.532,178.72H564.626A.854.854,0,0,1,563.825,179.258Zm266.71,89.492a.806.806,0,1,1,0,1.61.842.842,0,0,1-.795-.537l-226.328-.05-12.3,11.719a.752.752,0,0,1-.16.911.866.866,0,0,1-1.2,0,.77.77,0,0,1,0-1.137.851.851,0,0,1,.959-.153l12.471-11.878,226.56.052A.84.84,0,0,1,830.535,268.75Zm-15,14.287a.809.809,0,1,1,0,1.616.851.851,0,0,1-.8-.538H609.652l-7.811,7.438a.756.756,0,0,1-.16.912.868.868,0,0,1-1.2,0,.772.772,0,0,1,0-1.138.85.85,0,0,1,.958-.152l7.979-7.6H814.733A.851.851,0,0,1,815.53,283.037Zm-7.474,7.123a.805.805,0,1,1,0,1.609.847.847,0,0,1-.8-.536l-194.6.049-5.748,5.475a.75.75,0,0,1-.16.911.863.863,0,0,1-1.194,0,.772.772,0,0,1,0-1.14.849.849,0,0,1,.957-.15l5.913-5.633,194.832-.049A.851.851,0,0,1,808.056,290.16Zm15-14.293a.809.809,0,1,1,0,1.616.852.852,0,0,1-.8-.54H606.533l-9.666,9.206a.754.754,0,0,1-.16.911.867.867,0,0,1-1.2,0,.774.774,0,0,1,0-1.14.853.853,0,0,1,.957-.152L606.3,276.4H822.262A.851.851,0,0,1,823.059,275.867Zm-470.392-5.556a.808.808,0,1,1,0-1.613.85.85,0,0,1,.8.537H560.441l15.67,14.931a.957.957,0,0,1,.97.164.8.8,0,0,1,0,1.14.9.9,0,0,1-1.2,0,.769.769,0,0,1-.16-.914l-15.518-14.783H353.464A.852.852,0,0,1,352.667,270.311ZM365.7,284.653a.809.809,0,1,1,0-1.616.857.857,0,0,1,.8.538H554.2l11.131,10.6a.848.848,0,0,1,.957.152.774.774,0,0,1,0,1.14.868.868,0,0,1-1.2,0,.757.757,0,0,1-.16-.913l-10.962-10.438H366.5A.857.857,0,0,1,365.7,284.653Zm6.68,7.169a.808.808,0,1,1,0-1.615.855.855,0,0,1,.8.538H551.191l8.869,8.447a.853.853,0,0,1,.958.152.771.771,0,0,1,0,1.139.866.866,0,0,1-1.2,0,.75.75,0,0,1-.16-.91l-8.7-8.288H373.182A.852.852,0,0,1,372.383,291.822Zm-13-14.339a.809.809,0,1,1,0-1.616.856.856,0,0,1,.8.538H557.318l13.335,12.7a.849.849,0,0,1,.957.155.77.77,0,0,1,0,1.137.867.867,0,0,1-1.2,0,.755.755,0,0,1-.16-.912l-13.166-12.54h-196.9A.859.859,0,0,1,359.382,277.483ZM626.091,366.4a.807.807,0,1,1,0,1.613.854.854,0,0,1-.8-.537H398.759l-12.1,11.519a.754.754,0,0,1-.16.912.868.868,0,0,1-1.2,0,.771.771,0,0,1,0-1.138.849.849,0,0,1,.958-.152l12.262-11.679H625.291A.858.858,0,0,1,626.091,366.4Zm-15.005,14.141a.808.808,0,1,1,0,1.615.851.851,0,0,1-.8-.538H405.208l-7.811,7.439a.757.757,0,0,1-.16.913.868.868,0,0,1-1.2,0,.771.771,0,0,1,0-1.14.848.848,0,0,1,.957-.151l7.98-7.6H610.289A.851.851,0,0,1,611.086,380.541Zm-7.474,7.123a.806.806,0,1,1,0,1.61.844.844,0,0,1-.8-.538l-194.6.052-5.749,5.472a.75.75,0,0,1-.16.912.863.863,0,0,1-1.194,0,.77.77,0,0,1,0-1.138.846.846,0,0,1,.957-.152l5.913-5.632,194.832-.051A.846.846,0,0,1,603.612,387.664Zm15.005-14.293a.808.808,0,1,1,0,1.615.854.854,0,0,1-.8-.537H402.089l-9.666,9.2a.755.755,0,0,1-.16.912.868.868,0,0,1-1.2,0,.77.77,0,0,1,0-1.138.845.845,0,0,1,.957-.153l9.833-9.364H617.817A.851.851,0,0,1,618.617,373.371ZM290.524,95.556v-.539h56.224l8.868,8.446a.852.852,0,0,1,.957.153.772.772,0,0,1,0,1.14.87.87,0,0,1-1.2,0,.757.757,0,0,1-.16-.912l-8.7-8.288Zm0,10.752v-.539H351.2l33.876,32.263H611.185l22.584-21.508H750.151l51.658,49.2a.847.847,0,0,1,.958.152.768.768,0,0,1,0,1.138.864.864,0,0,1-1.2,0,.752.752,0,0,1-.16-.912l-51.494-49.039-115.915,0-22.586,21.509H384.848l-33.876-32.26Zm0,7.168v-.538h57.56L381.613,145.2H614.584l22.3-21.509h110.14l49.457,47.1a.851.851,0,0,1,.957.153.769.769,0,0,1,0,1.14.868.868,0,0,1-1.2,0,.753.753,0,0,1-.159-.912L746.8,124.23H637.126l-22.307,21.509H381.378l-33.53-32.263Zm0,7.172v-.541h54.438L378.5,152.371h238.72l22.794-21.51h103.9l47.105,44.861a.851.851,0,0,1,.957.151.775.775,0,0,1,0,1.141.87.87,0,0,1-1.2,0,.757.757,0,0,1-.16-.912l-46.935-44.7H640.244L617.45,152.908H378.262l-33.534-32.26Zm0,7.169v-.539h51.863l33.7,32.263,245.039-.659,21.893-20.85H740.9L785.9,180.88a.85.85,0,0,1,.956.152.774.774,0,0,1,0,1.14.867.867,0,0,1-1.2,0,.751.751,0,0,1-.16-.911l-44.826-42.693H643.25l-21.891,20.851q-122.7,0-245.508.659l-33.7-32.261Zm0,10.751v-.536h51.2a.853.853,0,0,1,.8-.538.807.807,0,1,1,0,1.612.853.853,0,0,1-.8-.538Zm0,7.183v-.538L350.3,145.2a.842.842,0,0,1,.8-.535.805.805,0,1,1,0,1.608.841.841,0,0,1-.8-.535Zm0,7.369v-.538l64.187,0a.846.846,0,0,1,.794-.538.807.807,0,1,1,0,1.611.839.839,0,0,1-.794-.536Zm0,18.431v-.54H420.848a.853.853,0,0,1,.8-.538.808.808,0,1,1,0,1.615.855.855,0,0,1-.8-.537Zm0,7.169v-.539H413.373a.852.852,0,0,1,.8-.538.809.809,0,1,1,0,1.615.852.852,0,0,1-.8-.538Zm0,7.17v-.539H405.845a.852.852,0,0,1,.8-.538.809.809,0,1,1,0,1.615.851.851,0,0,1-.8-.538Zm0,7.167v-.538l107.847-.046a.847.847,0,0,1,.795-.537.806.806,0,1,1,0,1.61.846.846,0,0,1-.8-.535Zm0,10.754v-.537H398.243L431.91,171.21H543.236l68.179,64.324h139.2a.853.853,0,0,1,.8-.537.809.809,0,1,1,0,1.615.853.853,0,0,1-.8-.537H611.183L543,171.748H432.141l-33.665,32.063Zm0,7.17v-.537h110.84l33.874-32.263H539.9l68.422,64.553,150.86-.029a.84.84,0,0,1,.8-.536.806.806,0,1,1,0,1.61.85.85,0,0,1-.8-.537l-151.093.029L539.67,178.72h-104.2L401.6,210.981Zm0,7.17v-.537H404.485l33.874-32.263h98.423L605.409,250.1l158.19-.222a.851.851,0,0,1,.795-.538.807.807,0,1,1,0,1.612.847.847,0,0,1-.8-.536l-158.423.222L536.549,185.89H438.592l-33.874,32.261Zm0,7.17v-.538h116.97l33.873-32.261h92.409l68.392,64.522H771.386a.853.853,0,0,1,.8-.538.808.808,0,1,1,0,1.615.854.854,0,0,1-.8-.537H601.935L533.543,193.06H441.6l-33.876,32.261Zm0,10.754v-.541H406.7l22.63-21.506H545.707l51.658,49.2a.849.849,0,0,1,.958.152.771.771,0,0,1,0,1.14.866.866,0,0,1-1.2,0,.755.755,0,0,1-.16-.914l-51.494-49.039-115.916,0-22.629,21.512Zm0,7.169v-.539H410.139l22.3-21.51h110.14l43.867,41.778a.852.852,0,0,1,.956.154.767.767,0,0,1,0,1.138.866.866,0,0,1-1.194,0,.753.753,0,0,1-.16-.912l-43.7-41.621H432.68l-22.306,21.512Zm0,7.168v-.538l122.25,0,22.794-21.511h103.9L575.8,262.973a.851.851,0,0,1,.957.154.772.772,0,0,1,0,1.138.867.867,0,0,1-1.2,0,.75.75,0,0,1-.16-.912L539.232,228.9H435.8l-22.794,21.51Zm0,6.571v-.538l126.158-.337,22.209-20.574h97.881l28.813,27.439a.854.854,0,0,1,.957.154.772.772,0,0,1,0,1.138.867.867,0,0,1-1.2,0,.753.753,0,0,1-.16-.912l-28.646-27.278H439.121l-22.208,20.571Zm0,12.989v-.538h48.265l68.183,64.325h139.2a.853.853,0,0,1,.8-.538.807.807,0,1,1,0,1.613.849.849,0,0,1-.8-.537H406.738l-68.18-64.325Zm0,6.971V276.4h44.935l68.422,64.553,150.86-.029a.84.84,0,0,1,.795-.537.806.806,0,1,1,0,1.609.846.846,0,0,1-.795-.536l-151.093.031-68.422-64.553Zm0,7.172v-.54h41.814l68.627,64.748H559.153a.852.852,0,0,1,.8-.538.807.807,0,1,1,0,1.613.849.849,0,0,1-.8-.538H400.732l-68.627-64.745Zm0,7.17v-.54h38.805l68.392,64.523H566.942a.851.851,0,0,1,.8-.537.807.807,0,1,1,0,1.613.852.852,0,0,1-.8-.538H397.491L329.1,291.285Zm0,21.5v-.537l50.739,0,51.658,49.2a.849.849,0,0,1,.958.152.771.771,0,0,1,0,1.138.867.867,0,0,1-1.2,0,.76.76,0,0,1-.16-.912l-51.491-49.04Zm0,7.17v-.538h47.615l49.458,47.1a.848.848,0,0,1,.957.152.774.774,0,0,1,0,1.14.87.87,0,0,1-1.2,0,.755.755,0,0,1-.16-.911l-49.29-46.946Zm0,7.17v-.538h44.5l47.1,44.86a.852.852,0,0,1,.958.152.771.771,0,0,1,0,1.14.868.868,0,0,1-1.2,0,.75.75,0,0,1-.16-.91l-46.938-44.7Zm0,7.17v-.538h41.487L377,376.608a.854.854,0,0,1,.958.152.771.771,0,0,1,0,1.14.869.869,0,0,1-1.2,0,.75.75,0,0,1-.159-.911L331.78,334.3Zm0,32.981v-.539H356l15.67,14.931a.961.961,0,0,1,.97.163.793.793,0,0,1,0,1.14.891.891,0,0,1-1.2,0,.76.76,0,0,1-.159-.911l-15.518-14.784Zm0,7.171v-.54h62.35l13.335,12.7a.847.847,0,0,1,.957.15.774.774,0,0,1,0,1.14.868.868,0,0,1-1.2,0,.751.751,0,0,1-.159-.912l-13.167-12.538Zm0,7.169v-.539h59.229l11.129,10.6a.856.856,0,0,1,.959.153.772.772,0,0,1,0,1.14.869.869,0,0,1-1.2,0,.75.75,0,0,1-.16-.912l-10.965-10.44Zm0,7.17v-.538h56.224l8.868,8.445a.852.852,0,0,1,.957.152.772.772,0,0,1,0,1.14.868.868,0,0,1-1.2,0,.757.757,0,0,1-.16-.912l-8.7-8.287Zm0,43.014v-.539h51.2a.855.855,0,0,1,.8-.538.808.808,0,1,1,0,1.615.858.858,0,0,1-.8-.538Zm67.4,3.576h-.8l-14.968-14.329h-51.63v-.54h51.863Zm9.953,0h-.8l-22.349-21.5h-54.2v-.54h54.438Zm10.568,0h-.8l-29.8-28.669H290.524v-.54h57.56Zm366.783,0h-.8l-3.755-3.576H643.25l-3.755,3.576h-.8l4.322-4.115H740.9Zm10.536,0h-.8L743.677,424.63H640.244l-11.388,10.748h-.8l11.96-11.285h103.9Zm10.647,0h-.8L746.8,417.461H637.126l-18.58,17.917h-.8l19.138-18.455h110.14Zm10.651,0h-.8l-26.342-25.085-115.915,0L611.417,431.8H384.848l-33.876-32.265H290.524V399H351.2l33.876,32.263H611.185l22.584-21.51,116.382,0Zm11.119,0h-.805l-49.383-46.59H646.044l-33.876,32.261H414.935l-7.319,6.97a.756.756,0,0,1-.162.912.868.868,0,0,1-1.2,0,.774.774,0,0,1,0-1.14.852.852,0,0,1,.957-.153l7.486-7.127H611.938l33.874-32.261H738.22Zm10.6,0h-.8L741,381.618h-97.96l-33.874,32.261H411.927l-12.315,11.73v1.581a.813.813,0,0,1,.565.76.849.849,0,0,1-1.7,0,.809.809,0,0,1,.565-.76v-1.8l12.647-12.046H608.929L642.8,381.079h98.423Zm10.722,0h-.8l-64.582-60.929h-104.2l-33.875,32.26H408.8l-16.724,15.928v4.553a.809.809,0,0,1,.565.76.847.847,0,0,1-1.693,0,.809.809,0,0,1,.565-.76v-4.775l17.055-16.243H605.809l33.876-32.263H744.347Zm81.022-4.115v.539h-74.9l-68.18-64.326H636.587l-33.666,32.063H405.685l-21.132,20.125v3.93a.811.811,0,0,1,.565.761.848.848,0,0,1-1.693,0,.81.81,0,0,1,.564-.761v-4.151L405.454,399H602.688l33.666-32.064H747.68l68.179,64.325Zm0-10.754v.54H814.345L787.416,395.4a.852.852,0,0,1-.957-.152.77.77,0,0,1,0-1.138.865.865,0,0,1,1.194,0,.759.759,0,0,1,.163.908l26.759,25.489Zm0-7.17v.54H817.461L797.666,394.3a.9.9,0,0,1-.963-.176.78.78,0,0,1,.022-1.138.879.879,0,0,1,1.2.02.757.757,0,0,1,.145.918L817.7,413.339Zm0-7.17v.54h-69.94l-12.006-11.437a.852.852,0,0,1-.957-.152.77.77,0,0,1,0-1.138.865.865,0,0,1,1.194,0,.759.759,0,0,1,.163.907l11.839,11.28Zm0-7.169v.537H823.592l-4.753-4.524a.883.883,0,0,1-.962-.157.779.779,0,0,1,0-1.138.876.876,0,0,1,1.2,0,.788.788,0,0,1,.165.918L823.823,399Zm0-10.75v.538H782.071a.853.853,0,0,1-.8.538.809.809,0,1,1,0-1.615.851.851,0,0,1,.8.539Zm0-7.171v.539H775.392a.857.857,0,0,1-.8.538.808.808,0,1,1,0-1.615.86.86,0,0,1,.8.538Zm0-7.17v.54H769.069a.85.85,0,0,1-.8.537.808.808,0,1,1,0-1.615.852.852,0,0,1,.8.538Zm0-7.17v.539H762.353a.85.85,0,0,1-.8.538.808.808,0,1,1,0-1.615.853.853,0,0,1,.8.538Zm0-32.98v.538H847.7L825.8,355.806H580.369L546.6,323.545H405.454L378.525,297.9a.853.853,0,0,1-.957-.153.773.773,0,0,1,0-1.139.871.871,0,0,1,1.2,0,.76.76,0,0,1,.162.907l26.759,25.491H546.832l33.77,32.263H825.568l21.893-21.509Zm0-7.17v.538H844.689L821.9,348.637H582.706l-33.532-32.264h-140.6L388.777,296.8a.891.891,0,0,1-.961-.177.781.781,0,0,1,.021-1.14.876.876,0,0,1,1.2.022.763.763,0,0,1,.147.919l19.63,19.415h140.6L582.944,348.1H821.661l22.794-21.51Zm0-7.17v.538H841.57l-22.3,21.509H585.825L552.292,309.2H411.7l-12.009-11.435a.857.857,0,0,1-.957-.152.771.771,0,0,1,0-1.138.867.867,0,0,1,1.2,0,.757.757,0,0,1,.162.907l11.839,11.28h140.6l33.531,32.263h232.97l22.307-21.51Zm0-7.169v.537H838.447L815.862,334.3H589.292l-33.877-32.261H414.7l-4.758-4.531a.854.854,0,0,1-.957-.152.775.775,0,0,1,0-1.141.87.87,0,0,1,1.2,0,.758.758,0,0,1,.162.908l4.589,4.376H555.648l33.874,32.263H815.629l22.585-21.509Zm0-21.505v.54H850.488l-33.876,32.26H619.379l-7.319,6.971a.755.755,0,0,1-.16.912.87.87,0,0,1-1.2,0,.775.775,0,0,1,0-1.141.849.849,0,0,1,.957-.152l7.486-7.127H816.382l33.874-32.263Zm0-7.17v.54H847.48l-33.874,32.261H616.371L604.056,328.1v1.582a.816.816,0,0,1,.565.761.849.849,0,0,1-1.7,0,.817.817,0,0,1,.565-.761v-1.8l12.65-12.046H813.373l33.877-32.263Zm0-7.17v.538H844.362l-33.876,32.263H613.25l-16.724,15.928v4.551a.817.817,0,0,1,.567.761.849.849,0,0,1-1.7,0,.813.813,0,0,1,.565-.761v-4.773l17.057-16.244H810.253L844.129,276.4Zm0-6.971v.538H841.032l-33.667,32.064H610.129L589,322.161v3.929a.813.813,0,0,1,.566.761.849.849,0,0,1-1.7,0,.811.811,0,0,1,.564-.761v-4.151L609.9,301.5H807.134L840.8,269.434Zm0-13.049v.538H784.053l-33.01-31.6H609.9l-26.926-25.646a.853.853,0,0,1-.957-.153.77.77,0,0,1,0-1.138.864.864,0,0,1,1.194,0,.758.758,0,0,1,.163.907l26.76,25.49H751.277l33.011,31.6Zm0-6.511v.538H787.153l-33.536-32.261h-140.6l-19.794-19.578a.9.9,0,0,1-.962-.175.785.785,0,0,1,.022-1.141.881.881,0,0,1,1.2.021.759.759,0,0,1,.145.918l19.634,19.415h140.6l33.535,32.263Zm0-7.169v.539H790.269l-33.53-32.263H616.14l-12.006-11.437a.846.846,0,0,1-.957-.152.77.77,0,0,1,0-1.138.864.864,0,0,1,1.194,0,.759.759,0,0,1,.163.908l11.839,11.28h140.6L790.5,242.705Zm0-7.171v.541H793.735l-33.876-32.264H619.148l-4.76-4.53a.856.856,0,0,1-.957-.153.774.774,0,0,1,0-1.14.868.868,0,0,1,1.2,0,.756.756,0,0,1,.162.907l4.589,4.376H760.092l33.874,32.263Zm0-10.751v.538h-66.7l-7.319,6.97a.753.753,0,0,1-.16.912.87.87,0,0,1-1.2,0,.775.775,0,0,1,0-1.141.859.859,0,0,1,.957-.152l7.486-7.127Zm0-7.169v.537H820.815L808.5,229.881v1.581a.812.812,0,0,1,.564.76.849.849,0,0,1-1.7,0,.811.811,0,0,1,.564-.76v-1.8l12.651-12.045Zm0-7.17v.537H817.7l-16.724,15.928v4.553a.812.812,0,0,1,.565.76.849.849,0,0,1-1.7,0,.813.813,0,0,1,.564-.76v-4.775l17.058-16.243Zm0-7.17v.537H814.575l-21.131,20.126v3.928a.816.816,0,0,1,.565.762.849.849,0,0,1-1.7,0,.816.816,0,0,1,.564-.762v-4.148l21.466-20.443Zm0-10.752v.538H817.1l-5.745,5.472a.756.756,0,0,1-.16.911.864.864,0,0,1-1.2,0,.769.769,0,0,1,0-1.137.85.85,0,0,1,.957-.153l5.916-5.631Zm0-7.171v.539H814.1l-7.812,7.439a.757.757,0,0,1-.16.914.871.871,0,0,1-1.2,0,.774.774,0,0,1,0-1.14.852.852,0,0,1,.959-.153l7.979-7.6Zm0-7.17v.539H810.977l-9.666,9.2a.75.75,0,0,1-.16.912.866.866,0,0,1-1.2,0,.77.77,0,0,1,0-1.138.847.847,0,0,1,.958-.152l9.83-9.365Zm0-7.17v.54H807.856l-12.3,11.717a.755.755,0,0,1-.159.913.869.869,0,0,1-1.2,0,.771.771,0,0,1,0-1.14.848.848,0,0,1,.957-.152l12.47-11.878Zm0-11.47v.537H806.379L737.988,95.556H646.044l-33.876,32.261H414.935l-7.319,6.97a.756.756,0,0,1-.162.912.866.866,0,0,1-1.2,0,.773.773,0,0,1,0-1.139.852.852,0,0,1,.957-.153l7.486-7.127H611.938l33.874-32.263H738.22l68.392,64.524Zm0-32.263v.539H814.345l-26.929-25.646a.854.854,0,0,1-.957-.152.773.773,0,0,1,0-1.141.866.866,0,0,1,1.194,0,.763.763,0,0,1,.163.91l26.759,25.49Zm0-7.171v.541H817.461l-19.795-19.579a.9.9,0,0,1-.963-.177.782.782,0,0,1,.022-1.14.882.882,0,0,1,1.2.022.759.759,0,0,1,.145.919L817.7,120.107Zm0-7.169v.538h-69.94l-12.006-11.435a.846.846,0,0,1-.957-.153.767.767,0,0,1,0-1.137.863.863,0,0,1,1.194,0,.75.75,0,0,1,.163.907l11.839,11.28Zm0-7.169v.539H823.592l-4.757-4.531a.854.854,0,0,1-.958-.152.772.772,0,0,1,0-1.14.868.868,0,0,1,1.2,0,.757.757,0,0,1,.162.906l4.589,4.378Zm0-10.752v.539H782.071a.852.852,0,0,1-.8.538.808.808,0,1,1,0-1.614.853.853,0,0,1,.8.537Zm-123.707-2.5h.8l48.237,45.511h74.665v.536h-74.9Zm-10.719,0h.8l55.869,52.709h77.755v.538H812.536Zm-10.721,0h.8L809.853,152.6l80.671-.013v.538l-80.9.012Zm-107.481,0h.8l-29.534,28.127H411.927l-12.315,11.73v1.579a.817.817,0,0,1,.565.761.849.849,0,0,1-1.7,0,.813.813,0,0,1,.565-.761v-1.8l12.647-12.046H608.929Zm-10.647,0h.8l-22.005,20.957H408.8L392.081,129.4v4.552a.813.813,0,0,1,.565.761.847.847,0,0,1-1.693,0,.813.813,0,0,1,.565-.761v-4.773l17.055-16.244H605.809Zm-10.649,0h.8l-14.476,13.787H405.685l-21.132,20.125v3.929a.813.813,0,0,1,.565.761.847.847,0,0,1-1.693,0,.812.812,0,0,1,.564-.761v-4.15l21.465-20.441H602.688Zm-216.531,0h.8l-3.47,3.3a.755.755,0,0,1-.16.912.87.87,0,0,1-1.2,0,.77.77,0,0,1,0-1.139.848.848,0,0,1,.957-.152Zm-46.207,0h.8l6.222,5.925a.852.852,0,0,1,.959.152.773.773,0,0,1,0,1.141.869.869,0,0,1-1.2,0,.75.75,0,0,1-.16-.912Zm11.448,0,.9.856a.845.845,0,0,1,.957.153.77.77,0,0,1,0,1.137.867.867,0,0,1-1.2,0,.749.749,0,0,1-.159-.911l-1.3-1.235Z" fill="#dee1e8"></path>
      </g>
    </g>
    <g clip-path="url(#b)">
      <rect width="600" height="8.928" transform="translate(290.523 426.45)" fill="url(#c)"></rect>
    </g>
    <path d="M661.786,141.923h3.88l5.562,11.531,5.588-11.531h3.855v17.222H676.92v-9.781l-4.786,9.781h-1.811l-4.76-9.781v9.781h-3.777Z" fill="#54565b"></path>
    <path d="M689.078,157.051a4.224,4.224,0,0,0,1.734-.345,2.9,2.9,0,0,0,1.215-.961v-1.182a5.291,5.291,0,0,0-2.9-.838,2.77,2.77,0,0,0-1.668.431,1.479,1.479,0,0,0-.583,1.269,1.407,1.407,0,0,0,.569,1.207,2.713,2.713,0,0,0,1.63.419m-1.06,2.464a5.95,5.95,0,0,1-3.713-1.1,3.565,3.565,0,0,1-1.436-2.994,3.706,3.706,0,0,1,1.372-3.067,6.071,6.071,0,0,1,3.88-1.1,9.839,9.839,0,0,1,2.121.222,7.462,7.462,0,0,1,1.785.616v-.3a1.779,1.779,0,0,0-.827-1.626,4.886,4.886,0,0,0-2.535-.517,10.618,10.618,0,0,0-4.192.813v-2.71a10.444,10.444,0,0,1,2.148-.579,15.077,15.077,0,0,1,2.639-.234,7.969,7.969,0,0,1,5.018,1.318,4.441,4.441,0,0,1,1.656,3.683v7.195H692.26v-1.084A6.021,6.021,0,0,1,688.018,159.515Z" fill="#54565b"></path>
    <path d="M703.074,159.515a4.42,4.42,0,0,1-3.3-1.146,4.357,4.357,0,0,1-1.126-3.19v-5.174h-1.811v-2.686h1.811v-3.548h3.907v3.548h2.923v2.686h-2.923v4.681a2.189,2.189,0,0,0,.414,1.491,1.935,1.935,0,0,0,1.474.455,3.55,3.55,0,0,0,1.63-.394v2.784a7.884,7.884,0,0,1-3,.493" fill="#54565b"></path>
    <path d="M712.439,159.515a4.424,4.424,0,0,1-3.3-1.146,4.357,4.357,0,0,1-1.125-3.19v-5.174H706.2v-2.686h1.811v-3.548h3.907v3.548h2.923v2.686h-2.923v4.681a2.184,2.184,0,0,0,.414,1.491,1.935,1.935,0,0,0,1.474.455,3.553,3.553,0,0,0,1.63-.394v2.784a7.887,7.887,0,0,1-3,.493" fill="#54565b"></path>
    <path d="M717.251,140.938h3.906v7.736a5.829,5.829,0,0,1,1.992-1.293,6.518,6.518,0,0,1,2.38-.431,5.057,5.057,0,0,1,3.79,1.293,4.794,4.794,0,0,1,1.255,3.487v7.416h-3.907v-7a2,2,0,0,0-2.224-2.291,3.838,3.838,0,0,0-1.837.456,4.024,4.024,0,0,0-1.449,1.343v7.49h-3.906Z" fill="#54565b"></path>
    <path d="M742.914,152.148a2.388,2.388,0,0,0-.931-1.835,3.8,3.8,0,0,0-2.355-.653,3.7,3.7,0,0,0-2.328.665,2.4,2.4,0,0,0-.931,1.823Zm-2.613,7.367a8.74,8.74,0,0,1-5.614-1.638,5.559,5.559,0,0,1-2.044-4.6,6.022,6.022,0,0,1,1.824-4.631,7.363,7.363,0,0,1,5.213-1.7,8.261,8.261,0,0,1,3.777.788,5.517,5.517,0,0,1,2.354,2.18,6.177,6.177,0,0,1,.8,3.142v1.5H736.369q.414,2.267,4.449,2.267a15.918,15.918,0,0,0,2.458-.2,11.477,11.477,0,0,0,2.2-.541V158.7a10.583,10.583,0,0,1-2.328.591A18.437,18.437,0,0,1,740.3,159.515Z" fill="#54565b"></path>
    <path d="M748.269,147.319h3.906l2.277,7.391,2.225-7.391h3.259l2.251,7.391,2.251-7.391h3.906l-4.113,11.826h-3.544l-2.38-7.342-2.38,7.342h-3.544Z" fill="#54565b"></path>
    <path d="M779.08,141.923h4.139l3.234,11.136,3.182-11.136h3.027l3.078,11.136,3.234-11.136h4.113l-5.071,17.222h-3.7l-3.234-10.915-3.207,10.915h-3.725Z" fill="#54565b"></path>
    <path d="M809.038,157.051a4.219,4.219,0,0,0,1.733-.345,2.9,2.9,0,0,0,1.216-.961v-1.182a5.3,5.3,0,0,0-2.9-.838,2.77,2.77,0,0,0-1.668.431,1.481,1.481,0,0,0-.582,1.269,1.4,1.4,0,0,0,.569,1.207,2.709,2.709,0,0,0,1.63.419m-1.061,2.464a5.95,5.95,0,0,1-3.713-1.1,3.564,3.564,0,0,1-1.435-2.994,3.705,3.705,0,0,1,1.371-3.067,6.074,6.074,0,0,1,3.881-1.1,9.853,9.853,0,0,1,2.121.222,7.478,7.478,0,0,1,1.785.616v-.3a1.778,1.778,0,0,0-.828-1.626,4.886,4.886,0,0,0-2.535-.517,10.61,10.61,0,0,0-4.191.813v-2.71a10.45,10.45,0,0,1,2.147-.579,15.085,15.085,0,0,1,2.639-.234,7.968,7.968,0,0,1,5.018,1.318,4.441,4.441,0,0,1,1.656,3.683v7.195H812.22v-1.084A6.023,6.023,0,0,1,807.977,159.515Z" fill="#54565b"></path>
    <path d="M818.48,147.319h3.777v1.454a5.431,5.431,0,0,1,2.031-1.368,6.8,6.8,0,0,1,2.47-.455,5.056,5.056,0,0,1,3.79,1.293,4.794,4.794,0,0,1,1.255,3.487v7.416H827.9v-7a2,2,0,0,0-2.225-2.291,3.838,3.838,0,0,0-1.837.456,4.024,4.024,0,0,0-1.449,1.343v7.49H818.48Z" fill="#54565b"></path>
    <path d="M841.453,156.632a3.934,3.934,0,0,0,2.186-.628,3.207,3.207,0,0,0,1.332-1.663v-2.217a3.466,3.466,0,0,0-1.358-1.651,3.864,3.864,0,0,0-2.16-.616,3.665,3.665,0,0,0-2.574.911,3.147,3.147,0,0,0-1,2.44,3.253,3.253,0,0,0,1,2.488,3.605,3.605,0,0,0,2.574.936m-.388,8.18a14.313,14.313,0,0,1-2.5-.222A9.461,9.461,0,0,1,836.46,164v-2.735a11.791,11.791,0,0,0,4.6.838,4.454,4.454,0,0,0,3-.813,3.114,3.114,0,0,0,.905-2.439v-.739a5.4,5.4,0,0,1-1.966,1.047,8.428,8.428,0,0,1-2.484.357,7.212,7.212,0,0,1-3.427-.8,5.929,5.929,0,0,1-2.367-2.229,6.212,6.212,0,0,1-.854-3.253,6.381,6.381,0,0,1,.841-3.3,5.7,5.7,0,0,1,2.328-2.205,7.238,7.238,0,0,1,3.4-.776,7.647,7.647,0,0,1,2.561.394A6.45,6.45,0,0,1,845.1,148.6v-1.281h3.777v11.063a5.983,5.983,0,0,1-1.914,4.755Q845.049,164.813,841.065,164.812Z" fill="#54565b"></path>
    <path d="M767.12,179.45h8.673v1.541h-6.754v3.96h5.042v1.523h-5.042v3.978h6.754v1.523H767.12Z" fill="#54565b"></path>
    <path d="M777.769,183.374h1.843v1.237a3.851,3.851,0,0,1,1.571-1.138,5.262,5.262,0,0,1,1.948-.367,3.582,3.582,0,0,1,2.69.914,3.376,3.376,0,0,1,.884,2.454v5.5h-1.9v-5.322a1.857,1.857,0,0,0-2.107-2.1,3.616,3.616,0,0,0-1.684.4,3.683,3.683,0,0,0-1.345,1.228v5.787h-1.9Z" fill="#54565b"></path>
    <path d="M793.855,190.811a3.651,3.651,0,0,0,2.06-.592,2.931,2.931,0,0,0,1.213-1.577v-1.935a3.064,3.064,0,0,0-1.232-1.577,3.641,3.641,0,0,0-2.041-.573,3.565,3.565,0,0,0-1.666.385,2.853,2.853,0,0,0-1.166,1.1,3.371,3.371,0,0,0,0,3.27,2.933,2.933,0,0,0,1.166,1.1,3.5,3.5,0,0,0,1.666.4m-.075,5.285a11.157,11.157,0,0,1-1.8-.143,6.074,6.074,0,0,1-1.477-.412v-1.488a8.18,8.18,0,0,0,3.274.61,3.718,3.718,0,0,0,2.548-.726,2.815,2.815,0,0,0,.8-2.195v-.914a4.6,4.6,0,0,1-3.65,1.416,5.207,5.207,0,0,1-2.464-.574,4.256,4.256,0,0,1-1.712-1.612,4.546,4.546,0,0,1-.621-2.383,4.6,4.6,0,0,1,.611-2.392,4.234,4.234,0,0,1,1.693-1.6,5.129,5.129,0,0,1,2.437-.573,5.767,5.767,0,0,1,2.135.349,4.544,4.544,0,0,1,1.628,1.156v-1.237h1.843v8.171a4.335,4.335,0,0,1-1.288,3.377A5.731,5.731,0,0,1,793.78,196.1Z" fill="#54565b"></path>
    <path d="M801.625,183.374h1.938v8.6h-1.938Zm.959-1.684a1.106,1.106,0,0,1-.79-.3,1.045,1.045,0,0,1,0-1.505,1.1,1.1,0,0,1,.79-.3,1.158,1.158,0,0,1,.819.3,1.025,1.025,0,0,1,0,1.505A1.166,1.166,0,0,1,802.584,181.69Z" fill="#54565b"></path>
    <path d="M806.178,183.374h1.843v1.237a3.844,3.844,0,0,1,1.571-1.138,5.262,5.262,0,0,1,1.948-.367,3.583,3.583,0,0,1,2.69.914,3.376,3.376,0,0,1,.884,2.454v5.5h-1.9v-5.322a1.857,1.857,0,0,0-2.107-2.1,3.616,3.616,0,0,0-1.684.4,3.683,3.683,0,0,0-1.345,1.228v5.787h-1.9Z" fill="#54565b"></path>
    <path d="M825.048,187.119a2.438,2.438,0,0,0-.837-1.89,3.43,3.43,0,0,0-2.267-.672,3.236,3.236,0,0,0-2.22.7,2.478,2.478,0,0,0-.828,1.863Zm-2.615,5.125a5.928,5.928,0,0,1-3.923-1.191,4.144,4.144,0,0,1-1.42-3.36,4.462,4.462,0,0,1,1.269-3.351,4.983,4.983,0,0,1,3.622-1.236,5.721,5.721,0,0,1,2.653.564,3.859,3.859,0,0,1,1.646,1.559,4.571,4.571,0,0,1,.555,2.267v.9H818.9a2.2,2.2,0,0,0,1.081,1.818,5.149,5.149,0,0,0,2.682.6,10.254,10.254,0,0,0,1.749-.153,8.9,8.9,0,0,0,1.562-.4v1.451a7.758,7.758,0,0,1-1.59.385A12.708,12.708,0,0,1,822.433,192.244Z" fill="#54565b"></path>
    <path d="M836.487,187.119a2.438,2.438,0,0,0-.837-1.89,3.429,3.429,0,0,0-2.268-.672,3.235,3.235,0,0,0-2.219.7,2.47,2.47,0,0,0-.828,1.863Zm-2.615,5.125a5.93,5.93,0,0,1-3.923-1.191,4.145,4.145,0,0,1-1.421-3.36,4.463,4.463,0,0,1,1.27-3.351,4.981,4.981,0,0,1,3.622-1.236,5.724,5.724,0,0,1,2.653.564,3.858,3.858,0,0,1,1.646,1.559,4.571,4.571,0,0,1,.555,2.267v.9h-7.939a2.2,2.2,0,0,0,1.082,1.818,5.141,5.141,0,0,0,2.68.6,10.247,10.247,0,0,0,1.75-.153,8.9,8.9,0,0,0,1.562-.4v1.451a7.775,7.775,0,0,1-1.59.385A12.717,12.717,0,0,1,833.872,192.244Z" fill="#54565b"></path>
    <path d="M840.343,183.374h1.844v1.542a3.284,3.284,0,0,1,1.59-1.165,6.892,6.892,0,0,1,2.38-.377v1.416a6.226,6.226,0,0,0-2.484.448,2.569,2.569,0,0,0-1.429,1.415v5.322h-1.9Z" fill="#54565b"></path>
    <path d="M735.534,209.6a3.227,3.227,0,0,0,2-.564,1.97,1.97,0,0,0,.744-1.675,1.992,1.992,0,0,0-.725-1.738,3.415,3.415,0,0,0-2.022-.52h-3.048v4.5Zm-4.967-6.038h5.287a4.829,4.829,0,0,1,3.235.968,3.522,3.522,0,0,1,1.129,2.831,3.611,3.611,0,0,1-.771,2.338,3.858,3.858,0,0,1-2.182,1.3l2.9,5.089h-1.994l-2.8-4.945h-2.879v4.945h-1.919Z" fill="#54565b"></path>
    <path d="M746.672,215.013a5.658,5.658,0,0,0,1.937-.314,3.945,3.945,0,0,0,1.449-.887l-3.913-3.6a5.634,5.634,0,0,0-1.825,1.227,2.23,2.23,0,0,0-.564,1.532,1.7,1.7,0,0,0,.818,1.514,3.8,3.8,0,0,0,2.1.529m-.32-6.468a6.551,6.551,0,0,0,1.505-1.1,1.653,1.653,0,0,0,.451-1.155,1.531,1.531,0,0,0-.47-1.174,1.8,1.8,0,0,0-1.279-.439,1.858,1.858,0,0,0-1.3.43,1.525,1.525,0,0,0-.47,1.183,1.661,1.661,0,0,0,.358,1.039A9.772,9.772,0,0,0,746.352,208.545Zm.3,7.811a6.025,6.025,0,0,1-3.425-.886,2.844,2.844,0,0,1-1.317-2.5,3.146,3.146,0,0,1,.706-2.06,7.562,7.562,0,0,1,2.267-1.7,7.516,7.516,0,0,1-1.373-1.5,2.7,2.7,0,0,1-.433-1.5,2.632,2.632,0,0,1,.95-2.123,3.807,3.807,0,0,1,2.531-.8,3.968,3.968,0,0,1,1.778.386,2.989,2.989,0,0,1,1.213,1.048,2.666,2.666,0,0,1,.433,1.487,2.628,2.628,0,0,1-.555,1.684,7.588,7.588,0,0,1-1.91,1.541l3.575,3.226a3.255,3.255,0,0,0,.461-1.228,10.423,10.423,0,0,0,.122-1.729h1.674a9.925,9.925,0,0,1-.225,2.3,5.946,5.946,0,0,1-.791,1.8l2.521,2.276H752.56l-1.335-1.219A5.261,5.261,0,0,1,749.249,216,8.578,8.578,0,0,1,746.653,216.356Z" fill="#54565b"></path>
    <path d="M760.781,214.565a5.583,5.583,0,0,0,3.952-1.237,4.656,4.656,0,0,0,1.316-3.565,4.529,4.529,0,0,0-1.288-3.4,5.057,5.057,0,0,0-3.678-1.255H758.75v9.461Zm-3.95-11h4.233a8.407,8.407,0,0,1,3.687.753,5.5,5.5,0,0,1,2.4,2.15,6.3,6.3,0,0,1,.837,3.3,5.843,5.843,0,0,1-1.891,4.721,7.946,7.946,0,0,1-5.3,1.6h-3.969Z" fill="#54565b"></path>
    <path d="M780.968,214.565a5.58,5.58,0,0,0,3.951-1.237,4.653,4.653,0,0,0,1.317-3.565,4.526,4.526,0,0,0-1.289-3.4,5.054,5.054,0,0,0-3.678-1.255h-2.332v9.461Zm-3.951-11h4.234a8.407,8.407,0,0,1,3.687.753,5.5,5.5,0,0,1,2.4,2.15,6.3,6.3,0,0,1,.837,3.3,5.843,5.843,0,0,1-1.891,4.721,7.946,7.946,0,0,1-5.3,1.6h-3.97Z" fill="#54565b"></path>
    <path d="M790.394,207.487h1.938v8.6h-1.938Zm.959-1.684a1.1,1.1,0,0,1-.79-.3,1.045,1.045,0,0,1,0-1.505,1.1,1.1,0,0,1,.79-.3,1.162,1.162,0,0,1,.819.3,1.025,1.025,0,0,1,0,1.505A1.162,1.162,0,0,1,791.353,205.8Z" fill="#54565b"></path>
    <path d="M794.57,207.487h2.013l2.653,6.182,2.653-6.182H803.9l-3.838,8.6h-1.655Z" fill="#54565b"></path>
    <path d="M806.122,207.487h1.938v8.6h-1.938Zm.96-1.684a1.1,1.1,0,0,1-.791-.3,1.045,1.045,0,0,1,0-1.505,1.1,1.1,0,0,1,.791-.3,1.159,1.159,0,0,1,.818.3,1.025,1.025,0,0,1,0,1.505A1.16,1.16,0,0,1,807.082,205.8Z" fill="#54565b"></path>
    <path d="M814.005,216.356a9.627,9.627,0,0,1-1.995-.223,5.207,5.207,0,0,1-1.655-.6v-1.541a7.363,7.363,0,0,0,1.693.672,7.129,7.129,0,0,0,1.863.26,3.527,3.527,0,0,0,1.486-.233.784.784,0,0,0,.47-.752.918.918,0,0,0-.216-.636,1.868,1.868,0,0,0-.734-.439,15.747,15.747,0,0,0-1.552-.466,10.756,10.756,0,0,1-1.759-.618,2.41,2.41,0,0,1-.978-.8,2.18,2.18,0,0,1-.329-1.254,2.065,2.065,0,0,1,1.025-1.872,5.189,5.189,0,0,1,2.756-.637,9.605,9.605,0,0,1,1.769.162,4.741,4.741,0,0,1,1.392.448v1.5a5,5,0,0,0-1.346-.484,7.442,7.442,0,0,0-1.627-.179,3.9,3.9,0,0,0-1.524.233.831.831,0,0,0-.527.824.84.84,0,0,0,.226.609,1.831,1.831,0,0,0,.724.4q.5.171,1.59.439a5.84,5.84,0,0,1,2.38,1.057,2.169,2.169,0,0,1,.668,1.685,2.058,2.058,0,0,1-.959,1.774,5.007,5.007,0,0,1-2.841.662" fill="#54565b"></path>
    <path d="M820.025,207.487h1.938v8.6h-1.938Zm.959-1.684a1.1,1.1,0,0,1-.789-.3,1.045,1.045,0,0,1,0-1.505,1.1,1.1,0,0,1,.789-.3,1.162,1.162,0,0,1,.819.3,1.025,1.025,0,0,1,0,1.505A1.162,1.162,0,0,1,820.984,205.8Z" fill="#54565b"></path>
    <path d="M829.338,214.923a3.162,3.162,0,0,0,2.332-.86,3.422,3.422,0,0,0,0-4.551,3.652,3.652,0,0,0-4.665,0,3.422,3.422,0,0,0,0,4.551,3.166,3.166,0,0,0,2.333.86m0,1.433a6.2,6.2,0,0,1-2.681-.546,4.191,4.191,0,0,1-1.806-1.577,4.456,4.456,0,0,1-.65-2.427,4.514,4.514,0,0,1,.641-2.419,4.219,4.219,0,0,1,1.806-1.6,6.686,6.686,0,0,1,5.38,0,4.286,4.286,0,0,1,1.816,1.6,4.848,4.848,0,0,1,0,4.846,4.189,4.189,0,0,1-1.816,1.577A6.261,6.261,0,0,1,829.338,216.356Z" fill="#54565b"></path>
    <path d="M836.562,207.487h1.844v1.237a3.838,3.838,0,0,1,1.571-1.138,5.255,5.255,0,0,1,1.947-.368,3.586,3.586,0,0,1,2.69.914,3.381,3.381,0,0,1,.885,2.455v5.5h-1.9v-5.322a1.858,1.858,0,0,0-2.107-2.1,3.609,3.609,0,0,0-1.683.4,3.691,3.691,0,0,0-1.346,1.227v5.788h-1.9Z" fill="#54565b"></path>
    <path d="M564.382,227.676H566.3l4.685,9.765,4.685-9.765h1.919V240.2h-1.862V231.3l-4.27,8.905h-.941l-4.29-8.905V240.2h-1.844Z" fill="#54565b"></path>
    <path d="M583.742,239.09a3.831,3.831,0,0,0,1.637-.341,2.372,2.372,0,0,0,1.091-.949v-1.165a5.1,5.1,0,0,0-2.728-.752,2.7,2.7,0,0,0-1.627.4,1.436,1.436,0,0,0-.537,1.227q0,1.576,2.164,1.577m-.471,1.379a4.049,4.049,0,0,1-2.624-.8,2.629,2.629,0,0,1-.988-2.159,2.7,2.7,0,0,1,.95-2.213,4.158,4.158,0,0,1,2.7-.779,6.455,6.455,0,0,1,3.161.717v-.448a1.777,1.777,0,0,0-.649-1.514,3.387,3.387,0,0,0-2.041-.493,8.345,8.345,0,0,0-1.609.152,6.843,6.843,0,0,0-1.4.421v-1.469a6.221,6.221,0,0,1,1.468-.4,10.47,10.47,0,0,1,1.75-.153,4.961,4.961,0,0,1,3.32.941,3.273,3.273,0,0,1,1.082,2.607V240.2H586.6v-.968a3.813,3.813,0,0,1-1.382.923A5.356,5.356,0,0,1,583.271,240.469Z" fill="#54565b"></path>
    <path d="M593.751,240.469a2.842,2.842,0,0,1-2.117-.752,2.907,2.907,0,0,1-.743-2.132V233h-1.374v-1.4h1.374v-2.58h1.919v2.58h2.22V233h-2.22v4.461a1.722,1.722,0,0,0,.348,1.219,1.752,1.752,0,0,0,1.27.358,2.743,2.743,0,0,0,1.091-.233v1.434a5.781,5.781,0,0,1-1.768.232" fill="#54565b"></path>
    <path d="M600.317,240.469a2.842,2.842,0,0,1-2.117-.752,2.907,2.907,0,0,1-.743-2.132V233h-1.373v-1.4h1.373v-2.58h1.919v2.58h2.22V233h-2.22v4.461a1.718,1.718,0,0,0,.349,1.219,1.75,1.75,0,0,0,1.269.358,2.743,2.743,0,0,0,1.091-.233v1.434a5.782,5.782,0,0,1-1.768.232" fill="#54565b"></path>
    <path d="M603.873,226.959h1.9v5.824a4.414,4.414,0,0,1,3.461-1.452,3.588,3.588,0,0,1,2.691.914,3.379,3.379,0,0,1,.884,2.455v5.5h-1.9v-5.322a1.857,1.857,0,0,0-2.107-2.1,3.616,3.616,0,0,0-1.684.4,3.688,3.688,0,0,0-1.345,1.227V240.2h-1.9Z" fill="#54565b"></path>
    <path d="M622.743,235.345a2.438,2.438,0,0,0-.837-1.89,3.428,3.428,0,0,0-2.267-.672,3.243,3.243,0,0,0-2.221.7,2.479,2.479,0,0,0-.827,1.863Zm-2.615,5.124a5.924,5.924,0,0,1-3.923-1.191,4.142,4.142,0,0,1-1.42-3.36,4.458,4.458,0,0,1,1.27-3.35,4.975,4.975,0,0,1,3.621-1.237,5.721,5.721,0,0,1,2.653.565,3.858,3.858,0,0,1,1.646,1.559,4.569,4.569,0,0,1,.555,2.266v.9h-7.939a2.2,2.2,0,0,0,1.082,1.819,5.142,5.142,0,0,0,2.68.6,10.347,10.347,0,0,0,1.75-.152,8.9,8.9,0,0,0,1.562-.4v1.451a7.843,7.843,0,0,1-1.59.385A12.713,12.713,0,0,1,620.128,240.469Z" fill="#54565b"></path>
    <path d="M625.659,231.6H627.6l2.032,6.379,2.013-6.379h1.712l2.013,6.379L637.4,231.6h1.957l-2.935,8.6H634.6l-2.088-6.415-2.089,6.415h-1.844Z" fill="#54565b"></path>
    <rect width="7.469" height="1.577" transform="translate(641.049 240.201)" fill="#54565b"></rect>
    <path d="M650.211,227.676h1.994l2.935,9.515,2.9-9.515h1.5l2.879,9.515,2.935-9.515h1.994L663.513,240.2h-1.825l-2.916-9.461-2.9,9.461h-1.825Z" fill="#54565b"></path>
    <path d="M671.715,239.09a3.828,3.828,0,0,0,1.637-.341,2.372,2.372,0,0,0,1.091-.949v-1.165a5.1,5.1,0,0,0-2.728-.752,2.7,2.7,0,0,0-1.627.4,1.435,1.435,0,0,0-.536,1.227q0,1.576,2.163,1.577m-.47,1.379a4.054,4.054,0,0,1-2.625-.8,2.628,2.628,0,0,1-.987-2.159,2.7,2.7,0,0,1,.95-2.213,4.153,4.153,0,0,1,2.7-.779,6.453,6.453,0,0,1,3.161.717v-.448a1.778,1.778,0,0,0-.649-1.514,3.385,3.385,0,0,0-2.041-.493,8.353,8.353,0,0,0-1.609.152,6.852,6.852,0,0,0-1.4.421v-1.469a6.21,6.21,0,0,1,1.467-.4,10.47,10.47,0,0,1,1.75-.153,4.961,4.961,0,0,1,3.32.941,3.27,3.27,0,0,1,1.082,2.607V240.2h-1.787v-.968a3.831,3.831,0,0,1-1.382.923A5.356,5.356,0,0,1,671.245,240.469Z" fill="#54565b"></path>
    <path d="M678.714,231.6h1.844v1.236a3.845,3.845,0,0,1,1.571-1.137,5.258,5.258,0,0,1,1.947-.368,3.586,3.586,0,0,1,2.69.914,3.379,3.379,0,0,1,.884,2.455v5.5h-1.9v-5.322a1.858,1.858,0,0,0-2.108-2.1,3.609,3.609,0,0,0-1.683.4,3.683,3.683,0,0,0-1.346,1.227V240.2h-1.9Z" fill="#54565b"></path>
    <path d="M694.8,239.036a3.65,3.65,0,0,0,2.06-.591,2.937,2.937,0,0,0,1.214-1.577v-1.935a3.067,3.067,0,0,0-1.233-1.577,3.641,3.641,0,0,0-2.041-.573,3.559,3.559,0,0,0-1.665.385,2.849,2.849,0,0,0-1.167,1.1,3.371,3.371,0,0,0,0,3.27,2.929,2.929,0,0,0,1.167,1.1,3.492,3.492,0,0,0,1.665.394m-.075,5.286a11.157,11.157,0,0,1-1.8-.143,6.014,6.014,0,0,1-1.477-.413v-1.487a8.187,8.187,0,0,0,3.274.61,3.722,3.722,0,0,0,2.549-.726,2.82,2.82,0,0,0,.8-2.195v-.914a4.6,4.6,0,0,1-3.651,1.415,5.218,5.218,0,0,1-2.464-.573,4.256,4.256,0,0,1-1.712-1.612,4.555,4.555,0,0,1-.621-2.383,4.607,4.607,0,0,1,.611-2.393,4.234,4.234,0,0,1,1.694-1.6,5.111,5.111,0,0,1,2.436-.574,5.766,5.766,0,0,1,2.135.35,4.553,4.553,0,0,1,1.628,1.155V231.6h1.844v8.171a4.336,4.336,0,0,1-1.289,3.377A5.731,5.731,0,0,1,694.725,244.322Z" fill="#54565b"></path>
    <path d="M709.456,236.922a1.964,1.964,0,0,0,1.429-.493,1.735,1.735,0,0,0,.546-1.191l.189-2.867a3.651,3.651,0,0,0-1.393-.233,2.241,2.241,0,0,0-1.787.788,3,3,0,0,0-.677,2.025,2.192,2.192,0,0,0,.432,1.469,1.572,1.572,0,0,0,1.261.5m.207,4.641a10.1,10.1,0,0,1-4.008-.735,5.864,5.864,0,0,1-2.662-2.177,6.231,6.231,0,0,1-.95-3.5,7.979,7.979,0,0,1,1.007-4.023,6.912,6.912,0,0,1,2.878-2.741,9.247,9.247,0,0,1,4.337-.976,7.982,7.982,0,0,1,5.3,1.6,5.615,5.615,0,0,1,1.9,4.542,6.012,6.012,0,0,1-.875,3.36,2.794,2.794,0,0,1-2.474,1.335,2.493,2.493,0,0,1-1.289-.35,1.657,1.657,0,0,1-.781-.94,2.776,2.776,0,0,1-1.157.958,3.866,3.866,0,0,1-1.627.332,3.344,3.344,0,0,1-2.343-.815,3.034,3.034,0,0,1-.893-2.357,4.523,4.523,0,0,1,.517-2.168,3.863,3.863,0,0,1,1.477-1.532,4.338,4.338,0,0,1,2.239-.564,8.029,8.029,0,0,1,1.533.152,6.04,6.04,0,0,1,1.364.421l-.245,4.157a1.428,1.428,0,0,0,.283,1.048,1.11,1.11,0,0,0,.884.368,1.306,1.306,0,0,0,1.279-.887,6.663,6.663,0,0,0,.377-2.518A4.456,4.456,0,0,0,714.385,230a6.166,6.166,0,0,0-4.12-1.173,7.339,7.339,0,0,0-3.424.761,5.375,5.375,0,0,0-2.267,2.2,6.8,6.8,0,0,0-.8,3.369,4.663,4.663,0,0,0,1.505,3.745,6.564,6.564,0,0,0,4.384,1.29,11.622,11.622,0,0,0,3.574-.52v1.326A10.335,10.335,0,0,1,709.663,241.563Z" fill="#54565b"></path>
    <path d="M723.246,239.09a3.825,3.825,0,0,0,1.637-.341,2.372,2.372,0,0,0,1.091-.949v-1.165a5.1,5.1,0,0,0-2.728-.752,2.7,2.7,0,0,0-1.627.4,1.438,1.438,0,0,0-.536,1.227q0,1.576,2.163,1.577m-.47,1.379a4.054,4.054,0,0,1-2.625-.8,2.628,2.628,0,0,1-.987-2.159,2.7,2.7,0,0,1,.95-2.213,4.154,4.154,0,0,1,2.7-.779,6.451,6.451,0,0,1,3.16.717v-.448a1.778,1.778,0,0,0-.649-1.514,3.385,3.385,0,0,0-2.041-.493,8.353,8.353,0,0,0-1.609.152,6.852,6.852,0,0,0-1.4.421v-1.469a6.21,6.21,0,0,1,1.467-.4,10.479,10.479,0,0,1,1.75-.153,4.966,4.966,0,0,1,3.321.941,3.272,3.272,0,0,1,1.081,2.607V240.2h-1.787v-.968a3.826,3.826,0,0,1-1.383.923A5.347,5.347,0,0,1,722.776,240.469Z" fill="#54565b"></path>
    <path d="M733.293,240.469a9.618,9.618,0,0,1-1.994-.223,5.205,5.205,0,0,1-1.656-.6V238.1a7.427,7.427,0,0,0,1.693.671,7.087,7.087,0,0,0,1.863.26,3.524,3.524,0,0,0,1.486-.233.782.782,0,0,0,.47-.752.918.918,0,0,0-.216-.637,1.881,1.881,0,0,0-.734-.438,15.753,15.753,0,0,0-1.552-.466,10.594,10.594,0,0,1-1.759-.619,2.4,2.4,0,0,1-.978-.8,2.18,2.18,0,0,1-.33-1.254,2.068,2.068,0,0,1,1.026-1.872,5.179,5.179,0,0,1,2.756-.637,9.6,9.6,0,0,1,1.769.162,4.762,4.762,0,0,1,1.392.448v1.505a5,5,0,0,0-1.345-.484,7.449,7.449,0,0,0-1.627-.179,3.919,3.919,0,0,0-1.525.233.831.831,0,0,0-.527.824.839.839,0,0,0,.226.609,1.84,1.84,0,0,0,.725.4q.5.17,1.59.438a5.841,5.841,0,0,1,2.379,1.057,2.165,2.165,0,0,1,.668,1.685,2.058,2.058,0,0,1-.959,1.774,5.007,5.007,0,0,1-2.841.662" fill="#54565b"></path>
    <path d="M746.744,235.345a2.432,2.432,0,0,0-.837-1.89,3.428,3.428,0,0,0-2.267-.672,3.24,3.24,0,0,0-2.22.7,2.478,2.478,0,0,0-.827,1.863Zm-2.614,5.124a5.922,5.922,0,0,1-3.923-1.191,4.143,4.143,0,0,1-1.421-3.36,4.462,4.462,0,0,1,1.27-3.35,4.977,4.977,0,0,1,3.622-1.237,5.724,5.724,0,0,1,2.653.565,3.859,3.859,0,0,1,1.646,1.559,4.569,4.569,0,0,1,.555,2.266v.9h-7.939a2.2,2.2,0,0,0,1.082,1.819,5.139,5.139,0,0,0,2.68.6,10.355,10.355,0,0,0,1.75-.152,8.9,8.9,0,0,0,1.562-.4v1.451a7.843,7.843,0,0,1-1.59.385A12.713,12.713,0,0,1,744.13,240.469Z" fill="#54565b"></path>
    <path d="M755.4,239.036a3.648,3.648,0,0,0,2.06-.591,2.932,2.932,0,0,0,1.214-1.577v-1.935a3.062,3.062,0,0,0-1.233-1.577,3.638,3.638,0,0,0-2.041-.573,3.564,3.564,0,0,0-1.665.385,2.853,2.853,0,0,0-1.166,1.1,3.364,3.364,0,0,0,0,3.27,2.933,2.933,0,0,0,1.166,1.1,3.5,3.5,0,0,0,1.665.394m-.075,5.286a11.157,11.157,0,0,1-1.8-.143,6.04,6.04,0,0,1-1.477-.413v-1.487a8.187,8.187,0,0,0,3.274.61,3.721,3.721,0,0,0,2.549-.726,2.82,2.82,0,0,0,.8-2.195v-.914a4.6,4.6,0,0,1-3.65,1.415,5.219,5.219,0,0,1-2.465-.573,4.262,4.262,0,0,1-1.712-1.612,4.933,4.933,0,0,1-.009-4.776,4.232,4.232,0,0,1,1.693-1.6,5.112,5.112,0,0,1,2.437-.574,5.766,5.766,0,0,1,2.135.35,4.55,4.55,0,0,1,1.627,1.155V231.6h1.844v8.171a4.336,4.336,0,0,1-1.289,3.377A5.729,5.729,0,0,1,755.324,244.322Z" fill="#54565b"></path>
    <rect width="1.9" height="13.242" transform="translate(763.019 226.959)" fill="#54565b"></rect>
    <path d="M772.125,239.036a3.162,3.162,0,0,0,2.332-.86,3.422,3.422,0,0,0,0-4.551,3.652,3.652,0,0,0-4.665,0,3.423,3.423,0,0,0,0,4.551,3.164,3.164,0,0,0,2.333.86m0,1.433a6.2,6.2,0,0,1-2.681-.546,4.191,4.191,0,0,1-1.806-1.577,4.457,4.457,0,0,1-.65-2.428,4.513,4.513,0,0,1,.64-2.418,4.224,4.224,0,0,1,1.806-1.6,6.688,6.688,0,0,1,5.381,0,4.292,4.292,0,0,1,1.816,1.6,4.854,4.854,0,0,1,0,4.846,4.2,4.2,0,0,1-1.816,1.577A6.268,6.268,0,0,1,772.125,240.469Z" fill="#54565b"></path>
    <path d="M784.241,239.036a3.558,3.558,0,0,0,1.664-.385,2.85,2.85,0,0,0,1.167-1.1,3.354,3.354,0,0,0,0-3.261,2.911,2.911,0,0,0-1.167-1.111,3.492,3.492,0,0,0-1.664-.394,3.662,3.662,0,0,0-2.051.591,2.921,2.921,0,0,0-1.223,1.577v1.935a3.112,3.112,0,0,0,1.232,1.568,3.6,3.6,0,0,0,2.042.582m.432,1.433a5.542,5.542,0,0,1-2.116-.367,4.788,4.788,0,0,1-1.646-1.156V240.2h-1.844V226.959h1.9v5.788a3.877,3.877,0,0,1,1.6-1.057,6.074,6.074,0,0,1,2.107-.359,5.056,5.056,0,0,1,2.436.583,4.277,4.277,0,0,1,1.694,1.621,4.963,4.963,0,0,1,0,4.775,4.168,4.168,0,0,1-1.694,1.6A5.186,5.186,0,0,1,784.673,240.469Z" fill="#54565b"></path>
    <path d="M794.72,239.09a3.828,3.828,0,0,0,1.637-.341,2.372,2.372,0,0,0,1.091-.949v-1.165a5.1,5.1,0,0,0-2.728-.752,2.7,2.7,0,0,0-1.627.4,1.436,1.436,0,0,0-.537,1.227q0,1.576,2.164,1.577m-.47,1.379a4.05,4.05,0,0,1-2.625-.8,2.629,2.629,0,0,1-.988-2.159,2.7,2.7,0,0,1,.95-2.213,4.158,4.158,0,0,1,2.7-.779,6.453,6.453,0,0,1,3.161.717v-.448a1.778,1.778,0,0,0-.649-1.514,3.385,3.385,0,0,0-2.041-.493,8.353,8.353,0,0,0-1.609.152,6.862,6.862,0,0,0-1.4.421v-1.469a6.233,6.233,0,0,1,1.468-.4,10.47,10.47,0,0,1,1.75-.153,4.961,4.961,0,0,1,3.32.941,3.27,3.27,0,0,1,1.082,2.607V240.2H797.58v-.968a3.826,3.826,0,0,1-1.383.923A5.347,5.347,0,0,1,794.25,240.469Z" fill="#54565b"></path>
    <rect width="1.9" height="13.242" transform="translate(801.719 226.959)" fill="#54565b"></rect>
    <path d="M806.573,240.2a.882.882,0,0,1-.631-.242.8.8,0,0,1-.254-.6.828.828,0,0,1,.254-.61.864.864,0,0,1,.631-.25.892.892,0,0,1,.639.25.812.812,0,0,1,.264.61.782.782,0,0,1-.264.6.912.912,0,0,1-.639.242" fill="#54565b"></path>
    <path d="M814.3,240.469a6.32,6.32,0,0,1-2.671-.537,4.132,4.132,0,0,1-1.816-1.568,4.932,4.932,0,0,1,0-4.891,4.237,4.237,0,0,1,1.825-1.586,7.185,7.185,0,0,1,6.011.215v1.487a5.565,5.565,0,0,0-3.123-.806,3.745,3.745,0,0,0-2.493.8,3.354,3.354,0,0,0-.009,4.668,3.71,3.71,0,0,0,2.464.788,6.047,6.047,0,0,0,3.274-.86v1.469a4.653,4.653,0,0,1-1.5.627,8.618,8.618,0,0,1-1.966.2" fill="#54565b"></path>
    <path d="M824.314,239.036a3.166,3.166,0,0,0,2.333-.86,3.422,3.422,0,0,0,0-4.551,3.653,3.653,0,0,0-4.666,0,3.425,3.425,0,0,0,0,4.551,3.166,3.166,0,0,0,2.333.86m0,1.433a6.2,6.2,0,0,1-2.681-.546,4.2,4.2,0,0,1-1.806-1.577,4.456,4.456,0,0,1-.649-2.428,4.513,4.513,0,0,1,.64-2.418,4.219,4.219,0,0,1,1.806-1.6,6.688,6.688,0,0,1,5.381,0,4.289,4.289,0,0,1,1.815,1.6,4.848,4.848,0,0,1,0,4.846,4.192,4.192,0,0,1-1.815,1.577A6.269,6.269,0,0,1,824.314,240.469Z" fill="#54565b"></path>
    <path d="M831.539,231.6h1.806v1.236a4.241,4.241,0,0,1,1.449-1.128,3.923,3.923,0,0,1,1.674-.377,3.624,3.624,0,0,1,1.731.35,2.092,2.092,0,0,1,.94,1.066,3.843,3.843,0,0,1,1.478-1.057,4.6,4.6,0,0,1,1.759-.359,3.114,3.114,0,0,1,2.389.8,3.368,3.368,0,0,1,.734,2.356V240.2h-1.844v-5.483a2.157,2.157,0,0,0-.414-1.5,1.88,1.88,0,0,0-1.411-.439,2.808,2.808,0,0,0-2.333,1.182,7.141,7.141,0,0,1,.038.878V240.2h-1.844v-5.483a2.316,2.316,0,0,0-.376-1.5,1.72,1.72,0,0,0-1.355-.439,3.183,3.183,0,0,0-2.558,1.541V240.2h-1.863Z" fill="#54565b"></path>
    <path d="M354.884,245.386l-5.049-12.944c-.108-.29-.215-.435-.323-.435s-.225.145-.349.435l-5.049,12.944Zm30.066,14.427a75.623,75.623,0,0,1-13.4-1.227V252.6a86.379,86.379,0,0,0,13.431,1.2q8.271,0,8.273-4.323,0-1.305-1.827-2.3a42.132,42.132,0,0,0-7.749-2.57,27.847,27.847,0,0,1-9.187-3.953A7.76,7.76,0,0,1,371.225,234a8.6,8.6,0,0,1,3.854-7.29q3.855-2.789,11.187-2.789a69.458,69.458,0,0,1,12.088,1.228v5.96a82.746,82.746,0,0,0-12.114-1.177q-4.352,0-6.044,1.1a3.365,3.365,0,0,0-1.692,2.943,3.039,3.039,0,0,0,1.72,2.455q1.717,1.1,7.748,2.686a30.069,30.069,0,0,1,9.294,3.838,7.43,7.43,0,0,1,3.263,6.523,8.845,8.845,0,0,1-3.988,7.418Q392.551,259.813,384.95,259.813Zm45.573-.23H413.332a9.587,9.587,0,0,1-6.271-1.944,6.907,6.907,0,0,1-2.378-5.679V224.153h25.84v6.037H411.962v8.647h17.755v6.037H411.962v7.086q0,1.587,2.418,1.586h16.143Zm-62.074,0h-7.844l-3.438-8.441H341.831l-3.465,8.441h-7.843L344.6,226.789q1.262-2.866,5.05-2.866a4.88,4.88,0,0,1,4.834,3.044Z" fill="#003056"></path>
    <path d="M349.94,174.232c.166.059.332.119.494.173l-.494-.177Zm6.955,2.477-1.163-.416Z" fill="#fce053"></path>
    <path d="M389.259,154.862a3.318,3.318,0,1,1-3.313-3.156,3.237,3.237,0,0,1,3.313,3.156m38.1,13.646c-6.83,2.482-13.546,4.918-20.381,7.4,4.126,5.591,8.2,11.113,12.373,16.766a.943.943,0,0,1-.975,1.459c-7.137-1.211-14.127-2.4-21.238-3.608,1.161,5.857,2.3,11.611,3.467,17.5a.974.974,0,0,1-1.5.954c-6.217-3.865-12.3-7.656-18.5-11.508-2.252,4.7-4.484,9.358-6.783,14.162a1,1,0,0,1-1.827-.1l-5.258-15.669c-4.515,2.669-8.968,5.3-13.582,8.027a.974.974,0,0,1-1.474-1.007c1.318-5.354,2.6-10.564,3.908-15.872-5.387.612-10.712,1.221-16.2,1.843a.938.938,0,0,1-.872-1.523c3.82-4.409,7.53-8.688,11.314-13.059l.052-.063,9.965,3.557c.311.318,7.4,7.39,17.024,7.39.342,0,.695-.009,1.043-.024a19.173,19.173,0,0,0,2.655-.336v-4.737c3.832-1.057,7.462-3.75,10.826-8.04l3.875,2.756c-4.385,5.592-9.337,8.951-14.7,10.023v8.816c.031,0,.057-.005.089-.005.415-.029.829-.065,1.245-.108.218-.025.442-.049.66-.079s.435-.06.653-.094c.442-.07.882-.144,1.319-.232.42-.086.834-.178,1.245-.282.5-.124.992-.257,1.479-.41.327-.1.648-.2.972-.313.611-.212,1.218-.439,1.81-.692.2-.079.39-.162.582-.252.446-.2.887-.41,1.317-.627.13-.065.255-.133.384-.2q.592-.311,1.168-.653c.156-.092.313-.187.468-.281a28.054,28.054,0,0,0,3.379-2.447c.113-.1.232-.2.347-.3.5-.436.975-.885,1.439-1.35.128-.134.258-.262.388-.395a26.969,26.969,0,0,0,2.025-2.388c.113-.149.222-.291.326-.444.088-.115.166-.232.249-.347s.166-.237.25-.36a26.559,26.559,0,0,0,1.571-2.655q.143-.273.277-.548c.1-.2.191-.4.284-.6.068-.158.142-.311.208-.471.047-.117.1-.232.151-.35.067-.164.13-.326.2-.495.073-.187.146-.381.213-.568.083-.223.161-.444.233-.667.053-.162.109-.326.156-.489.057-.184.114-.367.166-.554.073-.252.14-.505.206-.762.038-.152.074-.306.111-.459.046-.2.093-.4.134-.6q.186-.906.312-1.835c.025-.192.051-.39.073-.582.025-.223.047-.441.061-.662s.038-.417.047-.629c.01-.168.021-.342.027-.509,0,0,.466-21.25-26.013-29.979-.052-.02-.109-.035-.166-.055l.166-.094,2.356-1.319,2.451-1.374c5-2.778,9.959-5.536,15.055-8.364a.98.98,0,0,1,1.474.9c-.654,5.808-1.3,11.5-1.95,17.33l19.555-2.111a.938.938,0,0,1,.9,1.483c-3.929,5.1-7.764,10.084-11.646,15.13,6.144,2.442,12.217,4.849,18.409,7.306A.918.918,0,0,1,427.355,168.508Z" fill="#003056"></path>
    <path d="M389.259,154.862a3.318,3.318,0,1,1-3.313-3.156,3.237,3.237,0,0,1,3.313,3.156m17.532,13.051s.469-21.338-26.175-30.032l-8.733,30.032Z" fill="#e96b45"></path>
    <path d="M372.42,154.862a3.317,3.317,0,1,1-3.313-3.156,3.237,3.237,0,0,1,3.313,3.156m8.15,13.051v12.138a13.927,13.927,0,0,1-2.894.472c-.267.016-.531.022-.793.022-7.51,0-13.449-5.876-13.51-5.938l-3.523,3.157c.308.312,7.4,7.388,17.021,7.388.344,0,.694-.009,1.044-.028a19.11,19.11,0,0,0,2.655-.333v-4.738c3.832-1.057,7.462-3.75,10.826-8.04l3.875,2.756c-4.386,5.593-9.338,8.952-14.7,10.024v8.815c14.3-.9,25.68-11.974,26.221-25.7Z" fill="#fdde58"></path>
    <path d="M372.42,154.862a3.317,3.317,0,1,1-3.313-3.156,3.237,3.237,0,0,1,3.313,3.156m4.118,25.675c.115,0,.229.009.344.009.263,0,.527-.007.794-.023a13.927,13.927,0,0,0,2.894-.472V167.913h-8.686l8.732-30.032,4.969-2.787c-2.816-4.223-5.584-8.376-8.4-12.607a1.01,1.01,0,0,0-1.675.026l-8.373,13.478-14.2-5.047a.966.966,0,0,0-1.3,1.082c1.127,4.753,2.227,9.391,3.345,14.1l-16.034.292a.932.932,0,0,0-.756,1.509l9.84,12.05L333.606,166.7a.918.918,0,0,0,.082,1.713c5.439,1.969,26.162,9.348,26.162,9.348l3.523-3.157C363.433,174.667,369.193,180.362,376.538,180.537Z" fill="#058147"></path>
    <path d="M340.606,318.437l-2.212-5.659-2.212,5.659Zm-3.865-9.064h3.329l6.233,14.873h-3.462l-1.341-3.234h-6.189l-1.34,3.234h-3.486Z" fill="#54565b"></path>
    <path d="M351.866,324.566a15.8,15.8,0,0,1-2.837-.256,9.247,9.247,0,0,1-2.3-.681v-2.851a11.891,11.891,0,0,0,4.893,1.107,3.7,3.7,0,0,0,1.966-.426,1.34,1.34,0,0,0,.67-1.192,1.374,1.374,0,0,0-.335-.936,3.024,3.024,0,0,0-.972-.691q-.638-.309-1.955-.819a8.61,8.61,0,0,1-3.173-1.905,3.884,3.884,0,0,1-.267-4.83,4.586,4.586,0,0,1,2.01-1.5,7.831,7.831,0,0,1,2.994-.532,12.705,12.705,0,0,1,2.458.213,10.218,10.218,0,0,1,2.1.659v2.767a9.07,9.07,0,0,0-3.933-.937,3.917,3.917,0,0,0-1.965.415,1.363,1.363,0,0,0-.38,2.1,2.913,2.913,0,0,0,.938.638q.6.277,1.966.809a14.57,14.57,0,0,1,2.48,1.223,3.81,3.81,0,0,1,1.318,1.383,4.155,4.155,0,0,1,.425,1.969,3.688,3.688,0,0,1-1.531,3.149,7.667,7.667,0,0,1-4.569,1.128" fill="#54565b"></path>
    <path d="M359.865,309.373H370.7v2.7h-7.44v3.447h5.474v2.6h-5.474v3.426h7.44v2.7H359.865Z" fill="#54565b"></path>
    <rect width="3.396" height="14.873" transform="translate(380.174 309.373)" fill="#54565b"></rect>
    <path d="M385.916,314.033h3.262v1.255a4.682,4.682,0,0,1,1.753-1.18,5.847,5.847,0,0,1,2.134-.394,4.364,4.364,0,0,1,3.273,1.117,4.136,4.136,0,0,1,1.084,3.011v6.4h-3.374V318.2a1.723,1.723,0,0,0-1.921-1.978,3.325,3.325,0,0,0-1.587.393,3.485,3.485,0,0,0-1.251,1.16v6.468h-3.373Z" fill="#54565b"></path>
    <path d="M405.554,324.566a7.059,7.059,0,0,1-4.624-1.415,5.5,5.5,0,0,1,.01-8,7.038,7.038,0,0,1,4.636-1.436,8.145,8.145,0,0,1,4.2.936v2.532a5.072,5.072,0,0,0-1.665-.723,8.325,8.325,0,0,0-2-.234,4,4,0,0,0-2.5.723,3.079,3.079,0,0,0-.011,4.415,3.987,3.987,0,0,0,2.491.713,7.233,7.233,0,0,0,3.821-1v2.511a8.5,8.5,0,0,1-4.357.979" fill="#54565b"></path>
    <path d="M412.614,324.246a1.285,1.285,0,0,1-.9-.34,1.113,1.113,0,0,1-.368-.851,1.158,1.158,0,0,1,.379-.872,1.25,1.25,0,0,1,.894-.362,1.276,1.276,0,0,1,.916.362,1.155,1.155,0,0,1,.38.872,1.094,1.094,0,0,1-.38.851,1.323,1.323,0,0,1-.916.34" fill="#54565b"></path>
    <path d="M330.835,349.105l3.122-3.041.617-.588q1.057-1.008,1.658-1.663a6.521,6.521,0,0,0,.979-1.377,3.174,3.174,0,0,0,.379-1.495,2.238,2.238,0,0,0-.732-1.781,3.265,3.265,0,0,0-2.2-.638,5.228,5.228,0,0,0-1.623.252,5.739,5.739,0,0,0-1.569.823v-.89a5.539,5.539,0,0,1,1.508-.723,6.266,6.266,0,0,1,1.79-.235,4.067,4.067,0,0,1,2.752.857,2.931,2.931,0,0,1,.987,2.335,3.579,3.579,0,0,1-.4,1.638,7.728,7.728,0,0,1-1.112,1.6q-.705.8-1.94,2.007l-2.875,2.8h6.844v.756h-8.184Z" fill="#54565b"></path>
    <path d="M345.263,349.239a3.317,3.317,0,0,0,2.372-.84,2.946,2.946,0,0,0,.891-2.251,2.872,2.872,0,0,0-.891-2.217,3.357,3.357,0,0,0-2.372-.823,3.544,3.544,0,0,0-1.65.386A2.927,2.927,0,0,0,342,346.182a2.994,2.994,0,0,0,1.561,2.637,3.42,3.42,0,0,0,1.7.42m0,.756a4.45,4.45,0,0,1-2.178-.537,3.847,3.847,0,0,1-1.552-1.613,5.539,5.539,0,0,1-.574-2.637q0-7.458,5.556-7.459a6.007,6.007,0,0,1,1.376.135v.789a4.623,4.623,0,0,0-1.3-.151,4.049,4.049,0,0,0-3.413,1.42,7.768,7.768,0,0,0-1.279,4.308,3.233,3.233,0,0,1,1.4-1.411,4.479,4.479,0,0,1,2.143-.5,4.376,4.376,0,0,1,2.072.479,3.465,3.465,0,0,1,1.412,1.344,4.18,4.18,0,0,1-.009,3.989,3.507,3.507,0,0,1-1.455,1.361A4.732,4.732,0,0,1,345.263,349.995Z" fill="#54565b"></path>
    <path d="M351.983,349.743a.612.612,0,0,1-.441-.168.555.555,0,0,1-.177-.42.564.564,0,0,1,.177-.412.6.6,0,0,1,.441-.176.609.609,0,0,1,.432.176.554.554,0,0,1,.185.412.545.545,0,0,1-.185.42.623.623,0,0,1-.432.168" fill="#54565b"></path>
    <path d="M367.839,349.995a7.031,7.031,0,0,1-3.3-.764,5.691,5.691,0,0,1-2.292-2.15,6.608,6.608,0,0,1,0-6.409,5.665,5.665,0,0,1,2.292-2.159,7.031,7.031,0,0,1,3.3-.764,6.581,6.581,0,0,1,4.216,1.327v.891a6.716,6.716,0,0,0-7.012-.756,4.9,4.9,0,0,0-1.984,1.864,5.365,5.365,0,0,0-.723,2.8,5.3,5.3,0,0,0,.732,2.814,4.959,4.959,0,0,0,2,1.857,6.069,6.069,0,0,0,2.822.654,7.732,7.732,0,0,0,2.4-.344,5.122,5.122,0,0,0,1.922-1.151v.891a6.363,6.363,0,0,1-4.374,1.394" fill="#54565b"></path>
    <path d="M374.506,337.329h.917v5.695A3.824,3.824,0,0,1,377,341.8a5.063,5.063,0,0,1,1.931-.37,3.331,3.331,0,0,1,2.47.823,3,3,0,0,1,.811,2.2v5.291h-.935v-5.224a2.453,2.453,0,0,0-.582-1.756,2.509,2.509,0,0,0-1.887-.613,3.934,3.934,0,0,0-3.387,1.831v5.762h-.917Z" fill="#54565b"></path>
    <path d="M384.966,341.68h.917v8.063h-.917Zm.458-1.915a.651.651,0,0,1-.467-.176.616.616,0,0,1,0-.882.634.634,0,0,1,.467-.185.645.645,0,0,1,.459.185.6.6,0,0,1,0,.882A.663.663,0,0,1,385.424,339.765Z" fill="#54565b"></path>
    <path d="M388.722,341.68h.9v1.361a3.869,3.869,0,0,1,1.578-1.227,5.024,5.024,0,0,1,1.949-.386,3.329,3.329,0,0,1,2.47.823,3,3,0,0,1,.811,2.2v5.291h-.935v-5.224a2.453,2.453,0,0,0-.582-1.756,2.509,2.509,0,0,0-1.887-.613,3.931,3.931,0,0,0-3.386,1.831v5.762h-.918Z" fill="#54565b"></path>
    <path d="M409.059,349.995a12.49,12.49,0,0,1-1.9-.143,7.337,7.337,0,0,1-1.64-.428v-.84a7.17,7.17,0,0,0,1.675.5,10.624,10.624,0,0,0,1.817.159q3.6,0,3.6-2.6,0-2.486-3.828-2.486h-1.269v-.756h1.252a4.311,4.311,0,0,0,2.478-.655,2.092,2.092,0,0,0,.961-1.831,2.172,2.172,0,0,0-.74-1.772,3.4,3.4,0,0,0-2.205-.613,6.5,6.5,0,0,0-1.729.21,7.273,7.273,0,0,0-1.64.714v-.806a6.662,6.662,0,0,1,3.439-.891,4.2,4.2,0,0,1,2.813.84,2.892,2.892,0,0,1,.98,2.318,2.628,2.628,0,0,1-.636,1.789,3.6,3.6,0,0,1-1.887,1.05,3.611,3.611,0,0,1,2.152.924,2.623,2.623,0,0,1,.776,1.965,3.043,3.043,0,0,1-1.076,2.453,5.2,5.2,0,0,1-3.386.907" fill="#54565b"></path>
    <path d="M415.814,341.68h.9v1.713q1.059-1.713,3.951-1.713v.722q-3.121,0-3.933,2.151v5.19h-.917Z" fill="#54565b"></path>
    <path d="M426.009,349.289a4.2,4.2,0,0,0,2.337-.646,3.36,3.36,0,0,0,1.385-1.806v-2.2a3.168,3.168,0,0,0-1.35-1.822,4.237,4.237,0,0,0-2.372-.664,3.874,3.874,0,0,0-1.843.445,3.328,3.328,0,0,0-1.323,1.26,3.6,3.6,0,0,0-.485,1.873,3.551,3.551,0,0,0,.485,1.865,3.347,3.347,0,0,0,1.323,1.251,3.862,3.862,0,0,0,1.843.445m-.141.706a4.8,4.8,0,0,1-2.24-.521,3.939,3.939,0,0,1-1.588-1.486,4.651,4.651,0,0,1,0-4.5,4.016,4.016,0,0,1,1.588-1.52,4.667,4.667,0,0,1,2.24-.538,5.487,5.487,0,0,1,2.3.47,3.344,3.344,0,0,1,1.562,1.395v-5.964h.934v12.414h-.917V348.13A4.319,4.319,0,0,1,425.868,349.995Z" fill="#54565b"></path>
    <path d="M444.687,343.646a3.291,3.291,0,0,0,2.126-.622,2.18,2.18,0,0,0,.767-1.8,2.234,2.234,0,0,0-.75-1.907,3.485,3.485,0,0,0-2.125-.563h-3.581v4.889Zm-4.5-5.645h4.569q3.74,0,3.739,3.226a2.968,2.968,0,0,1-.829,2.15,3.647,3.647,0,0,1-2.346,1.008l3.157,5.358h-.97L444.37,344.4h-3.246v5.342h-.935Z" fill="#54565b"></path>
    <path d="M454.194,349.289a4.2,4.2,0,0,0,2.337-.646,3.355,3.355,0,0,0,1.385-1.806v-2.2a3.166,3.166,0,0,0-1.349-1.822,4.241,4.241,0,0,0-2.373-.664,3.877,3.877,0,0,0-1.843.445,3.328,3.328,0,0,0-1.323,1.26,3.6,3.6,0,0,0-.485,1.873,3.551,3.551,0,0,0,.485,1.865,3.347,3.347,0,0,0,1.323,1.251,3.865,3.865,0,0,0,1.843.445m-.141.706a4.8,4.8,0,0,1-2.24-.521,3.94,3.94,0,0,1-1.588-1.486,4.651,4.651,0,0,1,0-4.5,4.016,4.016,0,0,1,1.588-1.52,4.667,4.667,0,0,1,2.24-.538,5.5,5.5,0,0,1,2.3.47,3.341,3.341,0,0,1,1.561,1.395v-5.964h.934v12.414h-.917V348.13A4.319,4.319,0,0,1,454.053,349.995Z" fill="#54565b"></path>
    <path d="M461.761,349.743a.612.612,0,0,1-.441-.168.555.555,0,0,1-.177-.42.564.564,0,0,1,.177-.412.6.6,0,0,1,.441-.176.611.611,0,0,1,.432.176.554.554,0,0,1,.185.412.545.545,0,0,1-.185.42.625.625,0,0,1-.432.168" fill="#54565b"></path>
    <path d="M465.712,348.953h.988l-1.552,3.242h-.829Z" fill="#54565b"></path>
    <path d="M475.871,338h.882l7.355,10.2V338h.935v11.742h-.864l-7.373-10.213v10.213h-.935Z" fill="#54565b"></path>
    <path d="M490.863,349.273a4.351,4.351,0,0,0,1.914-.412,2.766,2.766,0,0,0,1.261-1.134v-1.495a7.282,7.282,0,0,0-1.517-.6,6.721,6.721,0,0,0-1.693-.193,3.225,3.225,0,0,0-1.984.479,1.732,1.732,0,0,0-.609,1.452,1.655,1.655,0,0,0,.653,1.412,3.3,3.3,0,0,0,1.975.487m-.229.722a3.839,3.839,0,0,1-2.408-.689,2.3,2.3,0,0,1-.89-1.932,2.338,2.338,0,0,1,.864-1.965,3.981,3.981,0,0,1,2.487-.672,6.69,6.69,0,0,1,3.351.773v-.991a2.211,2.211,0,0,0-.688-1.789,3.4,3.4,0,0,0-2.205-.58,7.269,7.269,0,0,0-2.716.521v-.756a6.341,6.341,0,0,1,1.288-.353,8.527,8.527,0,0,1,1.481-.134,4.194,4.194,0,0,1,2.849.823,2.942,2.942,0,0,1,.926,2.318v5.174h-.864v-1.159A4.151,4.151,0,0,1,490.634,349.995Z" fill="#54565b"></path>
    <path d="M497.53,341.68h.9v1.361a3.869,3.869,0,0,1,1.578-1.227,5.02,5.02,0,0,1,1.949-.386,3.33,3.33,0,0,1,2.47.823,3,3,0,0,1,.811,2.2v5.291H504.3v-5.224a2.453,2.453,0,0,0-.582-1.756,2.509,2.509,0,0,0-1.887-.613,3.934,3.934,0,0,0-3.387,1.831v5.762h-.917Z" fill="#54565b"></path>
    <path d="M507.443,349.1l5.273-6.719h-5.168v-.705h6.262v.655l-5.274,6.7H514v.706h-6.561Z" fill="#54565b"></path>
    <path d="M516.491,341.68h.917v8.063h-.917Zm.459-1.915a.652.652,0,0,1-.468-.176.618.618,0,0,1,0-.882.635.635,0,0,1,.468-.185.643.643,0,0,1,.458.185.6.6,0,0,1,0,.882A.66.66,0,0,1,516.95,339.765Z" fill="#54565b"></path>
    <path d="M520.248,337.329h.917v5.695a3.828,3.828,0,0,1,1.578-1.226,5.069,5.069,0,0,1,1.932-.37,3.328,3.328,0,0,1,2.469.823,3,3,0,0,1,.811,2.2v5.291h-.934v-5.224a2.449,2.449,0,0,0-.583-1.756,2.509,2.509,0,0,0-1.887-.613,3.932,3.932,0,0,0-3.386,1.831v5.762h-.917Z" fill="#54565b"></path>
    <path d="M540.566,348.987q5.927,0,5.927-5.174a4.856,4.856,0,0,0-1.42-3.72,5.765,5.765,0,0,0-4.1-1.336h-2.646v10.23ZM537.391,338h3.651a7.661,7.661,0,0,1,3.413.706,5.023,5.023,0,0,1,2.2,2.015,6.071,6.071,0,0,1,.758,3.091,5.517,5.517,0,0,1-1.746,4.435,7.4,7.4,0,0,1-4.956,1.5h-3.317Z" fill="#54565b"></path>
    <path d="M549.9,341.68h.917v8.063H549.9Zm.459-1.915a.652.652,0,0,1-.468-.176.618.618,0,0,1,0-.882.635.635,0,0,1,.468-.185.643.643,0,0,1,.458.185.6.6,0,0,1,0,.882A.66.66,0,0,1,550.356,339.765Z" fill="#54565b"></path>
    <path d="M556.423,349.995a7,7,0,0,1-1.7-.227,4.4,4.4,0,0,1-1.4-.563v-.755a6.328,6.328,0,0,0,3.086.839q2.328,0,2.328-1.41a1.388,1.388,0,0,0-.211-.8,1.8,1.8,0,0,0-.759-.563,9.782,9.782,0,0,0-1.6-.521,9.723,9.723,0,0,1-1.632-.546,2.31,2.31,0,0,1-.908-.714,1.9,1.9,0,0,1-.317-1.142,1.793,1.793,0,0,1,.873-1.612,4.313,4.313,0,0,1,2.337-.555,5.88,5.88,0,0,1,2.628.5v.756a5.6,5.6,0,0,0-2.593-.538,3.5,3.5,0,0,0-1.737.353,1.175,1.175,0,0,0-.609,1.092,1.305,1.305,0,0,0,.212.79,1.714,1.714,0,0,0,.75.5,13.818,13.818,0,0,0,1.649.5,5.545,5.545,0,0,1,2.187.958,1.923,1.923,0,0,1,.635,1.529,1.8,1.8,0,0,1-.8,1.545,4.153,4.153,0,0,1-2.407.571" fill="#54565b"></path>
    <path d="M564.677,349.995a2.369,2.369,0,0,1-1.746-.613,2.441,2.441,0,0,1-.617-1.806v-5.191h-1.359v-.705h1.359v-2.419h.917v2.419h2.187v.705h-2.187v5.225a1.738,1.738,0,0,0,.4,1.285,1.913,1.913,0,0,0,1.358.394,2.755,2.755,0,0,0,.918-.168v.739a4.648,4.648,0,0,1-1.235.135" fill="#54565b"></path>
    <path d="M568.169,349.743a.615.615,0,0,1-.441-.168.558.558,0,0,1-.176-.42.567.567,0,0,1,.176-.412.629.629,0,0,1,.873,0,.551.551,0,0,1,.185.412.542.542,0,0,1-.185.42.621.621,0,0,1-.432.168" fill="#54565b"></path>
    <path d="M572.12,348.953h.988l-1.552,3.242h-.829Z" fill="#54565b"></path>
    <path d="M582.279,338h.935v5.745L589.247,338h1.181l-6.085,5.8,6.473,5.946h-1.2l-6.4-5.9v5.9h-.935Z" fill="#54565b"></path>
    <path d="M594.961,349.273a4.348,4.348,0,0,0,1.914-.412,2.766,2.766,0,0,0,1.261-1.134v-1.495a7.3,7.3,0,0,0-1.517-.6,6.722,6.722,0,0,0-1.693-.193,3.227,3.227,0,0,0-1.984.479,1.732,1.732,0,0,0-.609,1.452,1.653,1.653,0,0,0,.653,1.412,3.3,3.3,0,0,0,1.975.487m-.229.722a3.839,3.839,0,0,1-2.408-.689,2.3,2.3,0,0,1-.89-1.932,2.338,2.338,0,0,1,.864-1.965,3.982,3.982,0,0,1,2.487-.672,6.69,6.69,0,0,1,3.351.773v-.991a2.208,2.208,0,0,0-.688-1.789,3.4,3.4,0,0,0-2.205-.58,7.269,7.269,0,0,0-2.716.521v-.756a6.341,6.341,0,0,1,1.288-.353,8.536,8.536,0,0,1,1.481-.134,4.194,4.194,0,0,1,2.849.823,2.942,2.942,0,0,1,.926,2.318v5.174h-.864v-1.159A4.152,4.152,0,0,1,594.732,349.995Z" fill="#54565b"></path>
    <path d="M605.385,349.289a4.027,4.027,0,0,0,1.9-.436,3.121,3.121,0,0,0,1.287-1.243,3.741,3.741,0,0,0,.459-1.882,3.79,3.79,0,0,0-.459-1.89,3.109,3.109,0,0,0-1.287-1.251,4.371,4.371,0,0,0-3.81,0,3.121,3.121,0,0,0-1.287,1.251,3.79,3.79,0,0,0-.459,1.89,3.741,3.741,0,0,0,.459,1.882,3.133,3.133,0,0,0,1.287,1.243,4.03,4.03,0,0,0,1.905.436m0,.706a5.078,5.078,0,0,1-2.354-.529,3.944,3.944,0,0,1-1.614-1.495,4.253,4.253,0,0,1-.582-2.243,4.3,4.3,0,0,1,.582-2.251,3.981,3.981,0,0,1,1.614-1.511,5.421,5.421,0,0,1,4.709,0,4.034,4.034,0,0,1,1.622,1.511,4.6,4.6,0,0,1,.009,4.494,3.934,3.934,0,0,1-1.622,1.495A5.141,5.141,0,0,1,605.385,349.995Z" fill="#54565b"></path>
    <path d="M612.246,337.329h.917v5.695a3.837,3.837,0,0,1,1.579-1.226,5.069,5.069,0,0,1,1.932-.37,3.328,3.328,0,0,1,2.469.823,3,3,0,0,1,.811,2.2v5.291h-.935v-5.224a2.453,2.453,0,0,0-.582-1.756,2.509,2.509,0,0,0-1.887-.613,3.934,3.934,0,0,0-3.387,1.831v5.762h-.917Z" fill="#54565b"></path>
    <path d="M625.281,349.995a7,7,0,0,1-1.7-.227,4.4,4.4,0,0,1-1.4-.563v-.755a6.328,6.328,0,0,0,3.086.839q2.328,0,2.328-1.41a1.389,1.389,0,0,0-.211-.8,1.8,1.8,0,0,0-.758-.563,9.832,9.832,0,0,0-1.606-.521,9.643,9.643,0,0,1-1.631-.546,2.3,2.3,0,0,1-.908-.714,1.9,1.9,0,0,1-.318-1.142,1.793,1.793,0,0,1,.873-1.612,4.313,4.313,0,0,1,2.337-.555,5.88,5.88,0,0,1,2.628.5v.756a5.605,5.605,0,0,0-2.593-.538,3.5,3.5,0,0,0-1.737.353,1.175,1.175,0,0,0-.609,1.092,1.305,1.305,0,0,0,.212.79,1.714,1.714,0,0,0,.75.5,13.872,13.872,0,0,0,1.649.5,5.538,5.538,0,0,1,2.187.958,1.923,1.923,0,0,1,.635,1.529,1.8,1.8,0,0,1-.8,1.545,4.153,4.153,0,0,1-2.407.571" fill="#54565b"></path>
    <path d="M630.978,341.68h.917v8.063h-.917Zm.458-1.915a.651.651,0,0,1-.467-.176.618.618,0,0,1,0-.882.634.634,0,0,1,.467-.185.643.643,0,0,1,.459.185.6.6,0,0,1,0,.882A.661.661,0,0,1,631.436,339.765Z" fill="#54565b"></path>
    <path d="M638.1,349.995a3.554,3.554,0,0,1-2.576-.857,3.017,3.017,0,0,1-.882-2.267V341.68h.918v5.207a2.368,2.368,0,0,0,.643,1.772,2.711,2.711,0,0,0,1.967.63,3.691,3.691,0,0,0,1.825-.436,4.194,4.194,0,0,0,1.421-1.395V341.68h.934v8.063h-.917V348.4a3.905,3.905,0,0,1-3.333,1.6" fill="#54565b"></path>
    <path d="M645,341.68h.9v1.361a3.878,3.878,0,0,1,1.579-1.227,5.02,5.02,0,0,1,1.949-.386,3.329,3.329,0,0,1,2.47.823,3,3,0,0,1,.811,2.2v5.291h-.935v-5.224a2.453,2.453,0,0,0-.582-1.756,2.51,2.51,0,0,0-1.888-.613,3.934,3.934,0,0,0-3.386,1.831v5.762H645Z" fill="#54565b"></path>
    <path d="M659.463,349.289a4.25,4.25,0,0,0,2.364-.663,3.155,3.155,0,0,0,1.358-1.823v-2.2A3.25,3.25,0,0,0,661.8,342.8a4.253,4.253,0,0,0-2.337-.647,3.821,3.821,0,0,0-1.834.445,3.423,3.423,0,0,0-1.323,1.252,3.5,3.5,0,0,0-.494,1.864,3.548,3.548,0,0,0,.494,1.874,3.4,3.4,0,0,0,1.323,1.259,3.81,3.81,0,0,0,1.834.445m.124,4.318a9.523,9.523,0,0,1-1.667-.143,5.873,5.873,0,0,1-1.332-.378v-.756a7.333,7.333,0,0,0,3,.571,3.9,3.9,0,0,0,2.707-.815,3.171,3.171,0,0,0,.891-2.46v-1.5a3.465,3.465,0,0,1-1.553,1.395,5.355,5.355,0,0,1-2.292.47,4.782,4.782,0,0,1-2.249-.529,3.957,3.957,0,0,1-1.6-1.5,4.644,4.644,0,0,1,0-4.5,3.968,3.968,0,0,1,1.587-1.5,4.744,4.744,0,0,1,2.24-.529,5.347,5.347,0,0,1,2.3.454,3.807,3.807,0,0,1,1.578,1.394v-1.6h.918v7.811Q664.12,353.607,659.587,353.607Z" fill="#54565b"></path>
    <path d="M667.806,348.953h.988l-1.552,3.242h-.829Z" fill="#54565b"></path>
    <path d="M681.334,338.757H677.26V338h9.084v.756h-4.074v10.986h-.935Z" fill="#54565b"></path>
    <path d="M689.43,349.273a4.344,4.344,0,0,0,1.913-.412,2.757,2.757,0,0,0,1.261-1.134v-1.495a7.276,7.276,0,0,0-1.516-.6,6.721,6.721,0,0,0-1.693-.193,3.231,3.231,0,0,0-1.985.479,1.734,1.734,0,0,0-.608,1.452,1.653,1.653,0,0,0,.653,1.412,3.3,3.3,0,0,0,1.975.487m-.23.722a3.838,3.838,0,0,1-2.407-.689,2.3,2.3,0,0,1-.89-1.932,2.336,2.336,0,0,1,.864-1.965,3.981,3.981,0,0,1,2.487-.672,6.686,6.686,0,0,1,3.35.773v-.991a2.211,2.211,0,0,0-.687-1.789,3.4,3.4,0,0,0-2.205-.58,7.265,7.265,0,0,0-2.716.521v-.756a6.341,6.341,0,0,1,1.288-.353,8.528,8.528,0,0,1,1.481-.134,4.194,4.194,0,0,1,2.849.823,2.942,2.942,0,0,1,.926,2.318v5.174h-.865v-1.159A4.15,4.15,0,0,1,689.2,349.995Z" fill="#54565b"></path>
    <path d="M696.291,341.68h.917v8.063h-.917Zm.458-1.915a.653.653,0,0,1-.467-.176.618.618,0,0,1,0-.882.636.636,0,0,1,.467-.185.643.643,0,0,1,.459.185.6.6,0,0,1,0,.882A.661.661,0,0,1,696.749,339.765Z" fill="#54565b"></path>
    <path d="M699.7,341.68h.935l2.275,7.021,2.258-7.021h.97l2.258,7.021,2.276-7.021h.952l-2.681,8.063h-.97l-2.311-7.156-2.31,7.156h-.988Z" fill="#54565b"></path>
    <path d="M716.292,349.273a4.351,4.351,0,0,0,1.914-.412,2.766,2.766,0,0,0,1.261-1.134v-1.495a7.3,7.3,0,0,0-1.517-.6,6.721,6.721,0,0,0-1.693-.193,3.225,3.225,0,0,0-1.984.479,1.732,1.732,0,0,0-.609,1.452,1.655,1.655,0,0,0,.652,1.412,3.3,3.3,0,0,0,1.976.487m-.229.722a3.839,3.839,0,0,1-2.408-.689,2.3,2.3,0,0,1-.89-1.932,2.338,2.338,0,0,1,.864-1.965,3.981,3.981,0,0,1,2.487-.672,6.689,6.689,0,0,1,3.351.773v-.991a2.208,2.208,0,0,0-.688-1.789,3.4,3.4,0,0,0-2.205-.58,7.269,7.269,0,0,0-2.716.521v-.756a6.341,6.341,0,0,1,1.288-.353,8.528,8.528,0,0,1,1.481-.134,4.189,4.189,0,0,1,2.848.823,2.939,2.939,0,0,1,.927,2.318v5.174h-.864v-1.159A4.152,4.152,0,0,1,716.063,349.995Z" fill="#54565b"></path>
    <path d="M722.959,341.68h.9v1.361a3.869,3.869,0,0,1,1.578-1.227,5.02,5.02,0,0,1,1.949-.386,3.331,3.331,0,0,1,2.47.823,3,3,0,0,1,.811,2.2v5.291h-.935v-5.224a2.453,2.453,0,0,0-.582-1.756,2.509,2.509,0,0,0-1.887-.613,3.934,3.934,0,0,0-3.387,1.831v5.762h-.917Z" fill="#54565b"></path>
    <path d="M743.9,349.323a3.656,3.656,0,0,0,2.408-.714,2.49,2.49,0,0,0,.855-2.024,2.382,2.382,0,0,0-.9-1.974,4.271,4.271,0,0,0-4.728,0,2.382,2.382,0,0,0-.9,1.974,2.488,2.488,0,0,0,.856,2.024,3.652,3.652,0,0,0,2.407.714m0-6.064a3.091,3.091,0,0,0,2.046-.647,2.126,2.126,0,0,0,.776-1.721,2.209,2.209,0,0,0-.767-1.756,3.036,3.036,0,0,0-2.055-.663,3,3,0,0,0-2.046.663,2.217,2.217,0,0,0-.758,1.756,2.136,2.136,0,0,0,.767,1.721A3.057,3.057,0,0,0,743.9,343.259Zm0,6.736a4.769,4.769,0,0,1-3.042-.874,2.987,2.987,0,0,1-1.1-2.486,2.923,2.923,0,0,1,.715-2.024,3.322,3.322,0,0,1,1.878-1.033,2.856,2.856,0,0,1-1.561-.991,2.961,2.961,0,0,1,.423-4.006,4.765,4.765,0,0,1,5.38,0,2.977,2.977,0,0,1,.432,4.006,2.812,2.812,0,0,1-1.552.991,3.323,3.323,0,0,1,1.878,1.033,2.918,2.918,0,0,1,.715,2.024,2.979,2.979,0,0,1-1.111,2.486A4.815,4.815,0,0,1,743.9,349.995Z" fill="#54565b"></path>
    <path d="M752.767,339.009,750,340.924v-.941l2.84-1.982h.864v11.742h-.935Z" fill="#54565b"></path>
    <path d="M758.764,339.009l-2.769,1.915v-.941l2.84-1.982h.864v11.742h-.935Z" fill="#54565b"></path>
    <path d="M763.385,348.953h.988l-1.552,3.242h-.829Z" fill="#54565b"></path>
    <path d="M778.042,343.646a3.291,3.291,0,0,0,2.126-.622,2.18,2.18,0,0,0,.767-1.8,2.234,2.234,0,0,0-.75-1.907,3.485,3.485,0,0,0-2.125-.563h-3.58v4.889Zm-4.5-5.645h4.568q3.74,0,3.739,3.226a2.968,2.968,0,0,1-.829,2.15,3.642,3.642,0,0,1-2.346,1.008l3.158,5.358h-.971l-3.139-5.342H774.48v5.342h-.935Z" fill="#54565b"></path>
    <path d="M784.41,349.743a.612.612,0,0,1-.441-.168.554.554,0,0,1-.176-.42.563.563,0,0,1,.176-.412.6.6,0,0,1,.441-.176.609.609,0,0,1,.432.176.554.554,0,0,1,.185.412.545.545,0,0,1-.185.42.623.623,0,0,1-.432.168" fill="#54565b"></path>
    <path d="M793.37,349.2a5.945,5.945,0,0,0,2.778-.654,4.959,4.959,0,0,0,1.993-1.865,5.741,5.741,0,0,0,.009-5.594,4.991,4.991,0,0,0-1.967-1.873,5.811,5.811,0,0,0-2.778-.663,5.971,5.971,0,0,0-2.8.655,4.947,4.947,0,0,0-1.992,1.864,5.735,5.735,0,0,0,0,5.611,4.968,4.968,0,0,0,1.984,1.865,5.888,5.888,0,0,0,2.769.654m0,.79a6.935,6.935,0,0,1-3.272-.764,5.737,5.737,0,0,1-2.293-2.159,6.5,6.5,0,0,1,0-6.383,5.792,5.792,0,0,1,2.293-2.167,7.328,7.328,0,0,1,6.552,0,5.77,5.77,0,0,1,2.3,2.167,6.5,6.5,0,0,1,0,6.383,5.717,5.717,0,0,1-2.3,2.159A6.982,6.982,0,0,1,793.37,349.995Z" fill="#54565b"></path>
    <path d="M802.347,349.743a.612.612,0,0,1-.44-.168.555.555,0,0,1-.177-.42.564.564,0,0,1,.177-.412.6.6,0,0,1,.44-.176.611.611,0,0,1,.433.176.554.554,0,0,1,.185.412.545.545,0,0,1-.185.42.625.625,0,0,1-.433.168" fill="#54565b"></path>
    <path d="M811.325,349.995a7.024,7.024,0,0,1-3.3-.764,5.681,5.681,0,0,1-2.293-2.15,6.608,6.608,0,0,1,0-6.409,5.656,5.656,0,0,1,2.293-2.159,7.024,7.024,0,0,1,3.3-.764,6.581,6.581,0,0,1,4.216,1.327v.891a6.716,6.716,0,0,0-7.012-.756,4.9,4.9,0,0,0-1.984,1.864,5.365,5.365,0,0,0-.723,2.8,5.3,5.3,0,0,0,.732,2.814,4.959,4.959,0,0,0,2,1.857,6.072,6.072,0,0,0,2.822.654,7.727,7.727,0,0,0,2.4-.344,5.122,5.122,0,0,0,1.922-1.151v.891a6.361,6.361,0,0,1-4.374,1.394" fill="#54565b"></path>
    <path d="M334.556,362.124h-4.075v-.756h9.084v.756h-4.074V373.11h-.935Z" fill="#54565b"></path>
    <path d="M347.044,368.759a3.243,3.243,0,0,0-.9-2.369,3.612,3.612,0,0,0-2.645-.873,3.51,3.51,0,0,0-2.619.907,3.254,3.254,0,0,0-.909,2.335Zm-3.122,4.6a5.153,5.153,0,0,1-3.536-1.118,3.984,3.984,0,0,1-1.261-3.149,3.98,3.98,0,0,1,4.374-4.3,5.092,5.092,0,0,1,2.4.52,3.519,3.519,0,0,1,1.49,1.445,4.324,4.324,0,0,1,.5,2.1v.554h-7.92a2.948,2.948,0,0,0,1.111,2.419,4.675,4.675,0,0,0,2.911.823,9.785,9.785,0,0,0,1.623-.134,6.716,6.716,0,0,0,1.41-.387v.756a6.585,6.585,0,0,1-1.4.336A11.369,11.369,0,0,1,343.922,373.362Z" fill="#54565b"></path>
    <rect width="0.918" height="12.414" transform="translate(350.183 360.696)" fill="#54565b"></rect>
    <path d="M354.011,373.11a.614.614,0,0,1-.441-.168.559.559,0,0,1-.177-.42.568.568,0,0,1,.177-.412.6.6,0,0,1,.441-.176.607.607,0,0,1,.432.176.551.551,0,0,1,.185.412.542.542,0,0,1-.185.42.621.621,0,0,1-.432.168" fill="#54565b"></path>
    <path d="M365.652,368.54h-2.2V367.8h2.2v-2.117h.776V367.8h2.222v.739h-2.222v2.1h-.776Z" fill="#54565b"></path>
    <path d="M374.735,372.69a3.654,3.654,0,0,0,2.408-.714,2.49,2.49,0,0,0,.855-2.024,2.382,2.382,0,0,0-.9-1.974,4.271,4.271,0,0,0-4.728,0,2.382,2.382,0,0,0-.9,1.974,2.488,2.488,0,0,0,.856,2.024,3.651,3.651,0,0,0,2.407.714m0-6.064a3.091,3.091,0,0,0,2.046-.647,2.126,2.126,0,0,0,.776-1.722,2.206,2.206,0,0,0-.767-1.755,3.03,3.03,0,0,0-2.055-.664,3,3,0,0,0-2.046.664,2.218,2.218,0,0,0-.758,1.755,2.14,2.14,0,0,0,.767,1.722A3.057,3.057,0,0,0,374.735,366.626Zm0,6.736a4.779,4.779,0,0,1-3.042-.874,2.987,2.987,0,0,1-1.1-2.486,2.923,2.923,0,0,1,.715-2.024,3.317,3.317,0,0,1,1.878-1.033,2.861,2.861,0,0,1-1.561-.991,2.961,2.961,0,0,1,.423-4.006,4.765,4.765,0,0,1,5.38,0,2.977,2.977,0,0,1,.432,4.006,2.817,2.817,0,0,1-1.552.991,3.317,3.317,0,0,1,1.878,1.033A2.918,2.918,0,0,1,378.9,370a2.977,2.977,0,0,1-1.112,2.486A4.814,4.814,0,0,1,374.735,373.362Z" fill="#54565b"></path>
    <path d="M384.983,372.69a3.651,3.651,0,0,0,2.407-.714,2.488,2.488,0,0,0,.856-2.024,2.38,2.38,0,0,0-.9-1.974,4.269,4.269,0,0,0-4.727,0,2.382,2.382,0,0,0-.9,1.974,2.49,2.49,0,0,0,.855,2.024,3.656,3.656,0,0,0,2.408.714m0-6.064a3.093,3.093,0,0,0,2.046-.647,2.129,2.129,0,0,0,.776-1.722,2.206,2.206,0,0,0-.767-1.755,3.031,3.031,0,0,0-2.055-.664,2.993,2.993,0,0,0-2.046.664,2.216,2.216,0,0,0-.759,1.755,2.14,2.14,0,0,0,.767,1.722A3.059,3.059,0,0,0,384.983,366.626Zm0,6.736a4.78,4.78,0,0,1-3.043-.874,2.989,2.989,0,0,1-1.1-2.486,2.922,2.922,0,0,1,.714-2.024,3.32,3.32,0,0,1,1.879-1.033,2.861,2.861,0,0,1-1.561-.991,2.961,2.961,0,0,1,.423-4.006,4.765,4.765,0,0,1,5.38,0,2.975,2.975,0,0,1,.431,4.006,2.813,2.813,0,0,1-1.552.991,3.316,3.316,0,0,1,1.879,1.033,2.922,2.922,0,0,1,.714,2.024,2.976,2.976,0,0,1-1.111,2.486A4.818,4.818,0,0,1,384.983,373.362Z" fill="#54565b"></path>
    <path d="M395.389,372.606a3.314,3.314,0,0,0,2.372-.84,2.948,2.948,0,0,0,.891-2.251,2.869,2.869,0,0,0-.891-2.217,3.353,3.353,0,0,0-2.372-.823,3.54,3.54,0,0,0-1.649.386,2.944,2.944,0,0,0-1.182,1.083,3.041,3.041,0,0,0,1.129,4.242,3.422,3.422,0,0,0,1.7.42m0,.756a4.442,4.442,0,0,1-2.178-.538,3.841,3.841,0,0,1-1.552-1.613,5.545,5.545,0,0,1-.573-2.637q0-7.458,5.555-7.458a6.07,6.07,0,0,1,1.376.134v.79a4.573,4.573,0,0,0-1.3-.152,4.053,4.053,0,0,0-3.413,1.42,7.78,7.78,0,0,0-1.279,4.309,3.235,3.235,0,0,1,1.4-1.412,4.493,4.493,0,0,1,2.143-.5,4.369,4.369,0,0,1,2.073.479,3.461,3.461,0,0,1,1.411,1.343,4.175,4.175,0,0,1-.009,3.99,3.5,3.5,0,0,1-1.455,1.36A4.72,4.72,0,0,1,395.389,373.362Z" fill="#54565b"></path>
    <path d="M402.109,373.11a.616.616,0,0,1-.441-.168.558.558,0,0,1-.176-.42.567.567,0,0,1,.176-.412.6.6,0,0,1,.441-.176.611.611,0,0,1,.433.176.553.553,0,0,1,.184.412.544.544,0,0,1-.184.42.625.625,0,0,1-.433.168" fill="#54565b"></path>
    <path d="M411.616,362.124H404.49v-.756h8.061v.773l-5.168,10.969h-.918Z" fill="#54565b"></path>
    <path d="M414.932,373.11a.614.614,0,0,1-.441-.168.554.554,0,0,1-.176-.42.563.563,0,0,1,.176-.412.6.6,0,0,1,.441-.176.607.607,0,0,1,.432.176.554.554,0,0,1,.185.412.545.545,0,0,1-.185.42.621.621,0,0,1-.432.168" fill="#54565b"></path>
    <path d="M421.035,373.362a12.619,12.619,0,0,1-1.9-.143,7.323,7.323,0,0,1-1.64-.429v-.84a7.077,7.077,0,0,0,1.675.5,10.528,10.528,0,0,0,1.817.16q3.6,0,3.6-2.6,0-2.486-3.828-2.486h-1.269v-.756h1.252a4.312,4.312,0,0,0,2.478-.655,2.092,2.092,0,0,0,.961-1.831,2.169,2.169,0,0,0-.74-1.772,3.393,3.393,0,0,0-2.2-.614,6.493,6.493,0,0,0-1.729.211,7.266,7.266,0,0,0-1.64.713v-.806a6.671,6.671,0,0,1,3.439-.89,4.2,4.2,0,0,1,2.814.84,2.893,2.893,0,0,1,.978,2.318,2.629,2.629,0,0,1-.635,1.789,3.6,3.6,0,0,1-1.887,1.05,3.611,3.611,0,0,1,2.152.924A2.621,2.621,0,0,1,425.5,370a3.044,3.044,0,0,1-1.076,2.453,5.2,5.2,0,0,1-3.386.907" fill="#54565b"></path>
    <path d="M431.741,372.606a3.316,3.316,0,0,0,2.372-.84,2.948,2.948,0,0,0,.891-2.251,2.869,2.869,0,0,0-.891-2.217,3.355,3.355,0,0,0-2.372-.823,3.54,3.54,0,0,0-1.649.386,2.944,2.944,0,0,0-1.182,1.083,3.041,3.041,0,0,0,1.129,4.242,3.42,3.42,0,0,0,1.7.42m0,.756a4.442,4.442,0,0,1-2.178-.538,3.841,3.841,0,0,1-1.552-1.613,5.545,5.545,0,0,1-.573-2.637q0-7.458,5.555-7.458a6.069,6.069,0,0,1,1.376.134v.79a4.572,4.572,0,0,0-1.3-.152,4.052,4.052,0,0,0-3.413,1.42,7.78,7.78,0,0,0-1.279,4.309,3.235,3.235,0,0,1,1.4-1.412,4.49,4.49,0,0,1,2.143-.5,4.371,4.371,0,0,1,2.073.479,3.46,3.46,0,0,1,1.411,1.343,4.182,4.182,0,0,1-.009,3.99,3.5,3.5,0,0,1-1.455,1.36A4.72,4.72,0,0,1,431.741,373.362Z" fill="#54565b"></path>
    <path d="M440.613,362.376l-2.769,1.915v-.941l2.84-1.982h.864V373.11h-.935Z" fill="#54565b"></path>
    <path d="M444.458,373.11a.616.616,0,0,1-.441-.168.558.558,0,0,1-.176-.42.567.567,0,0,1,.176-.412.629.629,0,0,1,.873,0,.551.551,0,0,1,.185.412.542.542,0,0,1-.185.42.621.621,0,0,1-.432.168" fill="#54565b"></path>
    <path d="M453.965,362.124h-7.126v-.756H454.9v.773l-5.168,10.969h-.918Z" fill="#54565b"></path>
    <path d="M459.433,362.376l-2.769,1.915v-.941l2.84-1.982h.864V373.11h-.934Z" fill="#54565b"></path>
    <path d="M466.206,373.362a12.62,12.62,0,0,1-1.9-.143,7.337,7.337,0,0,1-1.64-.429v-.84a7.077,7.077,0,0,0,1.675.5,10.528,10.528,0,0,0,1.817.16q3.6,0,3.6-2.6,0-2.486-3.827-2.486h-1.27v-.756h1.252a4.311,4.311,0,0,0,2.478-.655,2.092,2.092,0,0,0,.961-1.831,2.169,2.169,0,0,0-.74-1.772,3.393,3.393,0,0,0-2.205-.614,6.493,6.493,0,0,0-1.729.211,7.265,7.265,0,0,0-1.64.713v-.806a6.672,6.672,0,0,1,3.44-.89,4.2,4.2,0,0,1,2.813.84,2.893,2.893,0,0,1,.979,2.318,2.634,2.634,0,0,1-.635,1.789,3.6,3.6,0,0,1-1.888,1.05,3.611,3.611,0,0,1,2.152.924,2.621,2.621,0,0,1,.776,1.965,3.041,3.041,0,0,1-1.076,2.453,5.2,5.2,0,0,1-3.386.907" fill="#54565b"></path>
    <path d="M475.378,362.376l-2.769,1.915v-.941l2.839-1.982h.864V373.11h-.934Z" fill="#54565b"></path>
    <path d="M493.4,368.759a3.238,3.238,0,0,0-.9-2.369,3.617,3.617,0,0,0-2.646-.873,3.511,3.511,0,0,0-2.619.907,3.249,3.249,0,0,0-.908,2.335Zm-3.121,4.6a5.155,5.155,0,0,1-3.537-1.118,3.983,3.983,0,0,1-1.261-3.149,3.981,3.981,0,0,1,4.374-4.3,5.092,5.092,0,0,1,2.4.52,3.527,3.527,0,0,1,1.491,1.445,4.323,4.323,0,0,1,.5,2.1v.554h-7.919a2.946,2.946,0,0,0,1.111,2.419,4.672,4.672,0,0,0,2.91.823,9.767,9.767,0,0,0,1.623-.134,6.709,6.709,0,0,0,1.411-.387v.756a6.6,6.6,0,0,1-1.4.336A11.37,11.37,0,0,1,490.282,373.362Z" fill="#54565b"></path>
    <path d="M499.824,368.86l-3.263-3.813h1.076l2.716,3.175,2.716-3.175h1.076l-3.263,3.8,3.651,4.267h-1.059l-3.122-3.628-3.122,3.628H496.19Z" fill="#54565b"></path>
    <path d="M509.4,373.362a2.368,2.368,0,0,1-1.746-.614,2.434,2.434,0,0,1-.618-1.8v-5.191h-1.358v-.705h1.358v-2.419h.918v2.419h2.187v.705h-2.187v5.224a1.735,1.735,0,0,0,.4,1.285,1.911,1.911,0,0,0,1.358.4,2.759,2.759,0,0,0,.918-.168v.739a4.654,4.654,0,0,1-1.235.135" fill="#54565b"></path>
    <path d="M512.893,373.11a.614.614,0,0,1-.441-.168.558.558,0,0,1-.176-.42.567.567,0,0,1,.176-.412.6.6,0,0,1,.441-.176.607.607,0,0,1,.432.176.551.551,0,0,1,.185.412.542.542,0,0,1-.185.42.621.621,0,0,1-.432.168" fill="#54565b"></path>
    <path d="M529.684,369.112l1.076-3.629H526.3l-1.076,3.629Zm-5.556.756h-1.8v-.756h2.028l1.077-3.629h-2.4v-.755h2.61l1.005-3.36h.865l-1.006,3.36h4.463l1.005-3.36h.882l-1.005,3.36h1.728v.755h-1.94l-1.076,3.629h2.311v.756h-2.54l-.953,3.242H528.5l.953-3.242h-4.462l-.953,3.242h-.864Z" fill="#54565b"></path>
    <path d="M542.877,369.112l1.076-3.629h-4.462l-1.076,3.629Zm-5.556.756h-1.8v-.756h2.028l1.076-3.629h-2.4v-.755h2.61l1.005-3.36h.865l-1.006,3.36h4.463l1.005-3.36h.882l-1.005,3.36h1.728v.755h-1.94l-1.076,3.629h2.311v.756h-2.54l-.953,3.242H541.7l.952-3.242h-4.463l-.952,3.242h-.864Z" fill="#54565b"></path>
    <path d="M556.07,369.112l1.076-3.629h-4.462l-1.076,3.629Zm-5.556.756h-1.8v-.756h2.029l1.076-3.629h-2.4v-.755h2.61l1.006-3.36h.864l-1.005,3.36h4.462l1.005-3.36h.882l-1.005,3.36h1.728v.755h-1.94l-1.076,3.629h2.311v.756h-2.54l-.952,3.242h-.882l.952-3.242h-4.462l-.953,3.242h-.864Z" fill="#54565b"></path>
    <path d="M569.264,369.112l1.076-3.629h-4.463l-1.076,3.629Zm-5.556.756h-1.8v-.756h2.028l1.076-3.629h-2.4v-.755h2.611l1.005-3.36h.864l-1.005,3.36h4.462l1.005-3.36h.882l-1.005,3.36h1.729v.755h-1.94l-1.077,3.629h2.311v.756h-2.54l-.952,3.242h-.882l.952-3.242h-4.462l-.953,3.242h-.864Z" fill="#54565b"></path>
    <path d="M582.457,369.112l1.076-3.629h-4.462l-1.077,3.629Zm-5.556.756h-1.8v-.756h2.028l1.076-3.629h-2.4v-.755h2.611l1-3.36h.864l-1.005,3.36h4.462l1.006-3.36h.881l-1.005,3.36h1.729v.755h-1.94l-1.076,3.629h2.31v.756H583.11l-.953,3.242h-.882l.952-3.242h-4.462l-.952,3.242h-.865Z" fill="#54565b"></path>
    <path d="M334.362,396.006a4.348,4.348,0,0,0,1.914-.412,2.765,2.765,0,0,0,1.261-1.133v-1.5a7.334,7.334,0,0,0-1.517-.6,6.721,6.721,0,0,0-1.693-.193,3.234,3.234,0,0,0-1.984.479,1.734,1.734,0,0,0-.609,1.453,1.655,1.655,0,0,0,.653,1.411,3.3,3.3,0,0,0,1.975.487m-.229.722a3.842,3.842,0,0,1-2.407-.688,2.3,2.3,0,0,1-.891-1.932,2.339,2.339,0,0,1,.864-1.966,3.981,3.981,0,0,1,2.487-.672,6.687,6.687,0,0,1,3.351.773v-.991a2.209,2.209,0,0,0-.688-1.789,3.4,3.4,0,0,0-2.2-.58,7.27,7.27,0,0,0-2.717.521v-.756a6.34,6.34,0,0,1,1.288-.353,8.536,8.536,0,0,1,1.481-.134,4.2,4.2,0,0,1,2.849.823,2.942,2.942,0,0,1,.926,2.318v5.174h-.864v-1.159A4.151,4.151,0,0,1,334.133,396.728Z" fill="#54565b"></path>
    <path d="M343.358,396.728a7,7,0,0,1-1.7-.227,4.427,4.427,0,0,1-1.4-.562v-.756a6.344,6.344,0,0,0,3.086.84q2.328,0,2.328-1.411a1.389,1.389,0,0,0-.211-.8,1.8,1.8,0,0,0-.759-.563,9.781,9.781,0,0,0-1.605-.521,9.642,9.642,0,0,1-1.631-.546,2.287,2.287,0,0,1-.908-.714,1.9,1.9,0,0,1-.318-1.142,1.793,1.793,0,0,1,.873-1.612,4.313,4.313,0,0,1,2.337-.555,5.88,5.88,0,0,1,2.628.5v.756a5.618,5.618,0,0,0-2.593-.538,3.5,3.5,0,0,0-1.737.353,1.176,1.176,0,0,0-.609,1.092,1.305,1.305,0,0,0,.212.79,1.725,1.725,0,0,0,.749.5,14.134,14.134,0,0,0,1.65.5,5.552,5.552,0,0,1,2.187.958,1.925,1.925,0,0,1,.635,1.529,1.8,1.8,0,0,1-.8,1.545,4.153,4.153,0,0,1-2.407.571" fill="#54565b"></path>
    <path d="M356.428,392.125a3.241,3.241,0,0,0-.9-2.368,3.617,3.617,0,0,0-2.646-.874,3.515,3.515,0,0,0-2.619.907,3.251,3.251,0,0,0-.908,2.335Zm-3.123,4.6a5.154,5.154,0,0,1-3.536-1.117,3.986,3.986,0,0,1-1.261-3.15,4.289,4.289,0,0,1,1.138-3.141,4.332,4.332,0,0,1,3.236-1.159,5.089,5.089,0,0,1,2.4.521,3.507,3.507,0,0,1,1.49,1.445,4.306,4.306,0,0,1,.5,2.1v.555h-7.919a2.947,2.947,0,0,0,1.111,2.419,4.678,4.678,0,0,0,2.91.823,9.661,9.661,0,0,0,1.623-.135,6.667,6.667,0,0,0,1.411-.386v.756a6.742,6.742,0,0,1-1.4.336A11.507,11.507,0,0,1,353.3,396.728Z" fill="#54565b"></path>
    <path d="M363.765,396.023a4.239,4.239,0,0,0,2.363-.664,3.147,3.147,0,0,0,1.358-1.822v-2.2a3.249,3.249,0,0,0-1.384-1.806,4.255,4.255,0,0,0-2.337-.647,3.825,3.825,0,0,0-1.835.445,3.444,3.444,0,0,0-1.323,1.252,3.5,3.5,0,0,0-.493,1.865,3.544,3.544,0,0,0,.493,1.873,3.421,3.421,0,0,0,1.323,1.26,3.825,3.825,0,0,0,1.835.445m.123,4.317a9.531,9.531,0,0,1-1.667-.143,5.812,5.812,0,0,1-1.331-.378v-.756a7.332,7.332,0,0,0,3,.571,3.9,3.9,0,0,0,2.708-.814,3.176,3.176,0,0,0,.89-2.461v-1.5a3.451,3.451,0,0,1-1.552,1.395,5.356,5.356,0,0,1-2.293.47,4.788,4.788,0,0,1-2.249-.529,3.964,3.964,0,0,1-1.6-1.5,4.644,4.644,0,0,1,0-4.5,3.974,3.974,0,0,1,1.587-1.5,4.75,4.75,0,0,1,2.241-.529,5.342,5.342,0,0,1,2.3.454,3.815,3.815,0,0,1,1.579,1.394v-1.6h.917v7.811Q368.421,400.34,363.888,400.34Z" fill="#54565b"></path>
    <rect width="0.917" height="12.414" transform="translate(371.067 384.063)" fill="#54565b"></rect>
    <path d="M378.827,396.023a4.024,4.024,0,0,0,1.9-.437,3.129,3.129,0,0,0,1.288-1.243,3.74,3.74,0,0,0,.459-1.882,3.783,3.783,0,0,0-.459-1.889,3.114,3.114,0,0,0-1.288-1.252,4.371,4.371,0,0,0-3.81,0,3.117,3.117,0,0,0-1.287,1.252,3.783,3.783,0,0,0-.459,1.889,3.74,3.74,0,0,0,.459,1.882,3.133,3.133,0,0,0,1.287,1.243,4.03,4.03,0,0,0,1.9.437m0,.7a5.081,5.081,0,0,1-2.354-.529,3.944,3.944,0,0,1-1.614-1.495,4.627,4.627,0,0,1,0-4.493,3.977,3.977,0,0,1,1.614-1.512,5.421,5.421,0,0,1,4.709,0,4.039,4.039,0,0,1,1.623,1.512,4.6,4.6,0,0,1,.009,4.493,3.937,3.937,0,0,1-1.623,1.495A5.141,5.141,0,0,1,378.827,396.728Z" fill="#54565b"></path>
    <path d="M390.063,396.023a3.877,3.877,0,0,0,1.843-.445,3.356,3.356,0,0,0,1.323-1.252,3.549,3.549,0,0,0,.485-1.865,3.592,3.592,0,0,0-.485-1.872,3.33,3.33,0,0,0-1.323-1.261,3.877,3.877,0,0,0-1.843-.445,4.218,4.218,0,0,0-2.346.664,3.232,3.232,0,0,0-1.376,1.822v2.2a3.4,3.4,0,0,0,1.385,1.8,4.161,4.161,0,0,0,2.337.655m.141.7a4.372,4.372,0,0,1-3.881-1.865v1.613h-.9V384.063h.917v5.963a3.385,3.385,0,0,1,1.588-1.386,5.453,5.453,0,0,1,2.275-.479,4.713,4.713,0,0,1,2.248.538,3.994,3.994,0,0,1,1.6,1.52,4.644,4.644,0,0,1,0,4.5,3.922,3.922,0,0,1-1.6,1.487A4.845,4.845,0,0,1,390.2,396.728Z" fill="#54565b"></path>
    <path d="M399.658,396.006a4.347,4.347,0,0,0,1.913-.412,2.76,2.76,0,0,0,1.261-1.133v-1.5a7.35,7.35,0,0,0-1.516-.6,6.727,6.727,0,0,0-1.693-.193,3.237,3.237,0,0,0-1.985.479,1.733,1.733,0,0,0-.608,1.453,1.654,1.654,0,0,0,.652,1.411,3.3,3.3,0,0,0,1.976.487m-.23.722a3.842,3.842,0,0,1-2.407-.688,2.3,2.3,0,0,1-.891-1.932,2.339,2.339,0,0,1,.864-1.966,3.986,3.986,0,0,1,2.487-.672,6.687,6.687,0,0,1,3.351.773v-.991a2.212,2.212,0,0,0-.687-1.789,3.4,3.4,0,0,0-2.2-.58,7.265,7.265,0,0,0-2.716.521v-.756a6.348,6.348,0,0,1,1.287-.353,8.547,8.547,0,0,1,1.482-.134,4.2,4.2,0,0,1,2.848.823,2.939,2.939,0,0,1,.927,2.318v5.174H402.9v-1.159A4.151,4.151,0,0,1,399.428,396.728Z" fill="#54565b"></path>
    <rect width="0.918" height="12.414" transform="translate(406.324 384.063)" fill="#54565b"></rect>
    <path d="M410.152,396.476a.616.616,0,0,1-.441-.168.578.578,0,0,1,0-.831.6.6,0,0,1,.441-.177.608.608,0,0,1,.433.177.561.561,0,0,1,0,.831.625.625,0,0,1-.433.168" fill="#54565b"></path>
    <path d="M417.243,396.728a5.1,5.1,0,0,1-2.3-.512,3.933,3.933,0,0,1-1.632-1.487,4.576,4.576,0,0,1,0-4.527,4.009,4.009,0,0,1,1.649-1.512,5.169,5.169,0,0,1,2.355-.529,7.338,7.338,0,0,1,1.667.168,3.975,3.975,0,0,1,1.3.554v.756a4.114,4.114,0,0,0-1.3-.579,6.612,6.612,0,0,0-1.605-.177,4.211,4.211,0,0,0-1.914.429,3.261,3.261,0,0,0-1.349,1.234,3.6,3.6,0,0,0-.494,1.915,3.654,3.654,0,0,0,.485,1.916,3.161,3.161,0,0,0,1.332,1.226,4.185,4.185,0,0,0,1.887.42,6.391,6.391,0,0,0,1.685-.2,5.249,5.249,0,0,0,1.4-.621v.755a4.178,4.178,0,0,1-1.367.588,7.66,7.66,0,0,1-1.79.185" fill="#54565b"></path>
    <path d="M426.273,396.023a4.025,4.025,0,0,0,1.9-.437,3.13,3.13,0,0,0,1.288-1.243,3.751,3.751,0,0,0,.459-1.882,3.794,3.794,0,0,0-.459-1.889,3.114,3.114,0,0,0-1.288-1.252,4.371,4.371,0,0,0-3.81,0,3.117,3.117,0,0,0-1.287,1.252,3.783,3.783,0,0,0-.459,1.889,3.74,3.74,0,0,0,.459,1.882,3.133,3.133,0,0,0,1.287,1.243,4.03,4.03,0,0,0,1.9.437m0,.7a5.078,5.078,0,0,1-2.354-.529A3.953,3.953,0,0,1,422.3,394.7a4.634,4.634,0,0,1,0-4.493,3.986,3.986,0,0,1,1.615-1.512,5.421,5.421,0,0,1,4.709,0,4.029,4.029,0,0,1,1.622,1.512,4.6,4.6,0,0,1,.009,4.493,3.928,3.928,0,0,1-1.622,1.495A5.141,5.141,0,0,1,426.273,396.728Z" fill="#54565b"></path>
    <path d="M433.134,388.413h.9v1.361a4.093,4.093,0,0,1,1.437-1.243,3.786,3.786,0,0,1,1.667-.37,3.271,3.271,0,0,1,1.711.37,1.914,1.914,0,0,1,.829,1.125,3.4,3.4,0,0,1,1.411-1.142,4.463,4.463,0,0,1,1.764-.353,2.807,2.807,0,0,1,2.169.722,3.167,3.167,0,0,1,.653,2.184v5.409h-.917v-5.325a2.674,2.674,0,0,0-.45-1.747,2.086,2.086,0,0,0-1.632-.521,3.347,3.347,0,0,0-2.8,1.479,4.182,4.182,0,0,1,.071.84v5.274h-.917V391.2a2.854,2.854,0,0,0-.433-1.789,2,2,0,0,0-1.614-.53,2.96,2.96,0,0,0-1.56.42,4.794,4.794,0,0,0-1.367,1.361v5.812h-.918Z" fill="#54565b"></path>
  </g>
</svg>
