<?xml version="1.0" encoding="utf-8"?>
<!-- Generator: Adobe Illustrator 20.0.0, SVG Export Plug-In . SVG Version: 6.00 Build 0)  -->
<svg version="1.1" id="Layer_1" xmlns="http://www.w3.org/2000/svg" xmlns:xlink="http://www.w3.org/1999/xlink" x="0px" y="0px"
	 viewBox="0 0 7.5 7.5" style="enable-background:new 0 0 7.5 7.5;" xml:space="preserve">
<style type="text/css">
	.st0{fill:#808080;}
</style>
<g>
	<g>
		<circle class="st0" cx="1.6" cy="1.5" r="1.5"/>
		<circle class="st0" cx="5.9" cy="1.5" r="1.5"/>
		<circle class="st0" cx="1.6" cy="6" r="1.5"/>
		<circle class="st0" cx="5.9" cy="6" r="1.5"/>
	</g>
</g>
</svg>
